﻿Groupe de la nomenclature INCA 2,Libellé,Type,Date,Région,Vague,Bpa,LOD/LOQ,Unité
Abats,foie,R,2008,8,2,0.647,,µg/Kg
Abats,foie,R,2008,7,2,0.76,,µg/Kg
Abats,foie,R,2008,2,2,0.806,,µg/Kg
Abats,foie,R,2008,2,1,2.17,,µg/Kg
Abats,foie,R,2007,7,1,2.51,,µg/Kg
Abats,foie,R,2007,1,1,3.07,,µg/Kg
Abats,foie,R,2008,34,2,3.16,,µg/Kg
Abats,foie,R,2008,9,2,3.351,,µg/Kg
Abats,foie,R,2008,9,1,3.529,,µg/Kg
Abats,foie,R,2008,5,1,4.297,,µg/Kg
Abats,foie,R,2009,6,2,6.72,,µg/Kg
Abats,foie,R,2008,1,2,9.55,,µg/Kg
Abats,foie,R,2007,34,1,11.94,,µg/Kg
Abats,foie,R,2008,6,1,14.927,,µg/Kg
Abats,foie,R,2009,5,2,394.757,,µg/Kg
Aliments destinés à une alimentaire particulière,tofu,N,2007,99,1,0.484,,µg/Kg
Aliments destinés à une alimentaire particulière,tofu,N,2008,99,2,0.517,,µg/Kg
Autres boissons chaudes,boisson instantanée au chocolat,R,2008,8,2,0.107,,µg/Kg
Autres boissons chaudes,boisson instantanée au chocolat,R,2007,7,1,0.116,,µg/Kg
Autres boissons chaudes,boisson instantanée au chocolat,R,2008,5,1,0.122,,µg/Kg
Autres boissons chaudes,thé ou tisane,R,2008,9,1,0.154,,µg/Kg
Autres boissons chaudes,thé ou tisane,R,2008,34,2,0.166,,µg/Kg
Autres boissons chaudes,boisson instantanée au chocolat,R,2008,9,2,0.19,,µg/Kg
Autres boissons chaudes,thé ou tisane,R,2008,2,1,0.209,,µg/Kg
Autres boissons chaudes,thé ou tisane,R,2009,5,2,0.306,,µg/Kg
Autres boissons chaudes,thé ou tisane,R,2007,7,1,0.414,,µg/Kg
Autres boissons chaudes,boisson instantanée au chocolat,R,2009,6,2,0.928,,µg/Kg
Autres boissons chaudes,boisson instantanée au chocolat,R,2008,7,2,<LOD,0.09,µg/Kg
Autres boissons chaudes,boisson instantanée au chocolat,R,2008,2,2,<LOD,0.09,µg/Kg
Autres boissons chaudes,boisson instantanée au chocolat,R,2008,6,1,<LOD,0.09,µg/Kg
Autres boissons chaudes,boisson instantanée au chocolat,R,2008,8,1,<LOD,0.09,µg/Kg
Autres boissons chaudes,boisson instantanée au chocolat,R,2008,34,2,<LOD,0.09,µg/Kg
Autres boissons chaudes,boisson instantanée au chocolat,R,2007,34,1,<LOD,0.09,µg/Kg
Autres boissons chaudes,boisson instantanée au chocolat,R,2008,2,1,<LOD,0.09,µg/Kg
Autres boissons chaudes,boisson instantanée au chocolat,R,2008,9,1,<LOD,0.09,µg/Kg
Autres boissons chaudes,thé ou tisane,R,2008,1,2,<LOD,0.09,µg/Kg
Autres boissons chaudes,thé ou tisane,R,2008,8,2,<LOD,0.09,µg/Kg
Autres boissons chaudes,thé ou tisane,R,2008,2,2,<LOD,0.09,µg/Kg
Autres boissons chaudes,thé ou tisane,R,2008,5,1,<LOD,0.09,µg/Kg
Autres boissons chaudes,thé ou tisane,R,2008,6,1,<LOD,0.09,µg/Kg
Autres boissons chaudes,thé ou tisane,R,2008,8,1,<LOD,0.09,µg/Kg
Autres boissons chaudes,thé ou tisane,R,2008,7,2,<LOD,0.09,µg/Kg
Autres boissons chaudes,thé ou tisane,R,2009,6,2,<LOD,0.09,µg/Kg
Autres boissons chaudes,thé ou tisane,R,2008,9,2,<LOD,0.09,µg/Kg
Autres boissons chaudes,thé ou tisane,R,2007,1,1,<LOD,0.09,µg/Kg
Beurre,beurre salé,N,2007,99,1,0.22,,µg/Kg
Beurre,beurre,N,2008,99,2,0.32,,µg/Kg
Beurre,beurre salé,N,2008,99,2,0.438,,µg/Kg
Beurre,beurre allégé à 60-62 % m.g.,N,2008,99,2,0.45,,µg/Kg
Beurre,beurre allégé à 60-62 % m.g.,N,2007,99,1,0.54,,µg/Kg
Beurre,beurre,N,2007,99,1,<LOD,0.21,µg/Kg
Biscuits sucrés ou salés et barres,pomme de terre chips salées,R,2007,7,1,0.26,,µg/Kg
Biscuits sucrés ou salés et barres,pomme de terre chips salées,R,2009,5,2,0.271,,µg/Kg
Biscuits sucrés ou salés et barres,pomme de terre chips salées,R,2008,34,2,0.29,,µg/Kg
Biscuits sucrés ou salés et barres,pomme de terre chips salées,R,2007,34,1,0.303,,µg/Kg
Biscuits sucrés ou salés et barres,pomme de terre chips salées,R,2009,6,2,0.37,,µg/Kg
Biscuits sucrés ou salés et barres,pomme de terre chips salées,R,2008,7,2,0.383,,µg/Kg
Biscuits sucrés ou salés et barres,pomme de terre chips salées,R,2008,8,1,0.4,,µg/Kg
Biscuits sucrés ou salés et barres,pomme de terre chips salées,R,2008,1,2,0.415,,µg/Kg
Biscuits sucrés ou salés et barres,pomme de terre chips salées,R,2007,1,1,0.44,,µg/Kg
Biscuits sucrés ou salés et barres,biscuit sec,N,2008,99,2,7.302,,µg/Kg
Biscuits sucrés ou salés et barres,barquette à la pulpe de fruit fabri,N,2008,99,2,<LOD,0.21,µg/Kg
Biscuits sucrés ou salés et barres,barquette à la pulpe de fruit fabri,N,2007,99,1,<LOD,0.21,µg/Kg
Biscuits sucrés ou salés et barres,biscuit apéritif,N,2008,99,2,<LOD,0.21,µg/Kg
Biscuits sucrés ou salés et barres,biscuit apéritif,N,2007,99,1,<LOD,0.21,µg/Kg
Biscuits sucrés ou salés et barres,biscuit sec,N,2007,99,1,<LOD,0.21,µg/Kg
Biscuits sucrés ou salés et barres,biscuit sec au chocolat,N,2008,99,2,<LOD,0.21,µg/Kg
Biscuits sucrés ou salés et barres,biscuit sec au chocolat,N,2007,99,1,<LOD,0.21,µg/Kg
Biscuits sucrés ou salés et barres,pomme de terre chips salées,R,2008,5,1,<LOD,0.21,µg/Kg
Biscuits sucrés ou salés et barres,pomme de terre chips salées,R,2008,2,2,<LOD,0.21,µg/Kg
Biscuits sucrés ou salés et barres,pomme de terre chips salées,R,2008,8,2,<LOD,0.21,µg/Kg
Biscuits sucrés ou salés et barres,pomme de terre chips salées,R,2008,9,2,<LOD,0.21,µg/Kg
Biscuits sucrés ou salés et barres,pomme de terre chips salées,R,2008,9,1,<LOD,0.21,µg/Kg
Biscuits sucrés ou salés et barres,pomme de terre chips salées,R,2008,2,1,<LOD,0.21,µg/Kg
Biscuits sucrés ou salés et barres,pomme de terre chips salées,R,2008,6,1,<LOD,0.21,µg/Kg
Boissons alcoolisées,pastis prêt à boire (1+5),N,2007,99,1,0.217,,µg/Kg
Boissons alcoolisées,bière,N,2007,99,1,0.376,,µg/Kg
Boissons alcoolisées,cidre,N,2008,99,2,0.437,,µg/Kg
Boissons alcoolisées,bière,N,2008,99,2,0.777,,µg/Kg
Boissons alcoolisées,vin,N,2007,99,1,1.04,,µg/Kg
Boissons alcoolisées,vin,N,2008,99,2,1.04,,µg/Kg
Boissons alcoolisées,champagne,N,2007,99,1,1.401,,µg/Kg
Boissons alcoolisées,champagne,N,2008,99,2,1.539,,µg/Kg
Boissons fraîches sans alcool,boisson gazeuse au jus d'orange pul,N,2007,99,1,0.197,,µg/Kg
Boissons fraîches sans alcool,pur jus de raisin pasteurisé,N,2008,99,2,0.25,,µg/Kg
Boissons fraîches sans alcool,limonade type seven'up ou sprite,N,2007,99,1,0.351,,µg/Kg
Boissons fraîches sans alcool,boisson au soja ou tonyu ou lait de,N,2007,99,1,0.409,,µg/Kg
Boissons fraîches sans alcool,jus d'orange frais non sucré,N,2007,99,1,0.424,,µg/Kg
Boissons fraîches sans alcool,pur jus de raisin pasteurisé,N,2007,99,1,0.465,,µg/Kg
Boissons fraîches sans alcool,boisson plate à l'orange type oasis,N,2007,99,1,0.665,,µg/Kg
Boissons fraîches sans alcool,sirop aux extraits de fruits à dilu,N,2007,99,1,2.637,,µg/Kg
Boissons fraîches sans alcool,jus d'orange frais non sucré,N,2008,99,2,5.96,,µg/Kg
Boissons fraîches sans alcool,boisson au soja ou tonyu ou lait de,N,2008,99,2,<LOD,0.09,µg/Kg
Boissons fraîches sans alcool,boisson aux extraits de thé aromati,N,2008,99,2,<LOD,0.09,µg/Kg
Boissons fraîches sans alcool,boisson aux extraits de thé aromati,N,2007,99,1,<LOD,0.09,µg/Kg
Boissons fraîches sans alcool,boisson gazeuse au jus d'orange pul,N,2008,99,2,<LOD,0.09,µg/Kg
Boissons fraîches sans alcool,boisson plate à l'orange type oasis,N,2008,99,2,<LOD,0.09,µg/Kg
Boissons fraîches sans alcool,jus d'ananas à base de concentré,N,2008,99,2,<LOD,0.09,µg/Kg
Boissons fraîches sans alcool,jus d'ananas à base de concentré,N,2007,99,1,<LOD,0.09,µg/Kg
Boissons fraîches sans alcool,jus de fruits multivitamines 100% p,N,2008,99,2,<LOD,0.09,µg/Kg
Boissons fraîches sans alcool,jus de fruits multivitamines 100% p,N,2007,99,1,<LOD,0.09,µg/Kg
Boissons fraîches sans alcool,jus de pomme à base de concentré pa,N,2008,99,2,<LOD,0.09,µg/Kg
Boissons fraîches sans alcool,jus de pomme à base de concentré pa,N,2007,99,1,<LOD,0.09,µg/Kg
Boissons fraîches sans alcool,jus d'orange à base de concentré pa,N,2008,99,2,<LOD,0.09,µg/Kg
Boissons fraîches sans alcool,jus d'orange à base de concentré pa,N,2007,99,1,<LOD,0.09,µg/Kg
Boissons fraîches sans alcool,limonade type seven'up ou sprite,N,2008,99,2,<LOD,0.09,µg/Kg
Boissons fraîches sans alcool,soda,N,2008,99,2,<LOD,0.09,µg/Kg
Boissons fraîches sans alcool,soda,N,2007,99,1,<LOD,0.09,µg/Kg
Café,café noir,R,2008,34,2,0.09,,µg/Kg
Café,café soluble reconstitué prêt à boi,R,2008,1,2,0.095,,µg/Kg
Café,café noir,R,2008,2,1,0.121,,µg/Kg
Café,café soluble reconstitué prêt à boi,R,2008,6,1,0.123,,µg/Kg
Café,café noir,R,2009,5,2,0.132,,µg/Kg
Café,café noir,R,2008,9,2,0.161,,µg/Kg
Café,café soluble reconstitué prêt à boi,R,2008,8,1,0.208,,µg/Kg
Café,café soluble reconstitué prêt à boi,R,2008,2,1,0.215,,µg/Kg
Café,café soluble reconstitué prêt à boi,R,2008,7,2,0.222,,µg/Kg
Café,café soluble reconstitué prêt à boi,R,2007,1,1,0.281,,µg/Kg
Café,café soluble reconstitué prêt à boi,R,2007,7,1,0.378,,µg/Kg
Café,café noir,R,2007,7,1,0.66,,µg/Kg
Café,café noir,R,2009,6,2,<LOD,0.09,µg/Kg
Café,café noir,R,2008,2,2,<LOD,0.09,µg/Kg
Café,café noir,R,2008,6,1,<LOD,0.09,µg/Kg
Café,café noir,R,2008,5,1,<LOD,0.09,µg/Kg
Café,café noir,R,2008,8,1,<LOD,0.09,µg/Kg
Café,café noir,R,2008,8,2,<LOD,0.09,µg/Kg
Café,café noir,R,2007,1,1,<LOD,0.09,µg/Kg
Café,café noir,R,2008,1,2,<LOD,0.09,µg/Kg
Café,café noir,R,2008,7,2,<LOD,0.09,µg/Kg
Café,café noir,R,2008,9,1,<LOD,0.09,µg/Kg
Café,café soluble reconstitué prêt à boi,R,2008,5,1,<LOD,0.09,µg/Kg
Café,café soluble reconstitué prêt à boi,R,2008,2,2,<LOD,0.09,µg/Kg
Café,café soluble reconstitué prêt à boi,R,2009,6,2,<LOD,0.09,µg/Kg
Café,café soluble reconstitué prêt à boi,R,2008,8,2,<LOD,0.09,µg/Kg
Café,café soluble reconstitué prêt à boi,R,2008,34,2,<LOD,0.09,µg/Kg
Café,café soluble reconstitué prêt à boi,R,2009,5,2,<LOD,0.09,µg/Kg
Café,café soluble reconstitué prêt à boi,R,2008,9,2,<LOD,0.09,µg/Kg
Café,café soluble reconstitué prêt à boi,R,2008,9,1,<LOD,0.09,µg/Kg
Céréales pour petit déjeuner,muesli,N,2008,99,2,0.444,,µg/Kg
Céréales pour petit déjeuner,céréales au chocolat,N,2008,99,2,<LOD,0.21,µg/Kg
Céréales pour petit déjeuner,muesli,N,2007,99,1,<LOD,0.21,µg/Kg
Céréales pour petit déjeuner,pétales de maïs,N,2007,99,1,<LOD,0.21,µg/Kg
Céréales pour petit déjeuner,pétales de maïs,N,2008,99,2,<LOD,0.21,µg/Kg
Charcuterie,saucisson sec,R,2008,34,2,0.305,,µg/Kg
Charcuterie,jambon cuit,R,2008,8,2,0.308,,µg/Kg
Charcuterie,jambon cuit,R,2008,7,2,0.341,,µg/Kg
Charcuterie,jambon cru,R,2009,5,2,0.362,,µg/Kg
Charcuterie,saucisse de strasbourg ou knack d'a,R,2008,2,1,0.381,,µg/Kg
Charcuterie,jambon cuit,R,2007,1,1,0.4,,µg/Kg
Charcuterie,"lard, bacon",R,2009,5,2,0.428,,µg/Kg
Charcuterie,pâté,R,2008,7,2,0.437,,µg/Kg
Charcuterie,saucisse de strasbourg ou knack d'a,R,2008,34,2,0.518,,µg/Kg
Charcuterie,"lard, bacon",R,2007,1,1,0.528,,µg/Kg
Charcuterie,jambon cuit,R,2008,6,1,0.571,,µg/Kg
Charcuterie,jambon cuit,R,2008,9,2,0.571,,µg/Kg
Charcuterie,jambon cru,R,2008,9,2,0.613,,µg/Kg
Charcuterie,saucisse de strasbourg ou knack d'a,R,2008,8,1,0.614,,µg/Kg
Charcuterie,jambon cuit,R,2008,5,1,0.615,,µg/Kg
Charcuterie,saucisse de strasbourg ou knack d'a,R,2008,8,2,0.623,,µg/Kg
Charcuterie,jambon cuit,R,2009,5,2,0.66,,µg/Kg
Charcuterie,saucisse de strasbourg ou knack d'a,R,2008,5,1,0.744,,µg/Kg
Charcuterie,jambon cru,R,2008,9,1,0.751,,µg/Kg
Charcuterie,saucisse de strasbourg ou knack d'a,R,2009,5,2,0.773,,µg/Kg
Charcuterie,saucisse de strasbourg ou knack d'a,R,2007,34,1,0.782,,µg/Kg
Charcuterie,saucisson sec,R,2008,9,1,0.817,,µg/Kg
Charcuterie,pâté,R,2008,8,1,0.82,,µg/Kg
Charcuterie,"lard, bacon",R,2008,5,1,0.853,,µg/Kg
Charcuterie,jambon cuit,R,2009,6,2,0.881,,µg/Kg
Charcuterie,jambon cru,R,2008,8,2,0.893,,µg/Kg
Charcuterie,saucisson sec,R,2008,2,2,0.904,,µg/Kg
Charcuterie,saucisse de strasbourg ou knack d'a,R,2008,2,2,0.919,,µg/Kg
Charcuterie,pâté,R,2009,6,2,0.944,,µg/Kg
Charcuterie,pâté,R,2008,9,1,0.947,,µg/Kg
Charcuterie,pâté,R,2008,6,1,0.995,,µg/Kg
Charcuterie,jambon cuit,R,2008,2,2,1.019,,µg/Kg
Charcuterie,saucisson sec,R,2008,5,1,1.075,,µg/Kg
Charcuterie,jambon cuit,R,2008,1,2,1.087,,µg/Kg
Charcuterie,jambon cuit,R,2007,34,1,1.237,,µg/Kg
Charcuterie,pâté,R,2008,9,2,1.523,,µg/Kg
Charcuterie,pâté,R,2008,2,2,1.532,,µg/Kg
Charcuterie,pâté,R,2007,1,1,1.727,,µg/Kg
Charcuterie,merguez cuite,R,2008,2,2,1.871,,µg/Kg
Charcuterie,chipolata,R,2008,8,2,2.046,,µg/Kg
Charcuterie,pâté,R,2007,7,1,2.361,,µg/Kg
Charcuterie,jambon cru,R,2008,34,2,2.367,,µg/Kg
Charcuterie,jambon cuit,R,2007,7,1,2.467,,µg/Kg
Charcuterie,merguez cuite,R,2008,7,2,2.959,,µg/Kg
Charcuterie,merguez cuite,R,2008,2,1,3.472,,µg/Kg
Charcuterie,merguez cuite,R,2008,5,1,4.034,,µg/Kg
Charcuterie,jambon cuit,R,2008,9,1,5.011,,µg/Kg
Charcuterie,pâté,R,2008,8,2,5.932,,µg/Kg
Charcuterie,pâté,R,2009,5,2,6.07,,µg/Kg
Charcuterie,merguez cuite,R,2009,5,2,7.377,,µg/Kg
Charcuterie,pâté,R,2008,5,1,9.204,,µg/Kg
Charcuterie,chipolata,R,2008,8,1,9.871,,µg/Kg
Charcuterie,jambon cru,R,2008,5,1,11.351,,µg/Kg
Charcuterie,foie gras en conserve,R,2008,34,2,15.065,,µg/Kg
Charcuterie,foie gras en conserve,R,2007,34,1,16.351,,µg/Kg
Charcuterie,"lard, bacon",R,2008,1,2,<LOD,0.21,µg/Kg
Chocolat,barre chocolatée biscuitée type kit,N,2007,99,1,0.347,,µg/Kg
Chocolat,chocolat au lait aux fruits secs (a,N,2008,99,2,0.38,,µg/Kg
Chocolat,chocolat au lait,N,2008,99,2,0.382,,µg/Kg
Chocolat,chocolat au lait aux fruits secs (a,N,2007,99,1,0.391,,µg/Kg
Chocolat,chocolat au lait,N,2007,99,1,0.63,,µg/Kg
Chocolat,chocolat noir,N,2007,99,1,0.854,,µg/Kg
Chocolat,pâte à tartiner chocolatée type nut,N,2007,99,1,<LOD,0.21,µg/Kg
Chocolat,pâte à tartiner chocolatée type nut,N,2008,99,2,<LOD,0.21,µg/Kg
Compotes et fruits cuits,compote de fruits autres que pomme,N,2007,99,1,0.238,,µg/Kg
Compotes et fruits cuits,compote de fruits allégée,N,2008,99,2,0.307,,µg/Kg
Compotes et fruits cuits,compote de fruits allégée,N,2007,99,1,0.316,,µg/Kg
Compotes et fruits cuits,compote de pomme en conserve,N,2008,99,2,0.319,,µg/Kg
Compotes et fruits cuits,compote de fruits autres que pomme,N,2008,99,2,0.396,,µg/Kg
Compotes et fruits cuits,fruits au sirop en conserve,N,2007,99,1,0.796,,µg/Kg
Compotes et fruits cuits,compote de pomme en conserve,N,2007,99,1,<LOD,0.21,µg/Kg
Compotes et fruits cuits,fruits au sirop en conserve,N,2008,99,2,<LOD,0.21,µg/Kg
Condiments et sauces,vinaigrette,N,2007,99,1,0.181,,µg/Kg
Condiments et sauces,sauce de soja,N,2008,99,2,0.221,,µg/Kg
Condiments et sauces,sauce de soja,N,2008,99,2,0.221,,µg/Kg
Condiments et sauces,vinaigrette,N,2008,99,2,0.291,,µg/Kg
Condiments et sauces,sauce tomate à la viande,N,2007,99,1,2.474,,µg/Kg
Condiments et sauces,mayonnaise sans autre précision,N,2008,99,2,2.48,,µg/Kg
Condiments et sauces,sauce tomate sans viande,N,2007,99,1,3.3,,µg/Kg
Condiments et sauces,sauce tomate à la viande,N,2008,99,2,5.005,,µg/Kg
Condiments et sauces,mayonnaise sans autre précision,N,2007,99,1,<LOD,0.21,µg/Kg
Condiments et sauces,sauce de soja,N,2007,99,1,<LOD,0.21,µg/Kg
Condiments et sauces,sauce de soja,N,2007,99,1,<LOD,0.21,µg/Kg
Crustacés et mollusques,coquille st jacques cuite,R,2009,5,2,1.392,,µg/Kg
Crustacés et mollusques,coquille st jacques cuite,R,2008,2,2,1.471,,µg/Kg
Crustacés et mollusques,huître,R,2008,2,1,1.96,,µg/Kg
Crustacés et mollusques,huître,R,2008,8,1,1.96,,µg/Kg
Crustacés et mollusques,huître,R,2008,8,2,1.96,,µg/Kg
Crustacés et mollusques,huître,R,2008,9,2,1.96,,µg/Kg
Crustacés et mollusques,huître,R,2009,5,2,1.96,,µg/Kg
Crustacés et mollusques,huître,R,2009,6,2,1.96,,µg/Kg
Crustacés et mollusques,crevette cuite,R,2008,2,2,2.001,,µg/Kg
Crustacés et mollusques,crevette cuite,R,2008,9,2,3.422,,µg/Kg
Crustacés et mollusques,crevette cuite,R,2008,8,1,4.305,,µg/Kg
Crustacés et mollusques,moule cuite à l'eau,R,2007,1,1,6.06,,µg/Kg
Crustacés et mollusques,moule cuite à l'eau,R,2007,7,1,6.06,,µg/Kg
Crustacés et mollusques,moule cuite à l'eau,R,2007,34,1,6.06,,µg/Kg
Crustacés et mollusques,moule cuite à l'eau,R,2008,1,2,6.06,,µg/Kg
Crustacés et mollusques,moule cuite à l'eau,R,2008,5,1,6.06,,µg/Kg
Crustacés et mollusques,moule cuite à l'eau,R,2008,7,2,6.06,,µg/Kg
Crustacés et mollusques,moule cuite à l'eau,R,2008,9,1,6.06,,µg/Kg
Crustacés et mollusques,moule cuite à l'eau,R,2008,9,2,6.06,,µg/Kg
Crustacés et mollusques,moule cuite à l'eau,R,2008,34,2,6.06,,µg/Kg
Crustacés et mollusques,moule cuite à l'eau,R,2009,5,2,6.06,,µg/Kg
Crustacés et mollusques,crevette cuite,R,2008,5,1,6.588,,µg/Kg
Crustacés et mollusques,crevette cuite,R,2008,8,2,6.859,,µg/Kg
Crustacés et mollusques,crevette cuite,R,2007,7,1,7.855,,µg/Kg
Crustacés et mollusques,crevette cuite,R,2007,34,1,7.891,,µg/Kg
Crustacés et mollusques,crevette cuite,R,2008,2,1,8.407,,µg/Kg
Crustacés et mollusques,crevette cuite,R,2009,5,2,13.225,,µg/Kg
Crustacés et mollusques,crevette cuite,R,2008,7,2,17.75,,µg/Kg
Crustacés et mollusques,crevette cuite,R,2008,34,2,17.75,,µg/Kg
Crustacés et mollusques,crevette cuite,R,2007,1,1,19.36,,µg/Kg
Crustacés et mollusques,crevette cuite,R,2008,1,2,19.36,,µg/Kg
Crustacés et mollusques,crevette cuite,R,2009,6,2,19.36,,µg/Kg
Crustacés et mollusques,crevette cuite,R,2008,6,1,26.15,,µg/Kg
Eaux,eau du robinet,R,,1,,0.025,,µg/Kg
Eaux,eau du robinet,R,,9,,0.052,,µg/Kg
Eaux,badoit,N,,99,,<LOD,0.008,µg/Kg
Eaux,badoit,N,,99,,<LOD,0.008,µg/Kg
Eaux,contrex,N,,99,,<LOD,0.008,µg/Kg
Eaux,contrex,N,,99,,<LOD,0.008,µg/Kg
Eaux,courmayeur,N,,99,,<LOD,0.008,µg/Kg
Eaux,courmayeur,N,,99,,<LOD,0.008,µg/Kg
Eaux,eau de source,R,,99,,<LOD,0.008,µg/Kg
Eaux,eau de source,R,,99,,<LOD,0.008,µg/Kg
Eaux,eau de source,R,,99,,<LOD,0.008,µg/Kg
Eaux,eau de source,R,,99,,<LOD,0.008,µg/Kg
Eaux,eau de source,R,,99,,<LOD,0.008,µg/Kg
Eaux,eau de source,R,,99,,<LOD,0.008,µg/Kg
Eaux,eau de source,R,,99,,<LOD,0.008,µg/Kg
Eaux,eau de source,R,,99,,<LOD,0.008,µg/Kg
Eaux,eau de source,R,,99,,<LOD,0.008,µg/Kg
Eaux,eau de source,R,,99,,<LOD,0.008,µg/Kg
Eaux,eau de source,R,,99,,<LOD,0.008,µg/Kg
Eaux,eau de source,R,,99,,<LOD,0.008,µg/Kg
Eaux,eau de source,R,,99,,<LOD,0.008,µg/Kg
Eaux,eau de source,R,,99,,<LOD,0.008,µg/Kg
Eaux,eau de source,R,,99,,<LOD,0.008,µg/Kg
Eaux,eau de source,R,,99,,<LOD,0.008,µg/Kg
Eaux,eau de source,R,,99,,<LOD,0.008,µg/Kg
Eaux,eau de source,R,,99,,<LOD,0.008,µg/Kg
Eaux,eau du robinet,R,,5,,<LOD,0.008,µg/Kg
Eaux,eau du robinet,R,,5,,<LOD,0.008,µg/Kg
Eaux,eau du robinet,R,,5,,<LOD,0.008,µg/Kg
Eaux,eau du robinet,R,,5,,<LOD,0.008,µg/Kg
Eaux,eau du robinet,R,,5,,<LOD,0.008,µg/Kg
Eaux,eau du robinet,R,,8,,<LOD,0.008,µg/Kg
Eaux,eau du robinet,R,,8,,<LOD,0.008,µg/Kg
Eaux,eau du robinet,R,,8,,<LOD,0.008,µg/Kg
Eaux,eau du robinet,R,,8,,<LOD,0.008,µg/Kg
Eaux,eau du robinet,R,,8,,<LOD,0.008,µg/Kg
Eaux,eau du robinet,R,,8,,<LOD,0.008,µg/Kg
Eaux,eau du robinet,R,,8,,<LOD,0.008,µg/Kg
Eaux,eau du robinet,R,,8,,<LOD,0.008,µg/Kg
Eaux,eau du robinet,R,,8,,<LOD,0.008,µg/Kg
Eaux,eau du robinet,R,,8,,<LOD,0.008,µg/Kg
Eaux,eau du robinet,R,,8,,<LOD,0.008,µg/Kg
Eaux,eau du robinet,R,,8,,<LOD,0.008,µg/Kg
Eaux,eau du robinet,R,,8,,<LOD,0.008,µg/Kg
Eaux,eau du robinet,R,,8,,<LOD,0.008,µg/Kg
Eaux,eau du robinet,R,,8,,<LOD,0.008,µg/Kg
Eaux,eau du robinet,R,,8,,<LOD,0.008,µg/Kg
Eaux,eau du robinet,R,,9,,<LOD,0.008,µg/Kg
Eaux,eau du robinet,R,,9,,<LOD,0.008,µg/Kg
Eaux,eau du robinet,R,,9,,<LOD,0.008,µg/Kg
Eaux,eau du robinet,R,,9,,<LOD,0.008,µg/Kg
Eaux,eau du robinet,R,,9,,<LOD,0.008,µg/Kg
Eaux,eau du robinet,R,,9,,<LOD,0.008,µg/Kg
Eaux,eau du robinet,R,,9,,<LOD,0.008,µg/Kg
Eaux,eau du robinet,R,,9,,<LOD,0.008,µg/Kg
Eaux,eau du robinet,R,,9,,<LOD,0.008,µg/Kg
Eaux,eau du robinet,R,,9,,<LOD,0.008,µg/Kg
Eaux,eau du robinet,R,,9,,<LOD,0.008,µg/Kg
Eaux,eau du robinet,R,,9,,<LOD,0.008,µg/Kg
Eaux,eau du robinet,R,,2,,<LOD,0.008,µg/Kg
Eaux,eau du robinet,R,,2,,<LOD,0.008,µg/Kg
Eaux,eau du robinet,R,,2,,<LOD,0.008,µg/Kg
Eaux,eau du robinet,R,,2,,<LOD,0.008,µg/Kg
Eaux,eau du robinet,R,,2,,<LOD,0.008,µg/Kg
Eaux,eau du robinet,R,,2,,<LOD,0.008,µg/Kg
Eaux,eau du robinet,R,,2,,<LOD,0.008,µg/Kg
Eaux,eau du robinet,R,,2,,<LOD,0.008,µg/Kg
Eaux,eau du robinet,R,,9,,<LOD,0.008,µg/Kg
Eaux,eau du robinet,R,,9,,<LOD,0.008,µg/Kg
Eaux,eau du robinet,R,,9,,<LOD,0.008,µg/Kg
Eaux,eau du robinet,R,,9,,<LOD,0.008,µg/Kg
Eaux,eau du robinet,R,,9,,<LOD,0.008,µg/Kg
Eaux,eau du robinet,R,,9,,<LOD,0.008,µg/Kg
Eaux,eau du robinet,R,,9,,<LOD,0.008,µg/Kg
Eaux,eau du robinet,R,,9,,<LOD,0.008,µg/Kg
Eaux,eau du robinet,R,,9,,<LOD,0.008,µg/Kg
Eaux,eau du robinet,R,,9,,<LOD,0.008,µg/Kg
Eaux,eau du robinet,R,,9,,<LOD,0.008,µg/Kg
Eaux,eau du robinet,R,,1,,<LOD,0.008,µg/Kg
Eaux,eau du robinet,R,,1,,<LOD,0.008,µg/Kg
Eaux,eau du robinet,R,,1,,<LOD,0.008,µg/Kg
Eaux,eau du robinet,R,,1,,<LOD,0.008,µg/Kg
Eaux,eau du robinet,R,,1,,<LOD,0.008,µg/Kg
Eaux,eau du robinet,R,,1,,<LOD,0.008,µg/Kg
Eaux,eau du robinet,R,,1,,<LOD,0.008,µg/Kg
Eaux,eau du robinet,R,,1,,<LOD,0.008,µg/Kg
Eaux,eau du robinet,R,,1,,<LOD,0.008,µg/Kg
Eaux,eau du robinet,R,,1,,<LOD,0.008,µg/Kg
Eaux,eau du robinet,R,,1,,<LOD,0.008,µg/Kg
Eaux,eau du robinet,R,,1,,<LOD,0.008,µg/Kg
Eaux,eau du robinet,R,,9,,<LOD,0.008,µg/Kg
Eaux,eau du robinet,R,,9,,<LOD,0.008,µg/Kg
Eaux,eau du robinet,R,,9,,<LOD,0.008,µg/Kg
Eaux,eau du robinet,R,,9,,<LOD,0.008,µg/Kg
Eaux,eau du robinet,R,,9,,<LOD,0.008,µg/Kg
Eaux,eau du robinet,R,,9,,<LOD,0.008,µg/Kg
Eaux,eau du robinet,R,,9,,<LOD,0.008,µg/Kg
Eaux,eau du robinet,R,,9,,<LOD,0.008,µg/Kg
Eaux,eau du robinet,R,,9,,<LOD,0.008,µg/Kg
Eaux,eau du robinet,R,,9,,<LOD,0.008,µg/Kg
Eaux,eau du robinet,R,,9,,<LOD,0.008,µg/Kg
Eaux,eau du robinet,R,,9,,<LOD,0.008,µg/Kg
Eaux,eau du robinet,R,,9,,<LOD,0.008,µg/Kg
Eaux,eau du robinet,R,,9,,<LOD,0.008,µg/Kg
Eaux,eau du robinet,R,,9,,<LOD,0.008,µg/Kg
Eaux,eau du robinet,R,,5,,<LOD,0.008,µg/Kg
Eaux,eau du robinet,R,,5,,<LOD,0.008,µg/Kg
Eaux,eau du robinet,R,,5,,<LOD,0.008,µg/Kg
Eaux,eau du robinet,R,,5,,<LOD,0.008,µg/Kg
Eaux,eau du robinet,R,,5,,<LOD,0.008,µg/Kg
Eaux,eau du robinet,R,,5,,<LOD,0.008,µg/Kg
Eaux,eau du robinet,R,,5,,<LOD,0.008,µg/Kg
Eaux,eau du robinet,R,,5,,<LOD,0.008,µg/Kg
Eaux,eau du robinet,R,,5,,<LOD,0.008,µg/Kg
Eaux,eau du robinet,R,,5,,<LOD,0.008,µg/Kg
Eaux,eau du robinet,R,,6,,<LOD,0.008,µg/Kg
Eaux,eau du robinet,R,,6,,<LOD,0.008,µg/Kg
Eaux,eau du robinet,R,,6,,<LOD,0.008,µg/Kg
Eaux,eau du robinet,R,,6,,<LOD,0.008,µg/Kg
Eaux,eau du robinet,R,,6,,<LOD,0.008,µg/Kg
Eaux,eau du robinet,R,,6,,<LOD,0.008,µg/Kg
Eaux,eau du robinet,R,,6,,<LOD,0.008,µg/Kg
Eaux,eau du robinet,R,,6,,<LOD,0.008,µg/Kg
Eaux,eau du robinet,R,,6,,<LOD,0.008,µg/Kg
Eaux,eau du robinet,R,,6,,<LOD,0.008,µg/Kg
Eaux,eau du robinet,R,,2,,<LOD,0.008,µg/Kg
Eaux,eau du robinet,R,,2,,<LOD,0.008,µg/Kg
Eaux,eau du robinet,R,,2,,<LOD,0.008,µg/Kg
Eaux,eau du robinet,R,,2,,<LOD,0.008,µg/Kg
Eaux,eau du robinet,R,,2,,<LOD,0.008,µg/Kg
Eaux,eau du robinet,R,,2,,<LOD,0.008,µg/Kg
Eaux,eau du robinet,R,,34,,<LOD,0.008,µg/Kg
Eaux,eau du robinet,R,,34,,<LOD,0.008,µg/Kg
Eaux,eau du robinet,R,,34,,<LOD,0.008,µg/Kg
Eaux,eau du robinet,R,,34,,<LOD,0.008,µg/Kg
Eaux,eau du robinet,R,,34,,<LOD,0.008,µg/Kg
Eaux,eau du robinet,R,,34,,<LOD,0.008,µg/Kg
Eaux,eau du robinet,R,,34,,<LOD,0.008,µg/Kg
Eaux,eau du robinet,R,,34,,<LOD,0.008,µg/Kg
Eaux,eau du robinet,R,,34,,<LOD,0.008,µg/Kg
Eaux,eau du robinet,R,,34,,<LOD,0.008,µg/Kg
Eaux,eau du robinet,R,,34,,<LOD,0.008,µg/Kg
Eaux,eau du robinet,R,,34,,<LOD,0.008,µg/Kg
Eaux,eau du robinet,R,,34,,<LOD,0.008,µg/Kg
Eaux,eau du robinet,R,,34,,<LOD,0.008,µg/Kg
Eaux,eau du robinet,R,,34,,<LOD,0.008,µg/Kg
Eaux,eau du robinet,R,,34,,<LOD,0.008,µg/Kg
Eaux,eau du robinet,R,,34,,<LOD,0.008,µg/Kg
Eaux,eau du robinet,R,,34,,<LOD,0.008,µg/Kg
Eaux,eau du robinet,R,,34,,<LOD,0.008,µg/Kg
Eaux,eau du robinet,R,,34,,<LOD,0.008,µg/Kg
Eaux,eau du robinet,R,,34,,<LOD,0.008,µg/Kg
Eaux,eau du robinet,R,,34,,<LOD,0.008,µg/Kg
Eaux,eau du robinet,R,,34,,<LOD,0.008,µg/Kg
Eaux,eau du robinet,R,,34,,<LOD,0.008,µg/Kg
Eaux,eau du robinet,R,,7,,<LOD,0.008,µg/Kg
Eaux,eau du robinet,R,,7,,<LOD,0.008,µg/Kg
Eaux,eau du robinet,R,,7,,<LOD,0.008,µg/Kg
Eaux,eau du robinet,R,,7,,<LOD,0.008,µg/Kg
Eaux,eau du robinet,R,,7,,<LOD,0.008,µg/Kg
Eaux,eau du robinet,R,,7,,<LOD,0.008,µg/Kg
Eaux,eau du robinet,R,,7,,<LOD,0.008,µg/Kg
Eaux,eau du robinet,R,,7,,<LOD,0.008,µg/Kg
Eaux,eau du robinet,R,,7,,<LOD,0.008,µg/Kg
Eaux,eau du robinet,R,,7,,<LOD,0.008,µg/Kg
Eaux,eau du robinet,R,,7,,<LOD,0.008,µg/Kg
Eaux,eau du robinet,R,,7,,<LOD,0.008,µg/Kg
Eaux,eau du robinet,R,,7,,<LOD,0.008,µg/Kg
Eaux,eau du robinet,R,,7,,<LOD,0.008,µg/Kg
Eaux,eau du robinet,R,,7,,<LOD,0.008,µg/Kg
Eaux,eau du robinet,R,,9,,<LOD,0.008,µg/Kg
Eaux,eau du robinet,R,,9,,<LOD,0.008,µg/Kg
Eaux,eau du robinet,R,,9,,<LOD,0.008,µg/Kg
Eaux,eau du robinet,R,,9,,<LOD,0.008,µg/Kg
Eaux,eau du robinet,R,,9,,<LOD,0.008,µg/Kg
Eaux,eau du robinet,R,,9,,<LOD,0.008,µg/Kg
Eaux,eau du robinet,R,,9,,<LOD,0.008,µg/Kg
Eaux,eau du robinet,R,,9,,<LOD,0.008,µg/Kg
Eaux,eau du robinet,R,,9,,<LOD,0.008,µg/Kg
Eaux,eau du robinet,R,,5,,<LOD,0.008,µg/Kg
Eaux,eau du robinet,R,,5,,<LOD,0.008,µg/Kg
Eaux,eau du robinet,R,,5,,<LOD,0.008,µg/Kg
Eaux,eau du robinet,R,,5,,<LOD,0.008,µg/Kg
Eaux,eau du robinet,R,,5,,<LOD,0.008,µg/Kg
Eaux,eau du robinet,R,,5,,<LOD,0.008,µg/Kg
Eaux,eau du robinet,R,,5,,<LOD,0.008,µg/Kg
Eaux,eau du robinet,R,,5,,<LOD,0.008,µg/Kg
Eaux,eau du robinet,R,,5,,<LOD,0.008,µg/Kg
Eaux,eau du robinet,R,,5,,<LOD,0.008,µg/Kg
Eaux,eau du robinet,R,,5,,<LOD,0.008,µg/Kg
Eaux,eau du robinet,R,,5,,<LOD,0.008,µg/Kg
Eaux,eau du robinet,R,,8,,<LOD,0.008,µg/Kg
Eaux,eau du robinet,R,,8,,<LOD,0.008,µg/Kg
Eaux,eau du robinet,R,,8,,<LOD,0.008,µg/Kg
Eaux,eau du robinet,R,,8,,<LOD,0.008,µg/Kg
Eaux,eau du robinet,R,,8,,<LOD,0.008,µg/Kg
Eaux,eau du robinet,R,,8,,<LOD,0.008,µg/Kg
Eaux,eau du robinet,R,,8,,<LOD,0.008,µg/Kg
Eaux,eau du robinet,R,,8,,<LOD,0.008,µg/Kg
Eaux,eau du robinet,R,,8,,<LOD,0.008,µg/Kg
Eaux,eau du robinet,R,,8,,<LOD,0.008,µg/Kg
Eaux,eau du robinet,R,,8,,<LOD,0.008,µg/Kg
Eaux,eau du robinet,R,,8,,<LOD,0.008,µg/Kg
Eaux,eau du robinet,R,,8,,<LOD,0.008,µg/Kg
Eaux,eau du robinet,R,,8,,<LOD,0.008,µg/Kg
Eaux,eau du robinet,R,,8,,<LOD,0.008,µg/Kg
Eaux,eau du robinet,R,,8,,<LOD,0.008,µg/Kg
Eaux,eau du robinet,R,,8,,<LOD,0.008,µg/Kg
Eaux,eau du robinet,R,,8,,<LOD,0.008,µg/Kg
Eaux,eau du robinet,R,,8,,<LOD,0.008,µg/Kg
Eaux,eau du robinet,R,,8,,<LOD,0.008,µg/Kg
Eaux,eau du robinet,R,,8,,<LOD,0.008,µg/Kg
Eaux,eau du robinet,R,,8,,<LOD,0.008,µg/Kg
Eaux,eau du robinet,R,,8,,<LOD,0.008,µg/Kg
Eaux,eau du robinet,R,,8,,<LOD,0.008,µg/Kg
Eaux,eau du robinet,R,,2,,<LOD,0.008,µg/Kg
Eaux,eau du robinet,R,,2,,<LOD,0.008,µg/Kg
Eaux,eau du robinet,R,,2,,<LOD,0.008,µg/Kg
Eaux,eau du robinet,R,,2,,<LOD,0.008,µg/Kg
Eaux,eau du robinet,R,,2,,<LOD,0.008,µg/Kg
Eaux,eau du robinet,R,,1,,<LOD,0.008,µg/Kg
Eaux,eau du robinet,R,,1,,<LOD,0.008,µg/Kg
Eaux,eau du robinet,R,,1,,<LOD,0.008,µg/Kg
Eaux,eau du robinet,R,,1,,<LOD,0.008,µg/Kg
Eaux,eau du robinet,R,,1,,<LOD,0.008,µg/Kg
Eaux,eau du robinet,R,,1,,<LOD,0.008,µg/Kg
Eaux,eau du robinet,R,,1,,<LOD,0.008,µg/Kg
Eaux,eau du robinet,R,,1,,<LOD,0.008,µg/Kg
Eaux,eau du robinet,R,,1,,<LOD,0.008,µg/Kg
Eaux,eau du robinet,R,,1,,<LOD,0.008,µg/Kg
Eaux,eau du robinet,R,,1,,<LOD,0.008,µg/Kg
Eaux,eau du robinet,R,,1,,<LOD,0.008,µg/Kg
Eaux,eau du robinet,R,,1,,<LOD,0.008,µg/Kg
Eaux,eau du robinet,R,,1,,<LOD,0.008,µg/Kg
Eaux,eau du robinet,R,,2,,<LOD,0.008,µg/Kg
Eaux,eau du robinet,R,,2,,<LOD,0.008,µg/Kg
Eaux,eau du robinet,R,,2,,<LOD,0.008,µg/Kg
Eaux,eau du robinet,R,,2,,<LOD,0.008,µg/Kg
Eaux,eau du robinet,R,,2,,<LOD,0.008,µg/Kg
Eaux,eau du robinet,R,,2,,<LOD,0.008,µg/Kg
Eaux,eau du robinet,R,,2,,<LOD,0.008,µg/Kg
Eaux,eau du robinet,R,,2,,<LOD,0.008,µg/Kg
Eaux,eau du robinet,R,,2,,<LOD,0.008,µg/Kg
Eaux,eau du robinet,R,,1,,<LOD,0.008,µg/Kg
Eaux,eau du robinet,R,,1,,<LOD,0.008,µg/Kg
Eaux,eau du robinet,R,,1,,<LOD,0.008,µg/Kg
Eaux,eau du robinet,R,,1,,<LOD,0.008,µg/Kg
Eaux,eau du robinet,R,,1,,<LOD,0.008,µg/Kg
Eaux,eau du robinet,R,,1,,<LOD,0.008,µg/Kg
Eaux,eau du robinet,R,,1,,<LOD,0.008,µg/Kg
Eaux,eau du robinet,R,,1,,<LOD,0.008,µg/Kg
Eaux,eau du robinet,R,,1,,<LOD,0.008,µg/Kg
Eaux,eau du robinet,R,,1,,<LOD,0.008,µg/Kg
Eaux,eau du robinet,R,,1,,<LOD,0.008,µg/Kg
Eaux,eau du robinet,R,,1,,<LOD,0.008,µg/Kg
Eaux,eau du robinet,R,,7,,<LOD,0.008,µg/Kg
Eaux,eau du robinet,R,,7,,<LOD,0.008,µg/Kg
Eaux,eau du robinet,R,,7,,<LOD,0.008,µg/Kg
Eaux,eau du robinet,R,,7,,<LOD,0.008,µg/Kg
Eaux,eau du robinet,R,,7,,<LOD,0.008,µg/Kg
Eaux,eau du robinet,R,,7,,<LOD,0.008,µg/Kg
Eaux,eau du robinet,R,,7,,<LOD,0.008,µg/Kg
Eaux,eau du robinet,R,,7,,<LOD,0.008,µg/Kg
Eaux,eau du robinet,R,,7,,<LOD,0.008,µg/Kg
Eaux,eau du robinet,R,,7,,<LOD,0.008,µg/Kg
Eaux,eau du robinet,R,,7,,<LOD,0.008,µg/Kg
Eaux,eau du robinet,R,,7,,<LOD,0.008,µg/Kg
Eaux,eau du robinet,R,,7,,<LOD,0.008,µg/Kg
Eaux,eau du robinet,R,,7,,<LOD,0.008,µg/Kg
Eaux,eau du robinet,R,,7,,<LOD,0.008,µg/Kg
Eaux,eau du robinet,R,,6,,<LOD,0.008,µg/Kg
Eaux,eau du robinet,R,,6,,<LOD,0.008,µg/Kg
Eaux,eau du robinet,R,,6,,<LOD,0.008,µg/Kg
Eaux,eau du robinet,R,,6,,<LOD,0.008,µg/Kg
Eaux,eau du robinet,R,,6,,<LOD,0.008,µg/Kg
Eaux,eau du robinet,R,,6,,<LOD,0.008,µg/Kg
Eaux,eau du robinet,R,,6,,<LOD,0.008,µg/Kg
Eaux,eau du robinet,R,,6,,<LOD,0.008,µg/Kg
Eaux,eau du robinet,R,,6,,<LOD,0.008,µg/Kg
Eaux,eau du robinet,R,,6,,<LOD,0.008,µg/Kg
Eaux,eau du robinet,R,,6,,<LOD,0.008,µg/Kg
Eaux,eau du robinet,R,,6,,<LOD,0.008,µg/Kg
Eaux,eau du robinet,R,,6,,<LOD,0.008,µg/Kg
Eaux,eau du robinet,R,,6,,<LOD,0.008,µg/Kg
Eaux,eau du robinet,R,,6,,<LOD,0.008,µg/Kg
Eaux,eau du robinet,R,,6,,<LOD,0.008,µg/Kg
Eaux,eau du robinet,R,,6,,<LOD,0.008,µg/Kg
Eaux,eau du robinet,R,,6,,<LOD,0.008,µg/Kg
Eaux,eau du robinet,R,,6,,<LOD,0.008,µg/Kg
Eaux,eau du robinet,R,,6,,<LOD,0.008,µg/Kg
Eaux,eau minérale gazeuse sans précision,N,,99,,<LOD,0.008,µg/Kg
Eaux,eau minérale gazeuse sans précision,N,,99,,<LOD,0.008,µg/Kg
Eaux,eau minérale plate sans précision,N,,99,,<LOD,0.008,µg/Kg
Eaux,eau minérale plate sans précision,N,,99,,<LOD,0.008,µg/Kg
Eaux,évian,N,,99,,<LOD,0.008,µg/Kg
Eaux,évian,N,,99,,<LOD,0.008,µg/Kg
Eaux,hépar,N,,99,,<LOD,0.008,µg/Kg
Eaux,hépar,N,,99,,<LOD,0.008,µg/Kg
Eaux,perrier,N,,99,,<LOD,0.008,µg/Kg
Eaux,perrier,N,,99,,<LOD,0.008,µg/Kg
Eaux,perrier,N,,99,,<LOD,0.008,µg/Kg
Eaux,perrier,N,,99,,<LOD,0.008,µg/Kg
Eaux,perrier,N,,99,,<LOD,0.008,µg/Kg
Eaux,perrier,N,,99,,<LOD,0.008,µg/Kg
Eaux,perrier,N,,99,,<LOD,0.008,µg/Kg
Eaux,perrier,N,,99,,<LOD,0.008,µg/Kg
Eaux,perrier,N,,99,,<LOD,0.008,µg/Kg
Eaux,perrier,N,,99,,<LOD,0.008,µg/Kg
Eaux,saint amand,N,,99,,<LOD,0.008,µg/Kg
Eaux,saint amand,N,,99,,<LOD,0.008,µg/Kg
Eaux,sainte marguerite,N,,99,,<LOD,0.008,µg/Kg
Eaux,sainte marguerite,N,,99,,<LOD,0.008,µg/Kg
Eaux,Salvetat,N,,99,,<LOD,0.008,µg/Kg
Eaux,Salvetat,N,,99,,<LOD,0.008,µg/Kg
Eaux,St yorre,N,,99,,<LOD,0.008,µg/Kg
Eaux,St yorre,N,,99,,<LOD,0.008,µg/Kg
Eaux,Thonon,N,,99,,<LOD,0.008,µg/Kg
Eaux,Thonon,N,,99,,<LOD,0.008,µg/Kg
Eaux,Vernière,N,,99,,<LOD,0.008,µg/Kg
Eaux,Vernière,N,,99,,<LOD,0.008,µg/Kg
Eaux,Vichy célestin,N,,99,,<LOD,0.008,µg/Kg
Eaux,Vichy célestin,N,,99,,<LOD,0.008,µg/Kg
Eaux,vittel,N,,99,,<LOD,0.008,µg/Kg
Eaux,vittel,N,,99,,<LOD,0.008,µg/Kg
Eaux,volvic,N,,99,,<LOD,0.008,µg/Kg
Eaux,volvic,N,,99,,<LOD,0.008,µg/Kg
Eaux,eau du robinet,R,,5,,<LOQ,0.025,µg/Kg
Eaux,eau du robinet,R,,9,,<LOQ,0.025,µg/Kg
Eaux,eau du robinet,R,,9,,<LOQ,0.025,µg/Kg
Eaux,eau du robinet,R,,5,,<LOQ,0.025,µg/Kg
Eaux,eau du robinet,R,,6,,<LOQ,0.025,µg/Kg
Eaux,eau du robinet,R,,2,,<LOQ,0.025,µg/Kg
Eaux,eau du robinet,R,,1,,<LOQ,0.025,µg/Kg
Eaux,eau du robinet,R,,6,,<LOQ,0.025,µg/Kg
Eaux,eau du robinet,R,,6,,<LOQ,0.025,µg/Kg
Eaux,eau du robinet,R,,6,,<LOQ,0.025,µg/Kg
"Entremets, crèmes desserts et laits gélifiés",flan aux oeufs,R,2009,5,2,0.287,,µg/Kg
"Entremets, crèmes desserts et laits gélifiés",flan aux oeufs,R,2008,6,1,0.376,,µg/Kg
"Entremets, crèmes desserts et laits gélifiés",flan aux oeufs,R,2008,5,1,0.68,,µg/Kg
"Entremets, crèmes desserts et laits gélifiés",flan aux oeufs,R,2007,1,1,0.736,,µg/Kg
"Entremets, crèmes desserts et laits gélifiés",flan aux oeufs,R,2008,8,1,1.05,,µg/Kg
"Entremets, crèmes desserts et laits gélifiés",clafoutis aux fruits,R,2008,6,1,1.701,,µg/Kg
"Entremets, crèmes desserts et laits gélifiés",clafoutis aux fruits,R,2009,6,2,3.526,,µg/Kg
"Entremets, crèmes desserts et laits gélifiés",flan aux oeufs,R,2009,6,2,11.939,,µg/Kg
"Entremets, crèmes desserts et laits gélifiés",chocolat viennois ou liégeois,N,2007,99,1,<LOD,0.21,µg/Kg
"Entremets, crèmes desserts et laits gélifiés",chocolat viennois ou liégeois,N,2008,99,2,<LOD,0.21,µg/Kg
"Entremets, crèmes desserts et laits gélifiés",crème caramel type charles gervais,N,2008,99,2,<LOD,0.21,µg/Kg
"Entremets, crèmes desserts et laits gélifiés",crème caramel type charles gervais,N,2007,99,1,<LOD,0.21,µg/Kg
"Entremets, crèmes desserts et laits gélifiés",crème dessert,N,2007,99,1,<LOD,0.21,µg/Kg
"Entremets, crèmes desserts et laits gélifiés",crème dessert,N,2008,99,2,<LOD,0.21,µg/Kg
"Entremets, crèmes desserts et laits gélifiés",dessert au soja aromatisé au chocol,N,2008,99,2,<LOD,0.21,µg/Kg
"Entremets, crèmes desserts et laits gélifiés",dessert au soja aromatisé au chocol,N,2007,99,1,<LOD,0.21,µg/Kg
"Entremets, crèmes desserts et laits gélifiés",dessert au soja aux fruits type soj,N,2007,99,1,<LOD,0.21,µg/Kg
"Entremets, crèmes desserts et laits gélifiés",dessert au soja aux fruits type soj,N,2008,99,2,<LOD,0.21,µg/Kg
"Entremets, crèmes desserts et laits gélifiés",dessert au soja nature type sojasun,N,2008,99,2,<LOD,0.21,µg/Kg
"Entremets, crèmes desserts et laits gélifiés",dessert au soja nature type sojasun,N,2007,99,1,<LOD,0.21,µg/Kg
"Entremets, crèmes desserts et laits gélifiés",flan aux oeufs,R,2008,9,2,<LOD,0.21,µg/Kg
"Entremets, crèmes desserts et laits gélifiés",flan aux oeufs,R,2008,2,1,<LOD,0.21,µg/Kg
"Entremets, crèmes desserts et laits gélifiés",flan aux oeufs,R,2008,9,1,<LOD,0.21,µg/Kg
"Entremets, crèmes desserts et laits gélifiés",flan aux oeufs,R,2008,1,2,<LOD,0.21,µg/Kg
"Entremets, crèmes desserts et laits gélifiés",flan aux oeufs,R,2008,8,2,<LOD,0.21,µg/Kg
"Entremets, crèmes desserts et laits gélifiés",flan aux oeufs,R,2008,2,2,<LOD,0.21,µg/Kg
"Entremets, crèmes desserts et laits gélifiés",mousse au chocolat rayon frais,N,2008,99,2,<LOD,0.21,µg/Kg
Fromages,fromage et mini fromage type bonbel,N,2007,99,1,0.24,,µg/Kg
Fromages,fromage fondu,N,2007,99,1,0.261,,µg/Kg
Fromages,fromage blanc non allégé,R,2007,34,1,0.634,,µg/Kg
Fromages,edam et apparenté,N,2007,99,1,0.933,,µg/Kg
Fromages,edam et apparenté,N,2008,99,2,4.168,,µg/Kg
Fromages,"cantal, morbier et apparenté",N,2008,99,2,6.103,,µg/Kg
Fromages,fromage blanc non allégé,R,2007,7,1,<LOD,0.21,µg/Kg
Fromages,fromage blanc non allégé,R,2008,1,2,<LOD,0.21,µg/Kg
Fromages,fromage blanc non allégé,R,2008,2,1,<LOD,0.21,µg/Kg
Fromages,fromage blanc non allégé,R,2007,1,1,<LOD,0.21,µg/Kg
Fromages,fromage blanc non allégé,R,2008,6,1,<LOD,0.21,µg/Kg
Fromages,fromage et mini fromage type bonbel,N,2008,99,2,<LOD,0.21,µg/Kg
Fromages,fromage fondu,N,2008,99,2,<LOD,0.21,µg/Kg
Fromages,gruyère,N,2007,99,1,<LOD,0.21,µg/Kg
Fromages,gruyère,N,2008,99,2,<LOD,0.21,µg/Kg
Fruits,pêche,R,2008,5,1,0.26,,µg/Kg
Fruits,pêche,R,2008,6,1,0.26,,µg/Kg
Fruits,pêche,R,2008,9,1,0.26,,µg/Kg
Fruits,pêche,R,2007,7,1,0.26,,µg/Kg
Fruits,pêche,R,2007,34,1,0.26,,µg/Kg
Fruits,kiwi frais,N,2007,99,1,0.28,,µg/Kg
Fruits,kiwi frais,N,2008,99,2,0.28,,µg/Kg
Fruits,fraise fraîche,R,2007,7,1,0.61,,µg/Kg
Fruits,fraise fraîche,R,2007,34,1,0.61,,µg/Kg
Fruits,fraise fraîche,R,2008,6,1,0.61,,µg/Kg
Fruits,fraise fraîche,R,2008,7,2,0.61,,µg/Kg
Fruits,fraise fraîche,R,2008,9,1,0.61,,µg/Kg
Fruits,fraise fraîche,R,2008,34,2,0.61,,µg/Kg
Fruits,clémentine ou mandarine,N,2007,99,1,0.965,,µg/Kg
Fruits,orange fraîche,N,2007,99,1,1.86,,µg/Kg
Fruits,orange fraîche,N,2008,99,2,1.86,,µg/Kg
Fruits,melon frais,R,2007,7,1,1.95,,µg/Kg
Fruits,melon frais,R,2007,34,1,1.95,,µg/Kg
Fruits,melon frais,R,2008,5,1,1.95,,µg/Kg
Fruits,melon frais,R,2008,6,1,1.95,,µg/Kg
Fruits,melon frais,R,2008,9,1,1.95,,µg/Kg
Fruits,pamplemousse,N,2007,99,1,2.13,,µg/Kg
Fruits,pamplemousse,N,2008,99,2,2.13,,µg/Kg
Fruits,abricot frais,R,2007,7,1,<LOD,0.21,µg/Kg
Fruits,banane fraîche,N,2007,99,1,<LOD,0.21,µg/Kg
Fruits,banane fraîche,N,2008,99,2,<LOD,0.21,µg/Kg
Fruits,cerise fraîche,R,2007,7,1,<LOD,0.21,µg/Kg
Fruits,cerise fraîche,R,2008,9,1,<LOD,0.21,µg/Kg
Fruits,poire non pelée fraîche,R,2007,1,1,<LOD,0.21,µg/Kg
Fruits,poire non pelée fraîche,R,2007,7,1,<LOD,0.21,µg/Kg
Fruits,poire non pelée fraîche,R,2007,34,1,<LOD,0.21,µg/Kg
Fruits,poire non pelée fraîche,R,2008,1,2,<LOD,0.21,µg/Kg
Fruits,poire non pelée fraîche,R,2008,7,2,<LOD,0.21,µg/Kg
Fruits,poire non pelée fraîche,R,2008,34,2,<LOD,0.21,µg/Kg
Fruits,poire non pelée fraîche,R,2008,2,1,<LOD,0.21,µg/Kg
Fruits,poire non pelée fraîche,R,2008,2,2,<LOD,0.21,µg/Kg
Fruits,poire non pelée fraîche,R,2008,5,1,<LOD,0.21,µg/Kg
Fruits,poire non pelée fraîche,R,2008,6,1,<LOD,0.21,µg/Kg
Fruits,poire non pelée fraîche,R,2008,8,1,<LOD,0.21,µg/Kg
Fruits,poire non pelée fraîche,R,2008,8,2,<LOD,0.21,µg/Kg
Fruits,poire non pelée fraîche,R,2008,9,1,<LOD,0.21,µg/Kg
Fruits,poire non pelée fraîche,R,2008,9,2,<LOD,0.21,µg/Kg
Fruits,poire non pelée fraîche,R,2009,5,2,<LOD,0.21,µg/Kg
Fruits,poire non pelée fraîche,R,2009,6,2,<LOD,0.21,µg/Kg
Fruits,pomme non pelée fraîche,R,2008,1,2,<LOD,0.21,µg/Kg
Fruits,pomme non pelée fraîche,R,2007,7,1,<LOD,0.21,µg/Kg
Fruits,pomme non pelée fraîche,R,2007,34,1,<LOD,0.21,µg/Kg
Fruits,pomme non pelée fraîche,R,2008,2,1,<LOD,0.21,µg/Kg
Fruits,pomme non pelée fraîche,R,2008,2,2,<LOD,0.21,µg/Kg
Fruits,pomme non pelée fraîche,R,2008,5,1,<LOD,0.21,µg/Kg
Fruits,pomme non pelée fraîche,R,2008,6,1,<LOD,0.21,µg/Kg
Fruits,pomme non pelée fraîche,R,2008,7,2,<LOD,0.21,µg/Kg
Fruits,pomme non pelée fraîche,R,2008,8,1,<LOD,0.21,µg/Kg
Fruits,pomme non pelée fraîche,R,2008,8,2,<LOD,0.21,µg/Kg
Fruits,pomme non pelée fraîche,R,2008,9,1,<LOD,0.21,µg/Kg
Fruits,pomme non pelée fraîche,R,2008,9,2,<LOD,0.21,µg/Kg
Fruits,pomme non pelée fraîche,R,2008,34,2,<LOD,0.21,µg/Kg
Fruits,pomme non pelée fraîche,R,2009,5,2,<LOD,0.21,µg/Kg
Fruits,pomme non pelée fraîche,R,2009,6,2,<LOD,0.21,µg/Kg
Fruits,raisin blanc frais,R,2007,1,1,<LOD,0.21,µg/Kg
Fruits,raisin blanc frais,R,2007,7,1,<LOD,0.21,µg/Kg
Fruits,raisin blanc frais,R,2007,34,1,<LOD,0.21,µg/Kg
Fruits,raisin blanc frais,R,2008,1,2,<LOD,0.21,µg/Kg
Fruits,raisin blanc frais,R,2008,2,1,<LOD,0.21,µg/Kg
Fruits,raisin blanc frais,R,2008,2,2,<LOD,0.21,µg/Kg
Fruits,raisin blanc frais,R,2008,5,1,<LOD,0.21,µg/Kg
Fruits,raisin blanc frais,R,2008,6,1,<LOD,0.21,µg/Kg
Fruits,raisin blanc frais,R,2008,8,1,<LOD,0.21,µg/Kg
Fruits,raisin blanc frais,R,2008,8,2,<LOD,0.21,µg/Kg
Fruits,raisin blanc frais,R,2008,9,1,<LOD,0.21,µg/Kg
Fruits,raisin blanc frais,R,2008,9,2,<LOD,0.21,µg/Kg
Fruits,raisin blanc frais,R,2008,34,2,<LOD,0.21,µg/Kg
Fruits,raisin blanc frais,R,2009,5,2,<LOD,0.21,µg/Kg
Fruits,raisin blanc frais,R,2009,6,2,<LOD,0.21,µg/Kg
Fruits secs et graines oléagineuses,graine oléagineuse,N,2008,99,2,0.235,,µg/Kg
Fruits secs et graines oléagineuses,fruit séché,N,2008,99,2,<LOD,0.21,µg/Kg
Fruits secs et graines oléagineuses,fruit séché,N,2007,99,1,<LOD,0.21,µg/Kg
Fruits secs et graines oléagineuses,graine oléagineuse,N,2007,99,1,<LOD,0.21,µg/Kg
Glaces et desserts glacés,glace,N,2008,99,2,0.317,,µg/Kg
Glaces et desserts glacés,glace,N,2007,99,1,<LOD,0.21,µg/Kg
Huile,huile de tournesol,N,2008,99,2,0.17,,µg/Kg
Huile,huile de colza,N,2008,99,2,0.314,,µg/Kg
Huile,huile de soja,N,2007,99,1,0.317,,µg/Kg
Huile,huile de soja,N,2008,99,2,0.694,,µg/Kg
Huile,huile d'olive vierge 1ère pression,N,2007,99,1,0.858,,µg/Kg
Huile,huile d'olive vierge 1ère pression,N,2008,99,2,1.425,,µg/Kg
Huile,huile de colza,N,2007,99,1,<LOD,0.09,µg/Kg
Huile,huile de tournesol,N,2007,99,1,<LOD,0.09,µg/Kg
Huile,huile mélangée,N,2008,99,2,<LOD,0.09,µg/Kg
Huile,huile mélangée,N,2007,99,1,<LOD,0.09,µg/Kg
Lait,lait entier,R,2008,9,2,0.09,,µg/Kg
Lait,lait demi-écrémé,R,2008,9,1,0.094,,µg/Kg
Lait,lait entier,R,2008,2,2,0.095,,µg/Kg
Lait,lait écrémé,R,2008,7,2,0.098,,µg/Kg
Lait,lait demi-écrémé,R,2008,8,1,0.1,,µg/Kg
Lait,lait demi-écrémé,R,2007,1,1,0.1,,µg/Kg
Lait,lait demi-écrémé,R,2008,2,1,0.108,,µg/Kg
Lait,lait entier,R,2008,34,2,0.112,,µg/Kg
Lait,lait écrémé,R,2008,5,1,0.12,,µg/Kg
Lait,lait entier,R,2008,8,1,0.121,,µg/Kg
Lait,lait entier,R,2008,1,2,0.13,,µg/Kg
Lait,lait écrémé,R,2007,7,1,0.137,,µg/Kg
Lait,lait écrémé,R,2009,6,2,0.16,,µg/Kg
Lait,lait entier,R,2008,2,1,0.17,,µg/Kg
Lait,lait entier,R,2007,7,1,0.174,,µg/Kg
Lait,lait demi-écrémé,R,2007,7,1,0.24,,µg/Kg
Lait,lait demi-écrémé,R,2008,2,2,0.26,,µg/Kg
Lait,lait demi-écrémé,R,2009,6,2,0.378,,µg/Kg
Lait,lait demi-écrémé,R,2008,7,2,0.381,,µg/Kg
Lait,lait écrémé,R,2008,1,2,0.507,,µg/Kg
Lait,lait entier,R,2008,7,2,0.656,,µg/Kg
Lait,lait demi-écrémé,R,2008,34,2,1.654,,µg/Kg
Lait,lait demi-écrémé,R,2008,1,2,<LOD,0.09,µg/Kg
Lait,lait demi-écrémé,R,2008,9,2,<LOD,0.09,µg/Kg
Lait,lait demi-écrémé,R,2008,8,2,<LOD,0.09,µg/Kg
Lait,lait demi-écrémé,R,2008,6,1,<LOD,0.09,µg/Kg
Lait,lait demi-écrémé,R,2009,5,2,<LOD,0.09,µg/Kg
Lait,lait demi-écrémé,R,2008,5,1,<LOD,0.09,µg/Kg
Lait,lait écrémé,R,2008,6,1,<LOD,0.09,µg/Kg
Lait,lait écrémé,R,2009,5,2,<LOD,0.09,µg/Kg
Lait,lait écrémé,R,2007,1,1,<LOD,0.09,µg/Kg
Lait,lait écrémé,R,2008,2,1,<LOD,0.09,µg/Kg
Lait,lait écrémé,R,2008,2,2,<LOD,0.09,µg/Kg
Lait,lait entier,R,2008,8,2,<LOD,0.09,µg/Kg
Lait,lait entier,R,2007,1,1,<LOD,0.09,µg/Kg
Lait,lait entier,R,2007,34,1,<LOD,0.09,µg/Kg
Lait,lait entier,R,2008,9,1,<LOD,0.09,µg/Kg
Légumes (hors pomme de terre),salade,R,2007,34,1,0.21,,µg/Kg
Légumes (hors pomme de terre),salade,R,2007,7,1,0.26,,µg/Kg
Légumes (hors pomme de terre),chou-fleur,R,2007,1,1,0.266,,µg/Kg
Légumes (hors pomme de terre),artichaut,R,2008,2,1,0.272,,µg/Kg
Légumes (hors pomme de terre),salade,R,2008,6,1,0.275,,µg/Kg
Légumes (hors pomme de terre),chou-fleur,R,2007,34,1,0.325,,µg/Kg
Légumes (hors pomme de terre),chou-fleur,R,2008,8,1,0.327,,µg/Kg
Légumes (hors pomme de terre),artichaut,R,2008,5,1,0.336,,µg/Kg
Légumes (hors pomme de terre),salade,R,2008,8,1,0.392,,µg/Kg
Légumes (hors pomme de terre),artichaut,R,2008,9,2,0.399,,µg/Kg
Légumes (hors pomme de terre),chou-fleur,R,2008,5,1,0.41,,µg/Kg
Légumes (hors pomme de terre),épinard,R,2009,6,2,0.431,,µg/Kg
Légumes (hors pomme de terre),salade,R,2008,34,2,0.486,,µg/Kg
Légumes (hors pomme de terre),céleri,R,2008,6,1,0.505,,µg/Kg
Légumes (hors pomme de terre),artichaut,R,2009,6,2,0.511,,µg/Kg
Légumes (hors pomme de terre),chou-fleur,R,2008,34,2,0.523,,µg/Kg
Légumes (hors pomme de terre),tomate,R,2007,34,1,0.572,,µg/Kg
Légumes (hors pomme de terre),épinard,R,2007,1,1,0.644,,µg/Kg
Légumes (hors pomme de terre),céleri,R,2008,5,1,0.667,,µg/Kg
Légumes (hors pomme de terre),artichaut,R,2009,5,2,0.687,,µg/Kg
Légumes (hors pomme de terre),artichaut,R,2008,8,1,0.699,,µg/Kg
Légumes (hors pomme de terre),navet,R,2007,1,1,0.71,,µg/Kg
Légumes (hors pomme de terre),navet,R,2007,7,1,0.71,,µg/Kg
Légumes (hors pomme de terre),navet,R,2007,34,1,0.71,,µg/Kg
Légumes (hors pomme de terre),navet,R,2008,2,1,0.71,,µg/Kg
Légumes (hors pomme de terre),navet,R,2008,7,2,0.71,,µg/Kg
Légumes (hors pomme de terre),navet,R,2008,8,1,0.71,,µg/Kg
Légumes (hors pomme de terre),navet,R,2008,8,2,0.71,,µg/Kg
Légumes (hors pomme de terre),navet,R,2008,9,2,0.71,,µg/Kg
Légumes (hors pomme de terre),navet,R,2008,34,2,0.71,,µg/Kg
Légumes (hors pomme de terre),navet,R,2009,5,2,0.71,,µg/Kg
Légumes (hors pomme de terre),navet,R,2009,6,2,0.71,,µg/Kg
Légumes (hors pomme de terre),chou-fleur,R,2007,7,1,0.711,,µg/Kg
Légumes (hors pomme de terre),épinard,R,2007,34,1,0.94,,µg/Kg
Légumes (hors pomme de terre),artichaut,R,2007,1,1,0.968,,µg/Kg
Légumes (hors pomme de terre),épinard,R,2007,7,1,0.97,,µg/Kg
Légumes (hors pomme de terre),tomate,R,2008,34,2,0.981,,µg/Kg
Légumes (hors pomme de terre),courgette,R,2007,1,1,1.19,,µg/Kg
Légumes (hors pomme de terre),courgette,R,2007,7,1,1.19,,µg/Kg
Légumes (hors pomme de terre),courgette,R,2007,34,1,1.19,,µg/Kg
Légumes (hors pomme de terre),courgette,R,2008,1,2,1.19,,µg/Kg
Légumes (hors pomme de terre),courgette,R,2008,2,1,1.19,,µg/Kg
Légumes (hors pomme de terre),courgette,R,2008,2,2,1.19,,µg/Kg
Légumes (hors pomme de terre),courgette,R,2008,5,1,1.19,,µg/Kg
Légumes (hors pomme de terre),courgette,R,2008,6,1,1.19,,µg/Kg
Légumes (hors pomme de terre),courgette,R,2008,7,2,1.19,,µg/Kg
Légumes (hors pomme de terre),courgette,R,2008,8,1,1.19,,µg/Kg
Légumes (hors pomme de terre),courgette,R,2008,8,2,1.19,,µg/Kg
Légumes (hors pomme de terre),courgette,R,2008,9,1,1.19,,µg/Kg
Légumes (hors pomme de terre),courgette,R,2008,9,2,1.19,,µg/Kg
Légumes (hors pomme de terre),courgette,R,2008,34,2,1.19,,µg/Kg
Légumes (hors pomme de terre),courgette,R,2009,5,2,1.19,,µg/Kg
Légumes (hors pomme de terre),courgette,R,2009,6,2,1.19,,µg/Kg
Légumes (hors pomme de terre),carotte,R,2007,7,1,1.22,,µg/Kg
Légumes (hors pomme de terre),artichaut,R,2008,9,1,1.23,,µg/Kg
Légumes (hors pomme de terre),carotte,R,2008,7,2,1.324,,µg/Kg
Légumes (hors pomme de terre),poireau,R,2007,1,1,1.45,,µg/Kg
Légumes (hors pomme de terre),poireau,R,2007,7,1,1.45,,µg/Kg
Légumes (hors pomme de terre),poireau,R,2007,34,1,1.45,,µg/Kg
Légumes (hors pomme de terre),poireau,R,2008,1,2,1.45,,µg/Kg
Légumes (hors pomme de terre),poireau,R,2008,2,1,1.45,,µg/Kg
Légumes (hors pomme de terre),poireau,R,2008,7,2,1.45,,µg/Kg
Légumes (hors pomme de terre),poireau,R,2008,8,1,1.45,,µg/Kg
Légumes (hors pomme de terre),poireau,R,2008,8,2,1.45,,µg/Kg
Légumes (hors pomme de terre),poireau,R,2008,9,2,1.45,,µg/Kg
Légumes (hors pomme de terre),poireau,R,2008,34,2,1.45,,µg/Kg
Légumes (hors pomme de terre),poireau,R,2009,5,2,1.45,,µg/Kg
Légumes (hors pomme de terre),poireau,R,2009,6,2,1.45,,µg/Kg
Légumes (hors pomme de terre),tomate,R,2007,1,1,1.49,,µg/Kg
Légumes (hors pomme de terre),tomate,R,2007,7,1,1.49,,µg/Kg
Légumes (hors pomme de terre),tomate,R,2008,1,2,1.49,,µg/Kg
Légumes (hors pomme de terre),tomate,R,2008,2,1,1.49,,µg/Kg
Légumes (hors pomme de terre),tomate,R,2008,2,2,1.49,,µg/Kg
Légumes (hors pomme de terre),tomate,R,2008,5,1,1.49,,µg/Kg
Légumes (hors pomme de terre),tomate,R,2008,6,1,1.49,,µg/Kg
Légumes (hors pomme de terre),tomate,R,2008,7,2,1.49,,µg/Kg
Légumes (hors pomme de terre),tomate,R,2008,8,1,1.49,,µg/Kg
Légumes (hors pomme de terre),tomate,R,2008,8,2,1.49,,µg/Kg
Légumes (hors pomme de terre),tomate,R,2008,9,1,1.49,,µg/Kg
Légumes (hors pomme de terre),tomate,R,2008,9,2,1.49,,µg/Kg
Légumes (hors pomme de terre),tomate,R,2009,5,2,1.49,,µg/Kg
Légumes (hors pomme de terre),tomate,R,2009,6,2,1.49,,µg/Kg
Légumes (hors pomme de terre),artichaut,R,2008,1,2,1.537,,µg/Kg
Légumes (hors pomme de terre),artichaut,R,2008,8,2,1.615,,µg/Kg
Légumes (hors pomme de terre),carotte,R,2008,1,2,1.633,,µg/Kg
Légumes (hors pomme de terre),épinard,R,2008,34,2,1.671,,µg/Kg
Légumes (hors pomme de terre),épinard,R,2008,7,2,1.762,,µg/Kg
Légumes (hors pomme de terre),artichaut,R,2008,34,2,1.851,,µg/Kg
Légumes (hors pomme de terre),chou-fleur,R,2008,2,2,1.908,,µg/Kg
Légumes (hors pomme de terre),artichaut,R,2007,7,1,1.909,,µg/Kg
Légumes (hors pomme de terre),artichaut,R,2008,7,2,2.006,,µg/Kg
Légumes (hors pomme de terre),artichaut,R,2008,2,2,2.287,,µg/Kg
Légumes (hors pomme de terre),artichaut,R,2007,34,1,2.669,,µg/Kg
Légumes (hors pomme de terre),carotte,R,2008,34,2,2.68,,µg/Kg
Légumes (hors pomme de terre),oignon,R,2007,1,1,2.84,,µg/Kg
Légumes (hors pomme de terre),oignon,R,2007,7,1,2.84,,µg/Kg
Légumes (hors pomme de terre),oignon,R,2007,34,1,2.84,,µg/Kg
Légumes (hors pomme de terre),oignon,R,2008,1,2,2.84,,µg/Kg
Légumes (hors pomme de terre),oignon,R,2008,2,1,2.84,,µg/Kg
Légumes (hors pomme de terre),oignon,R,2008,2,2,2.84,,µg/Kg
Légumes (hors pomme de terre),oignon,R,2008,5,1,2.84,,µg/Kg
Légumes (hors pomme de terre),oignon,R,2008,6,1,2.84,,µg/Kg
Légumes (hors pomme de terre),oignon,R,2008,7,2,2.84,,µg/Kg
Légumes (hors pomme de terre),oignon,R,2008,8,1,2.84,,µg/Kg
Légumes (hors pomme de terre),oignon,R,2008,8,2,2.84,,µg/Kg
Légumes (hors pomme de terre),oignon,R,2008,9,1,2.84,,µg/Kg
Légumes (hors pomme de terre),oignon,R,2008,9,2,2.84,,µg/Kg
Légumes (hors pomme de terre),oignon,R,2008,34,2,2.84,,µg/Kg
Légumes (hors pomme de terre),oignon,R,2009,5,2,2.84,,µg/Kg
Légumes (hors pomme de terre),oignon,R,2009,6,2,2.84,,µg/Kg
Légumes (hors pomme de terre),céleri,R,2008,9,2,2.937,,µg/Kg
Légumes (hors pomme de terre),carotte,R,2008,2,1,3.85,,µg/Kg
Légumes (hors pomme de terre),carotte,R,2008,2,2,3.85,,µg/Kg
Légumes (hors pomme de terre),carotte,R,2008,5,1,3.85,,µg/Kg
Légumes (hors pomme de terre),carotte,R,2008,6,1,3.85,,µg/Kg
Légumes (hors pomme de terre),carotte,R,2008,8,1,3.85,,µg/Kg
Légumes (hors pomme de terre),carotte,R,2008,8,2,3.85,,µg/Kg
Légumes (hors pomme de terre),carotte,R,2008,9,1,3.85,,µg/Kg
Légumes (hors pomme de terre),carotte,R,2008,9,2,3.85,,µg/Kg
Légumes (hors pomme de terre),carotte,R,2009,6,2,3.85,,µg/Kg
Légumes (hors pomme de terre),ratatouille niçoise,R,2007,7,1,3.89,,µg/Kg
Légumes (hors pomme de terre),poivron,R,2007,1,1,4.01,,µg/Kg
Légumes (hors pomme de terre),poivron,R,2008,1,2,4.01,,µg/Kg
Légumes (hors pomme de terre),poivron,R,2008,2,1,4.01,,µg/Kg
Légumes (hors pomme de terre),poivron,R,2008,2,2,4.01,,µg/Kg
Légumes (hors pomme de terre),poivron,R,2008,5,1,4.01,,µg/Kg
Légumes (hors pomme de terre),poivron,R,2008,6,1,4.01,,µg/Kg
Légumes (hors pomme de terre),poivron,R,2008,9,1,4.01,,µg/Kg
Légumes (hors pomme de terre),poivron,R,2008,9,2,4.01,,µg/Kg
Légumes (hors pomme de terre),poivron,R,2009,6,2,4.01,,µg/Kg
Légumes (hors pomme de terre),épinard,R,2008,8,2,4.335,,µg/Kg
Légumes (hors pomme de terre),ratatouille niçoise,R,2007,34,1,4.428,,µg/Kg
Légumes (hors pomme de terre),épinard,R,2008,8,1,4.532,,µg/Kg
Légumes (hors pomme de terre),épinard,R,2008,5,1,4.78,,µg/Kg
Légumes (hors pomme de terre),salade,R,2009,5,2,5.256,,µg/Kg
Légumes (hors pomme de terre),épinard,R,2008,9,1,5.609,,µg/Kg
Légumes (hors pomme de terre),épinard,R,2008,9,2,6.593,,µg/Kg
Légumes (hors pomme de terre),épinard,R,2008,2,1,7.15,,µg/Kg
Légumes (hors pomme de terre),épinard,R,2008,2,2,8.349,,µg/Kg
Légumes (hors pomme de terre),ratatouille niçoise,R,2008,9,1,8.49,,µg/Kg
Légumes (hors pomme de terre),ratatouille niçoise,R,2008,8,2,8.63,,µg/Kg
Légumes (hors pomme de terre),ratatouille niçoise,R,2008,34,2,9.258,,µg/Kg
Légumes (hors pomme de terre),haricot,R,2009,6,2,9.438,,µg/Kg
Légumes (hors pomme de terre),épinard,R,2009,5,2,11.262,,µg/Kg
Légumes (hors pomme de terre),germe de soja en conserve,N,2007,99,1,11.433,,µg/Kg
Légumes (hors pomme de terre),germe de soja en conserve,N,2008,99,2,11.677,,µg/Kg
Légumes (hors pomme de terre),ratatouille niçoise,R,2008,8,1,11.79,,µg/Kg
Légumes (hors pomme de terre),petit pois,R,2008,8,1,14.558,,µg/Kg
Légumes (hors pomme de terre),petit pois,R,2008,7,2,14.85,,µg/Kg
Légumes (hors pomme de terre),ratatouille niçoise,R,2008,9,2,15.554,,µg/Kg
Légumes (hors pomme de terre),haricot,R,2008,6,1,15.914,,µg/Kg
Légumes (hors pomme de terre),petit pois,R,2008,6,1,17.322,,µg/Kg
Légumes (hors pomme de terre),petit pois,R,2008,9,1,17.347,,µg/Kg
Légumes (hors pomme de terre),ratatouille niçoise,R,2008,7,2,17.648,,µg/Kg
Légumes (hors pomme de terre),haricot,R,2007,34,1,17.809,,µg/Kg
Légumes (hors pomme de terre),carotte,R,2009,5,2,18.458,,µg/Kg
Légumes (hors pomme de terre),petit pois,R,2008,8,2,19.32,,µg/Kg
Légumes (hors pomme de terre),haricot,R,2008,5,1,20.038,,µg/Kg
Légumes (hors pomme de terre),petit pois,R,2009,6,2,20.099,,µg/Kg
Légumes (hors pomme de terre),petit pois,R,2007,34,1,21.351,,µg/Kg
Légumes (hors pomme de terre),petit pois,R,2008,5,1,21.688,,µg/Kg
Légumes (hors pomme de terre),petit pois,R,2007,7,1,21.838,,µg/Kg
Légumes (hors pomme de terre),petit pois,R,2008,34,2,21.871,,µg/Kg
Légumes (hors pomme de terre),haricot,R,2008,2,1,22.089,,µg/Kg
Légumes (hors pomme de terre),haricot,R,2008,1,2,22.113,,µg/Kg
Légumes (hors pomme de terre),maïs,R,2007,7,1,23.05,,µg/Kg
Légumes (hors pomme de terre),haricot,R,2007,7,1,24.232,,µg/Kg
Légumes (hors pomme de terre),petit pois,R,2008,2,1,27.658,,µg/Kg
Légumes (hors pomme de terre),petit pois,R,2009,5,2,28.089,,µg/Kg
Légumes (hors pomme de terre),maïs,R,2008,8,2,28.455,,µg/Kg
Légumes (hors pomme de terre),maïs,R,2008,34,2,28.79,,µg/Kg
Légumes (hors pomme de terre),haricot,R,2008,9,1,29.8,,µg/Kg
Légumes (hors pomme de terre),maïs,R,2007,1,1,30.218,,µg/Kg
Légumes (hors pomme de terre),haricot,R,2009,5,2,30.571,,µg/Kg
Légumes (hors pomme de terre),maïs,R,2008,9,2,30.82,,µg/Kg
Légumes (hors pomme de terre),maïs,R,2007,34,1,31.793,,µg/Kg
Légumes (hors pomme de terre),maïs,R,2009,5,2,31.803,,µg/Kg
Légumes (hors pomme de terre),maïs,R,2008,7,2,32.607,,µg/Kg
Légumes (hors pomme de terre),maïs,R,2008,9,1,33.153,,µg/Kg
Légumes (hors pomme de terre),haricot,R,2008,9,2,34.879,,µg/Kg
Légumes (hors pomme de terre),petit pois,R,2008,1,2,35.72,,µg/Kg
Légumes (hors pomme de terre),petit pois,R,2008,2,2,35.773,,µg/Kg
Légumes (hors pomme de terre),maïs,R,2008,2,2,35.898,,µg/Kg
Légumes (hors pomme de terre),petit pois,R,2007,1,1,37.277,,µg/Kg
Légumes (hors pomme de terre),haricot,R,2008,8,1,38.08,,µg/Kg
Légumes (hors pomme de terre),haricot,R,2008,8,2,38.897,,µg/Kg
Légumes (hors pomme de terre),maïs,R,2008,2,1,40.437,,µg/Kg
Légumes (hors pomme de terre),maïs,R,2008,6,1,40.617,,µg/Kg
Légumes (hors pomme de terre),maïs,R,2009,6,2,41.689,,µg/Kg
Légumes (hors pomme de terre),maïs,R,2008,8,1,42.648,,µg/Kg
Légumes (hors pomme de terre),maïs,R,2008,1,2,43.108,,µg/Kg
Légumes (hors pomme de terre),maïs,R,2008,5,1,47.535,,µg/Kg
Légumes (hors pomme de terre),haricot,R,2008,2,2,51.087,,µg/Kg
Légumes (hors pomme de terre),haricot,R,2008,34,2,52.97,,µg/Kg
Légumes (hors pomme de terre),haricot,R,2008,7,2,67.654,,µg/Kg
Légumes (hors pomme de terre),haricot,R,2007,1,1,82.736,,µg/Kg
Légumes (hors pomme de terre),artichaut,R,2008,6,1,<LOD,0.21,µg/Kg
Légumes (hors pomme de terre),céleri,R,2009,6,2,<LOD,0.21,µg/Kg
Légumes (hors pomme de terre),céleri,R,2009,5,2,<LOD,0.21,µg/Kg
Légumes (hors pomme de terre),céleri,R,2007,1,1,<LOD,0.21,µg/Kg
Légumes (hors pomme de terre),céleri,R,2007,34,1,<LOD,0.21,µg/Kg
Légumes (hors pomme de terre),céleri,R,2008,1,2,<LOD,0.21,µg/Kg
Légumes (hors pomme de terre),céleri,R,2008,34,2,<LOD,0.21,µg/Kg
Légumes (hors pomme de terre),céleri rave,R,2008,2,1,<LOD,0.21,µg/Kg
Légumes (hors pomme de terre),céleri rave,R,2008,2,2,<LOD,0.21,µg/Kg
Légumes (hors pomme de terre),chou-fleur,R,2008,8,2,<LOD,0.21,µg/Kg
Légumes (hors pomme de terre),chou-fleur,R,2009,5,2,<LOD,0.21,µg/Kg
Légumes (hors pomme de terre),chou-fleur,R,2008,2,1,<LOD,0.21,µg/Kg
Légumes (hors pomme de terre),chou-fleur,R,2009,6,2,<LOD,0.21,µg/Kg
Légumes (hors pomme de terre),chou-fleur,R,2008,7,2,<LOD,0.21,µg/Kg
Légumes (hors pomme de terre),chou-fleur,R,2008,6,1,<LOD,0.21,µg/Kg
Légumes (hors pomme de terre),chou-fleur,R,2008,9,2,<LOD,0.21,µg/Kg
Légumes (hors pomme de terre),chou-fleur,R,2008,9,1,<LOD,0.21,µg/Kg
Légumes (hors pomme de terre),concombre cru,R,2008,2,1,<LOD,0.21,µg/Kg
Légumes (hors pomme de terre),concombre cru,R,2008,9,1,<LOD,0.21,µg/Kg
Légumes (hors pomme de terre),concombre cru,R,2008,9,2,<LOD,0.21,µg/Kg
Légumes (hors pomme de terre),concombre cru,R,2007,1,1,<LOD,0.21,µg/Kg
Légumes (hors pomme de terre),concombre cru,R,2008,1,2,<LOD,0.21,µg/Kg
Légumes (hors pomme de terre),concombre cru,R,2008,2,2,<LOD,0.21,µg/Kg
Légumes (hors pomme de terre),concombre cru,R,2008,5,1,<LOD,0.21,µg/Kg
Légumes (hors pomme de terre),concombre cru,R,2008,6,1,<LOD,0.21,µg/Kg
Légumes (hors pomme de terre),concombre cru,R,2008,8,1,<LOD,0.21,µg/Kg
Légumes (hors pomme de terre),concombre cru,R,2008,8,2,<LOD,0.21,µg/Kg
Légumes (hors pomme de terre),concombre cru,R,2009,6,2,<LOD,0.21,µg/Kg
Légumes (hors pomme de terre),endive,R,2007,1,1,<LOD,0.21,µg/Kg
Légumes (hors pomme de terre),endive,R,2007,7,1,<LOD,0.21,µg/Kg
Légumes (hors pomme de terre),endive,R,2007,34,1,<LOD,0.21,µg/Kg
Légumes (hors pomme de terre),endive,R,2008,1,2,<LOD,0.21,µg/Kg
Légumes (hors pomme de terre),endive,R,2008,2,1,<LOD,0.21,µg/Kg
Légumes (hors pomme de terre),endive,R,2008,2,2,<LOD,0.21,µg/Kg
Légumes (hors pomme de terre),endive,R,2008,5,1,<LOD,0.21,µg/Kg
Légumes (hors pomme de terre),endive,R,2008,6,1,<LOD,0.21,µg/Kg
Légumes (hors pomme de terre),endive,R,2008,7,2,<LOD,0.21,µg/Kg
Légumes (hors pomme de terre),endive,R,2008,8,1,<LOD,0.21,µg/Kg
Légumes (hors pomme de terre),endive,R,2008,8,2,<LOD,0.21,µg/Kg
Légumes (hors pomme de terre),endive,R,2008,9,1,<LOD,0.21,µg/Kg
Légumes (hors pomme de terre),endive,R,2008,9,2,<LOD,0.21,µg/Kg
Légumes (hors pomme de terre),endive,R,2008,34,2,<LOD,0.21,µg/Kg
Légumes (hors pomme de terre),endive,R,2009,5,2,<LOD,0.21,µg/Kg
Légumes (hors pomme de terre),endive,R,2009,6,2,<LOD,0.21,µg/Kg
Légumes (hors pomme de terre),épinard,R,2008,6,1,<LOD,0.21,µg/Kg
Légumes (hors pomme de terre),radis,R,2007,1,1,<LOD,0.21,µg/Kg
Légumes (hors pomme de terre),radis,R,2008,1,2,<LOD,0.21,µg/Kg
Légumes (hors pomme de terre),radis,R,2008,2,1,<LOD,0.21,µg/Kg
Légumes (hors pomme de terre),radis,R,2008,2,2,<LOD,0.21,µg/Kg
Légumes (hors pomme de terre),radis,R,2008,5,1,<LOD,0.21,µg/Kg
Légumes (hors pomme de terre),radis,R,2008,6,1,<LOD,0.21,µg/Kg
Légumes (hors pomme de terre),radis,R,2008,8,1,<LOD,0.21,µg/Kg
Légumes (hors pomme de terre),radis,R,2008,8,2,<LOD,0.21,µg/Kg
Légumes (hors pomme de terre),radis,R,2008,9,1,<LOD,0.21,µg/Kg
Légumes (hors pomme de terre),radis,R,2008,9,2,<LOD,0.21,µg/Kg
Légumes (hors pomme de terre),radis,R,2009,5,2,<LOD,0.21,µg/Kg
Légumes (hors pomme de terre),radis,R,2009,6,2,<LOD,0.21,µg/Kg
Légumes (hors pomme de terre),salade,R,2007,1,1,<LOD,0.21,µg/Kg
Légumes (hors pomme de terre),salade,R,2008,1,2,<LOD,0.21,µg/Kg
Légumes (hors pomme de terre),salade,R,2008,2,2,<LOD,0.21,µg/Kg
Légumes (hors pomme de terre),salade,R,2008,9,2,<LOD,0.21,µg/Kg
Légumes (hors pomme de terre),salade,R,2008,9,1,<LOD,0.21,µg/Kg
Légumes (hors pomme de terre),salade,R,2008,8,2,<LOD,0.21,µg/Kg
Légumes (hors pomme de terre),salade,R,2008,2,1,<LOD,0.21,µg/Kg
Légumes (hors pomme de terre),salade,R,2009,6,2,<LOD,0.21,µg/Kg
Légumes (hors pomme de terre),salade,R,2008,5,1,<LOD,0.21,µg/Kg
Légumes secs,haricot blanc cuit,R,2009,6,2,0.45,,µg/Kg
Légumes secs,lentille,R,2009,6,2,4.86,,µg/Kg
Légumes secs,lentille,R,2008,5,1,6.82,,µg/Kg
Légumes secs,lentille,R,2008,8,2,9.42,,µg/Kg
Légumes secs,lentille,R,2007,7,1,10.49,,µg/Kg
Légumes secs,lentille,R,2008,7,2,10.92,,µg/Kg
Légumes secs,lentille,R,2008,2,1,11.098,,µg/Kg
Légumes secs,lentille,R,2008,9,1,12.458,,µg/Kg
Légumes secs,lentille,R,2008,34,2,13.99,,µg/Kg
Légumes secs,lentille,R,2008,9,2,14.56,,µg/Kg
Légumes secs,lentille,R,2009,5,2,16.4,,µg/Kg
Légumes secs,lentille,R,2008,8,1,21.26,,µg/Kg
Légumes secs,lentille,R,2008,2,2,27.92,,µg/Kg
Légumes secs,lentille,R,2008,1,2,28.66,,µg/Kg
Légumes secs,lentille,R,2008,6,1,31.262,,µg/Kg
Margarine,margarine au tournesol en barquette,N,2008,99,2,0.39,,µg/Kg
Margarine,margarine allégée,N,2007,99,1,0.752,,µg/Kg
Margarine,margarine au tournesol en barquette,N,2007,99,1,1.388,,µg/Kg
Margarine,margarine allégée,N,2008,99,2,<LOD,0.21,µg/Kg
Oeufs et dérivés,oeuf dur,R,2008,8,1,0.25,,µg/Kg
Oeufs et dérivés,oeuf dur,R,2007,34,1,0.3,,µg/Kg
Oeufs et dérivés,oeuf dur,R,2008,6,1,0.32,,µg/Kg
Oeufs et dérivés,oeuf dur,R,2009,6,2,0.39,,µg/Kg
Oeufs et dérivés,oeuf dur,R,2008,1,2,0.42,,µg/Kg
Oeufs et dérivés,"œuf brouillé, omelette",R,2007,7,1,0.52,,µg/Kg
Oeufs et dérivés,"œuf brouillé, omelette",R,2008,7,2,0.52,,µg/Kg
Oeufs et dérivés,oeuf dur,R,2008,9,1,0.52,,µg/Kg
Oeufs et dérivés,"œuf brouillé, omelette",R,2008,34,2,0.6,,µg/Kg
Oeufs et dérivés,oeuf dur,R,2007,1,1,0.6,,µg/Kg
Oeufs et dérivés,"œuf brouillé, omelette",R,2008,2,1,0.65,,µg/Kg
Oeufs et dérivés,"œuf brouillé, omelette",R,2008,1,2,0.97,,µg/Kg
Oeufs et dérivés,oeuf dur,R,2007,7,1,1.1,,µg/Kg
Oeufs et dérivés,oeuf dur,R,2008,8,2,1.17,,µg/Kg
Oeufs et dérivés,"œuf brouillé, omelette",R,2008,2,2,1.2,,µg/Kg
Oeufs et dérivés,"œuf brouillé, omelette",R,2008,9,1,1.24,,µg/Kg
Oeufs et dérivés,"œuf brouillé, omelette",R,2008,6,1,1.25,,µg/Kg
Oeufs et dérivés,oeuf dur,R,2008,7,2,1.57,,µg/Kg
Oeufs et dérivés,"œuf brouillé, omelette",R,2009,6,2,2.07,,µg/Kg
Oeufs et dérivés,"œuf brouillé, omelette",R,2008,8,2,2.21,,µg/Kg
Oeufs et dérivés,"œuf brouillé, omelette",R,2007,1,1,2.37,,µg/Kg
Oeufs et dérivés,"œuf brouillé, omelette",R,2008,9,2,2.49,,µg/Kg
Oeufs et dérivés,"œuf brouillé, omelette",R,2008,8,1,3.81,,µg/Kg
Oeufs et dérivés,oeuf dur,R,2008,2,1,4.51,,µg/Kg
Oeufs et dérivés,"œuf brouillé, omelette",R,2008,5,1,<LOD,0.21,µg/Kg
Oeufs et dérivés,"œuf brouillé, omelette",R,2009,5,2,<LOD,0.21,µg/Kg
Oeufs et dérivés,oeuf dur,R,2008,9,2,<LOD,0.21,µg/Kg
Oeufs et dérivés,oeuf dur,R,2008,34,2,<LOD,0.21,µg/Kg
Pain et panification sèche,pain de campagne,N,2007,99,1,0.22,,µg/Kg
Pain et panification sèche,pain de campagne,N,2008,99,2,0.22,,µg/Kg
Pain et panification sèche,baguette,N,2007,99,1,0.29,,µg/Kg
Pain et panification sèche,baguette,N,2008,99,2,0.29,,µg/Kg
Pain et panification sèche,pain complet ou intégral fabricatio,N,2008,99,2,0.29,,µg/Kg
Pain et panification sèche,pain aux céréales fabrication artis,N,2007,99,1,0.3,,µg/Kg
Pain et panification sèche,pain aux céréales fabrication artis,N,2008,99,2,0.338,,µg/Kg
Pain et panification sèche,pain grillé maison,N,2007,99,1,0.41,,µg/Kg
Pain et panification sèche,pain grillé maison,N,2008,99,2,0.676,,µg/Kg
Pain et panification sèche,pain de mie,N,2008,99,2,0.721,,µg/Kg
Pain et panification sèche,pain de mie,N,2007,99,1,1.01,,µg/Kg
Pain et panification sèche,pain complet ou intégral fabricatio,N,2007,99,1,1.681,,µg/Kg
Pain et panification sèche,biscotte,N,2008,99,2,<LOD,0.21,µg/Kg
Pain et panification sèche,biscotte,N,2007,99,1,<LOD,0.21,µg/Kg
Pâtes,pâtes alimentaires aux oeufs cuites,N,2007,99,1,0.33,,µg/Kg
Pâtes,pâtes alimentaires aux oeufs cuites,N,2008,99,2,0.4,,µg/Kg
Pâtes,pâtes alimentaires cuites,N,2007,99,1,0.675,,µg/Kg
Pâtes,pâtes alimentaires cuites,N,2008,99,2,1.983,,µg/Kg
Pâtisseries et gâteaux,crêpe sucrée,N,2008,99,2,0.232,,µg/Kg
Pâtisseries et gâteaux,gâteau au chocolat,N,2007,99,1,0.322,,µg/Kg
Pâtisseries et gâteaux,tarte ou tartelette,N,2007,99,1,0.377,,µg/Kg
Pâtisseries et gâteaux,gâteau au chocolat,N,2008,99,2,0.393,,µg/Kg
Pâtisseries et gâteaux,crêpe ou gaufre,N,2008,99,2,0.425,,µg/Kg
Pâtisseries et gâteaux,cake aux fruits confits fabrication,N,2008,99,2,0.513,,µg/Kg
Pâtisseries et gâteaux,moelleux au chocolat,N,2007,99,1,0.593,,µg/Kg
Pâtisseries et gâteaux,gâteau,N,2008,99,2,0.63,,µg/Kg
Pâtisseries et gâteaux,tarte ou tartelette,N,2008,99,2,0.73,,µg/Kg
Pâtisseries et gâteaux,cake aux fruits confits fabrication,N,2007,99,1,0.785,,µg/Kg
Pâtisseries et gâteaux,gâteau,N,2007,99,1,1.145,,µg/Kg
Pâtisseries et gâteaux,chou chouquette,N,2008,99,2,1.422,,µg/Kg
Pâtisseries et gâteaux,gateau moelleux fourré ou non,N,2008,99,2,1.497,,µg/Kg
Pâtisseries et gâteaux,chou chouquette,N,2007,99,1,1.919,,µg/Kg
Pâtisseries et gâteaux,crêpe sucrée,N,2007,99,1,3.16,,µg/Kg
Pâtisseries et gâteaux,crêpe ou gaufre,N,2007,99,1,4.873,,µg/Kg
Pâtisseries et gâteaux,gateau moelleux fourré ou non,N,2007,99,1,8.999,,µg/Kg
Pâtisseries et gâteaux,moelleux au chocolat,N,2008,99,2,<LOD,0.21,µg/Kg
"Pizzas, quiches et pâtisseries salées",quiche lorraine,N,2008,99,2,0.339,,µg/Kg
"Pizzas, quiches et pâtisseries salées",pizza,N,2008,99,2,2.51,,µg/Kg
"Pizzas, quiches et pâtisseries salées",pizza,N,2007,99,1,2.877,,µg/Kg
"Pizzas, quiches et pâtisseries salées",quiche lorraine,N,2007,99,1,2.915,,µg/Kg
Plats composés,taboulé industriel,R,2008,8,2,0.26,,µg/Kg
Plats composés,escalopes végétales à base de soja,N,2007,99,1,0.338,,µg/Kg
Plats composés,crêpe salée,R,2008,7,2,0.35,,µg/Kg
Plats composés,hachis parmentier,R,2008,9,1,0.545,,µg/Kg
Plats composés,hachis parmentier,R,2008,9,2,0.711,,µg/Kg
Plats composés,crêpe salée,R,2007,7,1,0.771,,µg/Kg
Plats composés,hachis parmentier,R,2008,1,2,1.019,,µg/Kg
Plats composés,hachis parmentier,R,2008,2,1,1.07,,µg/Kg
Plats composés,cordon bleu de volaille type père d,R,2007,34,1,1.335,,µg/Kg
Plats composés,taboulé industriel,R,2008,6,1,1.55,,µg/Kg
Plats composés,crêpe salée,R,2007,1,1,1.814,,µg/Kg
Plats composés,crêpe salée,R,2008,2,2,2.304,,µg/Kg
Plats composés,hachis parmentier,R,2009,5,2,2.442,,µg/Kg
Plats composés,crêpe salée,R,2008,1,2,2.49,,µg/Kg
Plats composés,taboulé industriel,R,2008,34,2,3.06,,µg/Kg
Plats composés,crêpe salée,R,2008,2,1,3.097,,µg/Kg
Plats composés,pâtes fourrées type ravioli,R,2008,6,1,3.309,,µg/Kg
Plats composés,cordon bleu de volaille type père d,R,2008,34,2,3.531,,µg/Kg
Plats composés,taboulé industriel,R,2007,34,1,3.932,,µg/Kg
Plats composés,crêpe salée,R,2008,8,2,4.535,,µg/Kg
Plats composés,pâtes fourrées type ravioli,R,2009,6,2,4.7,,µg/Kg
Plats composés,pâtes fourrées type ravioli,R,2007,7,1,5.5,,µg/Kg
Plats composés,hachis parmentier,R,2007,1,1,5.763,,µg/Kg
Plats composés,couscous garni,R,2007,34,1,6.046,,µg/Kg
Plats composés,hachis parmentier,R,2007,34,1,6.083,,µg/Kg
Plats composés,pâtes fourrées type ravioli,R,2008,7,2,6.374,,µg/Kg
Plats composés,hachis parmentier,R,2008,34,2,6.436,,µg/Kg
Plats composés,paella,R,2008,8,2,6.472,,µg/Kg
Plats composés,pâtes fourrées type ravioli,R,2008,5,1,6.695,,µg/Kg
Plats composés,pâtes fourrées type ravioli,R,2008,34,2,7.064,,µg/Kg
Plats composés,pâtes fourrées type ravioli,R,2008,1,2,7.769,,µg/Kg
Plats composés,pâtes fourrées type ravioli,R,2008,9,1,7.881,,µg/Kg
Plats composés,choucroute garnie en conserve,R,2009,5,2,8.59,,µg/Kg
Plats composés,choucroute garnie en conserve,R,2009,6,2,8.785,,µg/Kg
Plats composés,couscous garni,R,2008,5,1,8.901,,µg/Kg
Plats composés,couscous garni,R,2007,7,1,9.016,,µg/Kg
Plats composés,hachis parmentier,R,2008,5,1,9.042,,µg/Kg
Plats composés,paella,R,2008,8,1,9.85,,µg/Kg
Plats composés,pâtes fourrées type ravioli,R,2007,1,1,10.336,,µg/Kg
Plats composés,pâtes fourrées type ravioli,R,2008,8,1,10.595,,µg/Kg
Plats composés,pâtes fourrées type ravioli,R,2008,2,1,11.92,,µg/Kg
Plats composés,choucroute garnie en conserve,R,2008,5,1,12.003,,µg/Kg
Plats composés,pot-au-feu,R,2008,7,2,12.4,,µg/Kg
Plats composés,pot-au-feu,R,2008,8,2,12.4,,µg/Kg
Plats composés,pot-au-feu,R,2008,9,2,12.4,,µg/Kg
Plats composés,pot-au-feu,R,2009,5,2,12.4,,µg/Kg
Plats composés,choucroute garnie en conserve,R,2008,9,2,12.437,,µg/Kg
Plats composés,couscous garni,R,2008,9,2,13.571,,µg/Kg
Plats composés,pâtes fourrées type ravioli,R,2009,5,2,13.872,,µg/Kg
Plats composés,couscous garni,R,2009,6,2,14.19,,µg/Kg
Plats composés,couscous garni,R,2008,34,2,14.54,,µg/Kg
Plats composés,pâtes fourrées type ravioli,R,2008,2,2,15.901,,µg/Kg
Plats composés,pâtes fourrées type ravioli,R,2008,9,2,16.874,,µg/Kg
Plats composés,couscous garni,R,2009,5,2,17.693,,µg/Kg
Plats composés,couscous garni,R,2008,6,1,17.72,,µg/Kg
Plats composés,cassoulet en conserve,R,2008,2,1,19.26,,µg/Kg
Plats composés,couscous garni,R,2008,7,2,21.307,,µg/Kg
Plats composés,couscous garni,R,2008,9,1,23.871,,µg/Kg
Plats composés,cassoulet en conserve,R,2008,5,1,28.196,,µg/Kg
Plats composés,cassoulet en conserve,R,2009,5,2,28.37,,µg/Kg
Poissons,saumon fumé,R,2008,34,2,0.24,,µg/Kg
Poissons,poisson pané frit,R,2008,2,1,0.257,,µg/Kg
Poissons,poisson pané frit,R,2008,8,1,0.508,,µg/Kg
Poissons,poisson pané frit,R,2008,1,2,0.513,,µg/Kg
Poissons,poisson pané frit,R,2007,7,1,0.639,,µg/Kg
Poissons,poisson pané frit,R,2008,2,2,0.648,,µg/Kg
Poissons,poisson pané frit,R,2007,1,1,0.679,,µg/Kg
Poissons,poisson pané frit,R,2008,7,2,0.882,,µg/Kg
Poissons,poisson pané frit,R,2008,8,2,1.088,,µg/Kg
Poissons,thon cuit au four,R,2008,8,2,1.352,,µg/Kg
Poissons,poisson pané frit,R,2008,34,2,1.638,,µg/Kg
Poissons,saumon fumé,R,2007,34,1,1.998,,µg/Kg
Poissons,saumon à la vapeur,R,2008,2,2,3.394,,µg/Kg
Poissons,saumon à la vapeur,R,2008,34,2,3.529,,µg/Kg
Poissons,saumon à la vapeur,R,2007,1,1,3.569,,µg/Kg
Poissons,saumon à la vapeur,R,2008,1,2,3.718,,µg/Kg
Poissons,lieu ou colin cuit,R,2007,7,1,4.038,,µg/Kg
Poissons,saumon à la vapeur,R,2008,9,2,4.264,,µg/Kg
Poissons,lieu ou colin cuit,R,2008,1,2,5.032,,µg/Kg
Poissons,lieu ou colin cuit,R,2008,2,1,5.214,,µg/Kg
Poissons,saumon à la vapeur,R,2008,2,1,5.338,,µg/Kg
Poissons,saumon à la vapeur,R,2007,34,1,6.6,,µg/Kg
Poissons,thon cuit au four,R,2008,8,1,6.604,,µg/Kg
Poissons,saumon à la vapeur,R,2008,8,1,6.644,,µg/Kg
Poissons,saumon à la vapeur,R,2009,5,2,7.059,,µg/Kg
Poissons,saumon à la vapeur,R,2008,6,1,7.72,,µg/Kg
Poissons,saumon à la vapeur,R,2009,6,2,9.547,,µg/Kg
Poissons,saumon à la vapeur,R,2007,7,1,10.606,,µg/Kg
Poissons,saumon à la vapeur,R,2008,7,2,10.98,,µg/Kg
Poissons,saumon à la vapeur,R,2008,5,1,25.724,,µg/Kg
Poissons,thon en conserve,R,2008,7,2,30.4,,µg/Kg
Poissons,thon en conserve,R,2007,34,1,52.091,,µg/Kg
Poissons,lieu ou colin cuit,R,2008,2,2,52.479,,µg/Kg
Poissons,thon en conserve,R,2007,7,1,57.23,,µg/Kg
Poissons,saumon à la vapeur,R,2008,9,1,97.934,,µg/Kg
Poissons,poisson pané frit,R,2009,6,2,<LOD,0.21,µg/Kg
Pommes de terre et apparentés,purée de pommes de terre maison,R,2008,2,2,0.223,,µg/Kg
Pommes de terre et apparentés,purée de pommes de terre maison,R,2007,7,1,0.231,,µg/Kg
Pommes de terre et apparentés,pdt sautée ou frite,R,2007,1,1,0.274,,µg/Kg
Pommes de terre et apparentés,purée de pommes de terre maison,R,2007,34,1,0.29,,µg/Kg
Pommes de terre et apparentés,purée de pommes de terre maison,R,2008,8,1,0.3,,µg/Kg
Pommes de terre et apparentés,pdt sautée ou frite,R,2008,5,1,0.33,,µg/Kg
Pommes de terre et apparentés,pdt sautée ou frite,R,2008,7,2,0.358,,µg/Kg
Pommes de terre et apparentés,purée de pommes de terre maison,R,2009,6,2,0.363,,µg/Kg
Pommes de terre et apparentés,pdt sautée ou frite,R,2008,9,2,0.428,,µg/Kg
Pommes de terre et apparentés,purée de pommes de terre maison,R,2008,1,2,0.496,,µg/Kg
Pommes de terre et apparentés,purée de pommes de terre maison,R,2008,9,2,0.523,,µg/Kg
Pommes de terre et apparentés,pdt sautée ou frite,R,2008,6,1,0.543,,µg/Kg
Pommes de terre et apparentés,pdt sautée ou frite,R,2007,7,1,0.56,,µg/Kg
Pommes de terre et apparentés,pdt sautée ou frite,R,2009,6,2,0.592,,µg/Kg
Pommes de terre et apparentés,pdt sautée ou frite,R,2008,8,1,0.63,,µg/Kg
Pommes de terre et apparentés,pdt sautée ou frite,R,2008,2,2,0.673,,µg/Kg
Pommes de terre et apparentés,pdt sautée ou frite,R,2008,9,1,0.682,,µg/Kg
Pommes de terre et apparentés,pdt sautée ou frite,R,2008,34,2,0.78,,µg/Kg
Pommes de terre et apparentés,pdt cuite à l'eau,R,2007,1,1,0.88,,µg/Kg
Pommes de terre et apparentés,pdt cuite à l'eau,R,2007,7,1,0.88,,µg/Kg
Pommes de terre et apparentés,pdt cuite à l'eau,R,2007,34,1,0.88,,µg/Kg
Pommes de terre et apparentés,pdt cuite à l'eau,R,2008,1,2,0.88,,µg/Kg
Pommes de terre et apparentés,pdt cuite à l'eau,R,2008,2,1,0.88,,µg/Kg
Pommes de terre et apparentés,pdt cuite à l'eau,R,2008,2,2,0.88,,µg/Kg
Pommes de terre et apparentés,pdt cuite à l'eau,R,2008,5,1,0.88,,µg/Kg
Pommes de terre et apparentés,pdt cuite à l'eau,R,2008,6,1,0.88,,µg/Kg
Pommes de terre et apparentés,pdt cuite à l'eau,R,2008,7,2,0.88,,µg/Kg
Pommes de terre et apparentés,pdt cuite à l'eau,R,2008,8,1,0.88,,µg/Kg
Pommes de terre et apparentés,pdt cuite à l'eau,R,2008,8,2,0.88,,µg/Kg
Pommes de terre et apparentés,pdt cuite à l'eau,R,2008,9,1,0.88,,µg/Kg
Pommes de terre et apparentés,pdt cuite à l'eau,R,2008,9,2,0.88,,µg/Kg
Pommes de terre et apparentés,pdt cuite à l'eau,R,2008,34,2,0.88,,µg/Kg
Pommes de terre et apparentés,pdt cuite à l'eau,R,2009,5,2,0.88,,µg/Kg
Pommes de terre et apparentés,pdt cuite à l'eau,R,2009,6,2,0.88,,µg/Kg
Pommes de terre et apparentés,pdt sautée ou frite,R,2007,34,1,1.3,,µg/Kg
Pommes de terre et apparentés,purée de pommes de terre maison,R,2008,34,2,1.955,,µg/Kg
Pommes de terre et apparentés,pdt sautée ou frite,R,2009,5,2,2.556,,µg/Kg
Pommes de terre et apparentés,purée de pommes de terre maison,R,2008,5,1,<LOD,0.21,µg/Kg
Pommes de terre et apparentés,purée de pommes de terre maison,R,2008,8,2,<LOD,0.21,µg/Kg
Pommes de terre et apparentés,purée de pommes de terre maison,R,2008,7,2,<LOD,0.21,µg/Kg
Pommes de terre et apparentés,purée de pommes de terre maison,R,2008,9,1,<LOD,0.21,µg/Kg
Pommes de terre et apparentés,purée de pommes de terre maison,R,2008,6,1,<LOD,0.21,µg/Kg
Pommes de terre et apparentés,purée de pommes de terre maison,R,2008,2,1,<LOD,0.21,µg/Kg
Pommes de terre et apparentés,purée de pommes de terre maison,R,2009,5,2,<LOD,0.21,µg/Kg
Riz et blé dur ou concassé,blé dur précuit type ebly,N,2008,99,2,0.273,,µg/Kg
Riz et blé dur ou concassé,couscous (graine seule) semoule cui,N,2007,99,1,0.29,,µg/Kg
Riz et blé dur ou concassé,riz,N,2008,99,2,0.545,,µg/Kg
Riz et blé dur ou concassé,couscous (graine seule) semoule cui,N,2008,99,2,<LOD,0.21,µg/Kg
Riz et blé dur ou concassé,riz,N,2007,99,1,<LOD,0.21,µg/Kg
"Sandwiches, casse-croûte",hamburger,R,2008,8,2,0.367,,µg/Kg
"Sandwiches, casse-croûte",hamburger,R,2008,9,2,0.389,,µg/Kg
"Sandwiches, casse-croûte",hamburger,R,2008,34,2,0.393,,µg/Kg
"Sandwiches, casse-croûte",hamburger,R,2009,5,2,0.48,,µg/Kg
"Sandwiches, casse-croûte",hamburger,R,2007,1,1,0.483,,µg/Kg
"Sandwiches, casse-croûte",hamburger,R,2009,6,2,0.535,,µg/Kg
"Sandwiches, casse-croûte",hamburger,R,2008,5,1,0.538,,µg/Kg
"Sandwiches, casse-croûte",hamburger,R,2008,8,1,0.581,,µg/Kg
"Sandwiches, casse-croûte",sandwich,R,2008,9,2,0.589,,µg/Kg
"Sandwiches, casse-croûte",hamburger,R,2008,6,1,0.608,,µg/Kg
"Sandwiches, casse-croûte",hamburger,R,2008,1,2,0.692,,µg/Kg
"Sandwiches, casse-croûte",sandwich,R,2009,6,2,0.81,,µg/Kg
"Sandwiches, casse-croûte",hamburger,R,2007,34,1,0.877,,µg/Kg
"Sandwiches, casse-croûte",hamburger,R,2008,9,1,0.926,,µg/Kg
"Sandwiches, casse-croûte",sandwich,R,2007,34,1,0.958,,µg/Kg
"Sandwiches, casse-croûte",sandwich,R,2009,5,2,1.25,,µg/Kg
"Sandwiches, casse-croûte",sandwich,R,2008,2,1,1.261,,µg/Kg
"Sandwiches, casse-croûte",sandwich,R,2008,5,1,1.402,,µg/Kg
"Sandwiches, casse-croûte",hamburger,R,2008,2,2,1.43,,µg/Kg
"Sandwiches, casse-croûte",sandwich,R,2008,34,2,1.524,,µg/Kg
"Sandwiches, casse-croûte",sandwich,R,2007,7,1,1.553,,µg/Kg
"Sandwiches, casse-croûte",sandwich,R,2008,8,1,1.554,,µg/Kg
"Sandwiches, casse-croûte",sandwich,R,2008,2,2,1.574,,µg/Kg
"Sandwiches, casse-croûte",sandwich,R,2008,1,2,1.702,,µg/Kg
"Sandwiches, casse-croûte",sandwich,R,2008,9,1,1.933,,µg/Kg
"Sandwiches, casse-croûte",sandwich,R,2008,6,1,1.974,,µg/Kg
"Sandwiches, casse-croûte",hamburger,R,2008,2,1,2.449,,µg/Kg
"Sandwiches, casse-croûte",sandwich,R,2008,7,2,2.98,,µg/Kg
"Sandwiches, casse-croûte",sandwich,R,2007,1,1,7.706,,µg/Kg
"Sandwiches, casse-croûte",sandwich,R,2008,8,2,25.847,,µg/Kg
Soupes et bouillons,soupe de légumes en brique,N,2007,99,1,0.444,,µg/Kg
Soupes et bouillons,soupe de légumes maison,R,2007,1,1,1.78,,µg/Kg
Soupes et bouillons,soupe de légumes maison,R,2007,7,1,1.78,,µg/Kg
Soupes et bouillons,soupe de légumes maison,R,2008,1,2,1.78,,µg/Kg
Soupes et bouillons,soupe de légumes maison,R,2008,5,1,1.78,,µg/Kg
Soupes et bouillons,soupe de légumes maison,R,2008,7,2,1.78,,µg/Kg
Soupes et bouillons,soupe de légumes maison,R,2007,34,1,2.78,,µg/Kg
Soupes et bouillons,soupe de légumes maison,R,2008,2,1,2.78,,µg/Kg
Soupes et bouillons,soupe de légumes maison,R,2008,2,2,2.78,,µg/Kg
Soupes et bouillons,soupe de légumes maison,R,2008,6,1,2.78,,µg/Kg
Soupes et bouillons,soupe de légumes maison,R,2008,8,1,2.78,,µg/Kg
Soupes et bouillons,soupe de légumes maison,R,2008,8,2,2.78,,µg/Kg
Soupes et bouillons,soupe de légumes maison,R,2008,9,1,2.78,,µg/Kg
Soupes et bouillons,soupe de légumes maison,R,2008,9,2,2.78,,µg/Kg
Soupes et bouillons,soupe de légumes maison,R,2008,34,2,2.78,,µg/Kg
Soupes et bouillons,soupe de légumes maison,R,2009,5,2,2.78,,µg/Kg
Soupes et bouillons,soupe de légumes maison,R,2009,6,2,2.78,,µg/Kg
Soupes et bouillons,soupe de légumes en brique,N,2008,99,2,<LOD,0.21,µg/Kg
Soupes et bouillons,soupe poulet vermicelle,R,2008,8,1,<LOD,0.21,µg/Kg
Soupes et bouillons,soupe poulet vermicelle,R,2008,8,2,<LOD,0.21,µg/Kg
Soupes et bouillons,velouté de tomate en brique type li,N,2007,99,1,<LOD,0.21,µg/Kg
Sucres et dérivés,bonbons tout type,N,2007,99,1,0.24,,µg/Kg
Sucres et dérivés,sucre,N,2008,99,2,0.487,,µg/Kg
Sucres et dérivés,bonbons tout type,N,2008,99,2,0.578,,µg/Kg
Sucres et dérivés,sucre,N,2007,99,1,2.1,,µg/Kg
Sucres et dérivés,confiture,N,2007,99,1,<LOD,0.21,µg/Kg
Sucres et dérivés,confiture,N,2008,99,2,<LOD,0.21,µg/Kg
Sucres et dérivés,miel,N,2008,99,2,<LOD,0.21,µg/Kg
Ultra-frais laitier,yaourt 0%,R,2008,34,2,0.094,,µg/Kg
Ultra-frais laitier,lait fermenté et yaourt à boire,R,2008,2,1,0.095,,µg/Kg
Ultra-frais laitier,yaourt au lait entier,R,2009,6,2,0.097,,µg/Kg
Ultra-frais laitier,yaourt au lait partiellement écrémé,R,2007,1,1,0.097,,µg/Kg
Ultra-frais laitier,yaourt au lait partiellement écrémé,R,2008,2,1,0.11,,µg/Kg
Ultra-frais laitier,crème fraîche,R,2009,5,2,0.111,,µg/Kg
Ultra-frais laitier,yaourt au lait partiellement écrémé,R,2009,6,2,0.115,,µg/Kg
Ultra-frais laitier,yaourt 0%,R,2008,2,2,0.117,,µg/Kg
Ultra-frais laitier,yaourt au lait entier,R,2008,2,1,0.117,,µg/Kg
Ultra-frais laitier,yaourt au lait entier,R,2008,9,1,0.118,,µg/Kg
Ultra-frais laitier,lait fermenté et yaourt à boire,R,2008,6,1,0.133,,µg/Kg
Ultra-frais laitier,yaourt au lait entier,R,2008,34,2,0.146,,µg/Kg
Ultra-frais laitier,lait fermenté et yaourt à boire,R,2007,7,1,0.148,,µg/Kg
Ultra-frais laitier,yaourt au lait entier,R,2008,2,2,0.15,,µg/Kg
Ultra-frais laitier,yaourt au lait entier,R,2008,7,2,0.153,,µg/Kg
Ultra-frais laitier,yaourt au lait entier,R,2007,1,1,0.156,,µg/Kg
Ultra-frais laitier,lait fermenté et yaourt à boire,R,2008,5,1,0.163,,µg/Kg
Ultra-frais laitier,yaourt au lait partiellement écrémé,R,2007,7,1,0.167,,µg/Kg
Ultra-frais laitier,lait fermenté et yaourt à boire,R,2008,8,1,0.168,,µg/Kg
Ultra-frais laitier,yaourt au lait entier,R,2008,6,1,0.171,,µg/Kg
Ultra-frais laitier,yaourt 0%,R,2007,7,1,0.177,,µg/Kg
Ultra-frais laitier,crème fraîche,R,2008,7,2,0.2,,µg/Kg
Ultra-frais laitier,crème fraîche,R,2007,1,1,0.21,,µg/Kg
Ultra-frais laitier,crème fraîche,R,2008,1,2,0.21,,µg/Kg
Ultra-frais laitier,yaourt 0%,R,2009,6,2,0.229,,µg/Kg
Ultra-frais laitier,lait fermenté et yaourt à boire,R,2008,1,2,0.28,,µg/Kg
Ultra-frais laitier,lait fermenté et yaourt à boire,R,2008,9,2,0.288,,µg/Kg
Ultra-frais laitier,yaourt au lait partiellement écrémé,R,2007,34,1,0.298,,µg/Kg
Ultra-frais laitier,yaourt au lait entier,R,2008,5,1,0.309,,µg/Kg
Ultra-frais laitier,lait fermenté et yaourt à boire,R,2009,5,2,0.312,,µg/Kg
Ultra-frais laitier,crème fraîche,R,2008,6,1,0.34,,µg/Kg
Ultra-frais laitier,yaourt 0%,R,2007,34,1,0.388,,µg/Kg
Ultra-frais laitier,lait fermenté et yaourt à boire,R,2007,34,1,0.489,,µg/Kg
Ultra-frais laitier,yaourt au lait partiellement écrémé,R,2008,8,1,0.566,,µg/Kg
Ultra-frais laitier,yaourt au lait entier,R,2007,34,1,0.622,,µg/Kg
Ultra-frais laitier,yaourt 0%,R,2008,8,2,0.731,,µg/Kg
Ultra-frais laitier,yaourt au lait entier,R,2007,7,1,0.744,,µg/Kg
Ultra-frais laitier,crème fraîche,R,2007,7,1,1.278,,µg/Kg
Ultra-frais laitier,yaourt 0%,R,2008,9,2,1.528,,µg/Kg
Ultra-frais laitier,crème fraîche,R,2007,34,1,1.72,,µg/Kg
Ultra-frais laitier,yaourt 0%,R,2008,7,2,2.018,,µg/Kg
Ultra-frais laitier,crème fraîche,R,2008,5,1,<LOD,0.09,µg/Kg
Ultra-frais laitier,crème fraîche,R,2008,9,1,<LOD,0.09,µg/Kg
Ultra-frais laitier,crème fraîche,R,2008,9,2,<LOD,0.09,µg/Kg
Ultra-frais laitier,crème fraîche,R,2008,34,2,<LOD,0.09,µg/Kg
Ultra-frais laitier,crème fraîche,R,2009,6,2,<LOD,0.09,µg/Kg
Ultra-frais laitier,lait fermenté et yaourt à boire,R,2008,9,1,<LOD,0.09,µg/Kg
Ultra-frais laitier,lait fermenté et yaourt à boire,R,2009,6,2,<LOD,0.09,µg/Kg
Ultra-frais laitier,lait fermenté et yaourt à boire,R,2008,8,2,<LOD,0.09,µg/Kg
Ultra-frais laitier,lait fermenté et yaourt à boire,R,2008,7,2,<LOD,0.09,µg/Kg
Ultra-frais laitier,lait fermenté et yaourt à boire,R,2008,34,2,<LOD,0.09,µg/Kg
Ultra-frais laitier,lait fermenté et yaourt à boire,R,2007,1,1,<LOD,0.09,µg/Kg
Ultra-frais laitier,lait fermenté et yaourt à boire,R,2008,2,2,<LOD,0.09,µg/Kg
Ultra-frais laitier,yaourt 0%,R,2008,6,1,<LOD,0.09,µg/Kg
Ultra-frais laitier,yaourt 0%,R,2008,5,1,<LOD,0.09,µg/Kg
Ultra-frais laitier,yaourt 0%,R,2007,1,1,<LOD,0.09,µg/Kg
Ultra-frais laitier,yaourt 0%,R,2008,9,1,<LOD,0.09,µg/Kg
Ultra-frais laitier,yaourt 0%,R,2008,8,1,<LOD,0.09,µg/Kg
Ultra-frais laitier,yaourt 0%,R,2009,5,2,<LOD,0.09,µg/Kg
Ultra-frais laitier,yaourt 0%,R,2008,2,1,<LOD,0.09,µg/Kg
Ultra-frais laitier,yaourt 0%,R,2008,1,2,<LOD,0.09,µg/Kg
Ultra-frais laitier,yaourt au lait entier,R,2008,8,1,<LOD,0.09,µg/Kg
Ultra-frais laitier,yaourt au lait entier,R,2008,1,2,<LOD,0.09,µg/Kg
Ultra-frais laitier,yaourt au lait entier,R,2009,5,2,<LOD,0.09,µg/Kg
Ultra-frais laitier,yaourt au lait entier,R,2008,8,2,<LOD,0.09,µg/Kg
Ultra-frais laitier,yaourt au lait entier,R,2008,9,2,<LOD,0.09,µg/Kg
Ultra-frais laitier,yaourt au lait partiellement écrémé,R,2008,8,2,<LOD,0.09,µg/Kg
Ultra-frais laitier,yaourt au lait partiellement écrémé,R,2008,5,1,<LOD,0.09,µg/Kg
Ultra-frais laitier,yaourt au lait partiellement écrémé,R,2008,34,2,<LOD,0.09,µg/Kg
Ultra-frais laitier,yaourt au lait partiellement écrémé,R,2009,5,2,<LOD,0.09,µg/Kg
Ultra-frais laitier,yaourt au lait partiellement écrémé,R,2008,9,2,<LOD,0.09,µg/Kg
Ultra-frais laitier,yaourt au lait partiellement écrémé,R,2008,2,2,<LOD,0.09,µg/Kg
Ultra-frais laitier,yaourt au lait partiellement écrémé,R,2008,7,2,<LOD,0.09,µg/Kg
Ultra-frais laitier,yaourt au lait partiellement écrémé,R,2008,1,2,<LOD,0.09,µg/Kg
Ultra-frais laitier,yaourt au lait partiellement écrémé,R,2008,9,1,<LOD,0.09,µg/Kg
Viande,bœuf steak,R,2007,34,1,0.289,,µg/Kg
Viande,bœuf steak,R,2008,1,2,0.56,,µg/Kg
Viande,bœuf steak,R,2008,2,1,0.583,,µg/Kg
Viande,bœuf steak,R,2007,7,1,0.69,,µg/Kg
Viande,bœuf steak,R,2009,6,2,0.986,,µg/Kg
Viande,bœuf steak,R,2008,6,1,1.243,,µg/Kg
Viande,mouton,R,2009,6,2,1.711,,µg/Kg
Viande,mouton,R,2008,7,2,2.02,,µg/Kg
Viande,bœuf steak,R,2008,5,1,2.072,,µg/Kg
Viande,rôti de porc,R,2009,6,2,2.201,,µg/Kg
Viande,rôti de porc,R,2008,8,2,2.502,,µg/Kg
Viande,bœuf steak,R,2008,2,2,2.759,,µg/Kg
Viande,rôti de porc,R,2008,1,2,2.785,,µg/Kg
Viande,rôti de porc,R,2008,2,1,3.162,,µg/Kg
Viande,bœuf steak,R,2008,9,2,3.243,,µg/Kg
Viande,rôti de porc,R,2008,9,2,3.259,,µg/Kg
Viande,mouton,R,2008,8,1,3.334,,µg/Kg
Viande,bœuf steak,R,2007,1,1,3.481,,µg/Kg
Viande,veau,R,2008,2,1,3.675,,µg/Kg
Viande,bœuf steak,R,2008,8,1,3.944,,µg/Kg
Viande,veau,R,2008,8,2,3.989,,µg/Kg
Viande,bœuf steak,R,2008,9,1,4.045,,µg/Kg
Viande,côte de porc,R,2008,8,2,4.093,,µg/Kg
Viande,rôti de porc,R,2007,34,1,4.396,,µg/Kg
Viande,mouton,R,2008,2,1,4.605,,µg/Kg
Viande,mouton,R,2008,9,2,4.977,,µg/Kg
Viande,rôti de porc,R,2009,5,2,5.295,,µg/Kg
Viande,côte de porc,R,2008,34,2,5.552,,µg/Kg
Viande,rôti de porc,R,2008,5,1,5.577,,µg/Kg
Viande,rôti de porc,R,2007,1,1,5.921,,µg/Kg
Viande,mouton,R,2009,5,2,6.358,,µg/Kg
Viande,mouton,R,2008,1,2,6.978,,µg/Kg
Viande,mouton,R,2008,34,2,7.466,,µg/Kg
Viande,côte de porc,R,2008,9,1,7.51,,µg/Kg
Viande,côte de porc,R,2009,6,2,7.662,,µg/Kg
Viande,côte de porc,R,2008,2,2,8.37,,µg/Kg
Viande,mouton,R,2008,6,1,8.541,,µg/Kg
Viande,veau,R,2008,34,2,8.611,,µg/Kg
Viande,rôti de porc,R,2008,2,2,8.995,,µg/Kg
Viande,rôti de porc,R,2008,7,2,9.155,,µg/Kg
Viande,côte de porc,R,2008,9,2,9.564,,µg/Kg
Viande,veau,R,2008,8,1,9.774,,µg/Kg
Viande,veau,R,2008,7,2,10.027,,µg/Kg
Viande,veau,R,2009,6,2,10.586,,µg/Kg
Viande,veau,R,2008,1,2,12.068,,µg/Kg
Viande,côte de porc,R,2007,7,1,12.752,,µg/Kg
Viande,rôti de porc,R,2008,9,1,14.764,,µg/Kg
Viande,côte de porc,R,2008,5,1,14.84,,µg/Kg
Viande,côte de porc,R,2009,5,2,15.211,,µg/Kg
Viande,mouton,R,2008,5,1,16.634,,µg/Kg
Viande,côte de porc,R,2007,34,1,17.8,,µg/Kg
Viande,veau,R,2007,34,1,19.182,,µg/Kg
Viande,côte de porc,R,2008,2,1,19.492,,µg/Kg
Viande,rôti de porc,R,2008,8,1,20.824,,µg/Kg
Viande,mouton,R,2008,9,1,22.742,,µg/Kg
Viande,côte de porc,R,2008,7,2,24.63,,µg/Kg
Viande,côte de porc,R,2008,6,1,25.963,,µg/Kg
Viande,côte de porc,R,2008,1,2,26.255,,µg/Kg
Viande,bœuf steak,R,2009,5,2,26.905,,µg/Kg
Viande,veau,R,2008,9,1,27.181,,µg/Kg
Viande,rôti de porc,R,2008,34,2,28.812,,µg/Kg
Viande,veau,R,2008,5,1,29.582,,µg/Kg
Viande,côte de porc,R,2007,1,1,31.485,,µg/Kg
Viande,veau,R,2008,2,2,32.128,,µg/Kg
Viande,côte de porc,R,2008,8,1,40.091,,µg/Kg
Viande,veau,R,2007,1,1,56.937,,µg/Kg
Viande,rôti de porc,R,2007,7,1,68.922,,µg/Kg
Viande,veau,R,2009,5,2,223.524,,µg/Kg
Viande,bœuf steak,R,2008,7,2,<LOD,0.21,µg/Kg
Viande,bœuf steak,R,2008,8,2,<LOD,0.21,µg/Kg
Viennoiserie,pain au chocolat,N,2008,99,2,0.718,,µg/Kg
Viennoiserie,pain au chocolat,N,2007,99,1,0.926,,µg/Kg
Viennoiserie,brioche et pain brioché,N,2007,99,1,1.119,,µg/Kg
Viennoiserie,croissant,N,2007,99,1,1.279,,µg/Kg
Viennoiserie,brioche et pain brioché,N,2008,99,2,2.996,,µg/Kg
Volaille et gibier,poulet,R,2008,2,1,0.426,,µg/Kg
Volaille et gibier,poulet,R,2009,5,2,0.494,,µg/Kg
Volaille et gibier,dinde escalope sautée,R,2009,5,2,0.599,,µg/Kg
Volaille et gibier,dinde escalope sautée,R,2009,6,2,0.648,,µg/Kg
Volaille et gibier,dinde escalope sautée,R,2008,2,1,0.68,,µg/Kg
Volaille et gibier,poulet,R,2007,34,1,0.7,,µg/Kg
Volaille et gibier,dinde escalope sautée,R,2008,8,2,0.704,,µg/Kg
Volaille et gibier,poulet,R,2007,7,1,0.748,,µg/Kg
Volaille et gibier,dinde escalope sautée,R,2008,7,2,0.76,,µg/Kg
Volaille et gibier,poulet,R,2008,34,2,0.804,,µg/Kg
Volaille et gibier,poulet,R,2007,1,1,1.35,,µg/Kg
Volaille et gibier,poulet,R,2008,7,2,1.427,,µg/Kg
Volaille et gibier,dinde escalope sautée,R,2008,9,1,1.641,,µg/Kg
Volaille et gibier,dinde escalope sautée,R,2008,5,1,1.818,,µg/Kg
Volaille et gibier,poulet,R,2008,9,2,2.249,,µg/Kg
Volaille et gibier,poulet,R,2008,6,1,3.073,,µg/Kg
Volaille et gibier,poulet,R,2008,2,2,3.121,,µg/Kg
Volaille et gibier,dinde rôtie,R,2008,9,2,3.183,,µg/Kg
Volaille et gibier,poulet,R,2008,8,2,3.273,,µg/Kg
Volaille et gibier,poulet,R,2008,1,2,3.406,,µg/Kg
Volaille et gibier,dinde escalope sautée,R,2007,7,1,3.451,,µg/Kg
Volaille et gibier,poulet,R,2008,9,1,3.648,,µg/Kg
Volaille et gibier,dinde escalope sautée,R,2008,1,2,3.803,,µg/Kg
Volaille et gibier,canard,R,2008,8,1,3.974,,µg/Kg
Volaille et gibier,dinde escalope sautée,R,2007,34,1,4.021,,µg/Kg
Volaille et gibier,poulet,R,2008,8,1,4.823,,µg/Kg
Volaille et gibier,dinde rôtie,R,2008,9,1,4.971,,µg/Kg
Volaille et gibier,dinde escalope sautée,R,2007,1,1,6.047,,µg/Kg
Volaille et gibier,dinde escalope sautée,R,2008,2,2,6.361,,µg/Kg
Volaille et gibier,poulet,R,2008,5,1,9.738,,µg/Kg
Volaille et gibier,dinde escalope sautée,R,2008,6,1,15.288,,µg/Kg
Volaille et gibier,dinde escalope sautée,R,2008,8,1,49.216,,µg/Kg
