﻿Groupe de la nomenclature INCA 2,Libellé,Type,Date,Région,Vague,Matière sèche (%)
Abats,foie,R,2007,1,1,35.5
Abats,foie,R,2007,7,1,NR
Abats,foie,R,2007,34,1,NR
Abats,foie,R,2008,1,2,36.1
Abats,foie,R,2008,2,1,35.5
Abats,foie,R,2008,2,2,36.1
Abats,foie,R,2008,5,1,35.5
Abats,foie,R,2008,6,1,35.5
Abats,foie,R,2008,7,2,NR
Abats,foie,R,2008,8,1,37.3
Abats,foie,R,2008,8,2,36.1
Abats,foie,R,2008,9,1,36.1
Abats,foie,R,2008,9,2,36.1
Abats,foie,R,2008,34,2,35.5
Abats,foie,R,2009,5,2,36.1
Abats,foie,R,2009,6,2,36.1
Aliments destinés à une alimentaire particulière,tofu,N,2007,99,1,24.5
Aliments destinés à une alimentaire particulière,tofu,N,2008,99,2,25.5
Autres boissons chaudes,boisson au chocolat,R,2007,1,1,18.6
Autres boissons chaudes,boisson au chocolat,R,2008,1,2,18.6
Autres boissons chaudes,boisson au chocolat,R,2007,7,1,NR
Autres boissons chaudes,boisson au chocolat,R,2007,34,1,NR
Autres boissons chaudes,boisson au chocolat,R,2008,2,1,18.6
Autres boissons chaudes,boisson au chocolat,R,2008,2,2,18.6
Autres boissons chaudes,boisson au chocolat,R,2008,5,1,18.6
Autres boissons chaudes,boisson au chocolat,R,2008,6,1,18.6
Autres boissons chaudes,boisson au chocolat,R,2008,7,2,18.6
Autres boissons chaudes,boisson au chocolat,R,2008,8,1,18.6
Autres boissons chaudes,boisson au chocolat,R,2008,8,2,18.6
Autres boissons chaudes,boisson au chocolat,R,2008,9,1,18.6
Autres boissons chaudes,boisson au chocolat,R,2008,9,2,18.6
Autres boissons chaudes,boisson au chocolat,R,2008,34,2,18.6
Autres boissons chaudes,boisson au chocolat,R,2009,5,2,18.6
Autres boissons chaudes,boisson au chocolat,R,2009,6,2,18.6
Autres boissons chaudes,thé ou tisane,R,2007,1,1,0
Autres boissons chaudes,thé ou tisane,R,2007,7,1,0
Autres boissons chaudes,thé ou tisane,R,2008,1,2,0
Autres boissons chaudes,thé ou tisane,R,2008,2,1,0
Autres boissons chaudes,thé ou tisane,R,2008,2,2,0
Autres boissons chaudes,thé ou tisane,R,2008,5,1,0
Autres boissons chaudes,thé ou tisane,R,2008,6,1,0
Autres boissons chaudes,thé ou tisane,R,2008,7,2,0
Autres boissons chaudes,thé ou tisane,R,2008,8,1,0
Autres boissons chaudes,thé ou tisane,R,2008,8,2,0
Autres boissons chaudes,thé ou tisane,R,2008,9,1,0
Autres boissons chaudes,thé ou tisane,R,2008,9,2,0
Autres boissons chaudes,thé ou tisane,R,2008,34,2,0
Autres boissons chaudes,thé ou tisane,R,2009,5,2,0
Autres boissons chaudes,thé ou tisane,R,2009,6,2,0
Beurre,beurre,N,2007,99,1,81.2
Beurre,beurre,N,2008,99,2,83.5
Beurre,beurre allégé à 60-62 % m.g.,N,2007,99,1,37.1
Beurre,beurre allégé à 60-62 % m.g.,N,2008,99,2,23.6
Beurre,beurre salé,N,2007,99,1,80.3
Beurre,beurre salé,N,2008,99,2,84
Biscuits sucrés ou salés et barres,barquette à la pulpe de fruit,N,2007,99,1,83.7
Biscuits sucrés ou salés et barres,barquette à la pulpe de fruit,N,2008,99,2,85.2
Biscuits sucrés ou salés et barres,biscuit apéritif,N,2007,99,1,98.5
Biscuits sucrés ou salés et barres,biscuit apéritif,N,2008,99,2,100
Biscuits sucrés ou salés et barres,biscuit sec,N,2007,99,1,98.9
Biscuits sucrés ou salés et barres,biscuit sec,N,2008,99,2,99.5
Biscuits sucrés ou salés et barres,biscuit sec au chocolat,N,2007,99,1,98.6
Biscuits sucrés ou salés et barres,biscuit sec au chocolat,N,2008,99,2,98.3
Biscuits sucrés ou salés et barres,pomme de terre chips salées,R,2007,1,1,98.1
Biscuits sucrés ou salés et barres,pomme de terre chips salées,R,2007,7,1,NR
Biscuits sucrés ou salés et barres,pomme de terre chips salées,R,2007,34,1,NR
Biscuits sucrés ou salés et barres,pomme de terre chips salées,R,2008,1,2,98.9
Biscuits sucrés ou salés et barres,pomme de terre chips salées,R,2008,2,1,98.4
Biscuits sucrés ou salés et barres,pomme de terre chips salées,R,2008,2,2,98.9
Biscuits sucrés ou salés et barres,pomme de terre chips salées,R,2008,5,1,98.9
Biscuits sucrés ou salés et barres,pomme de terre chips salées,R,2008,6,1,98.9
Biscuits sucrés ou salés et barres,pomme de terre chips salées,R,2008,7,2,98.9
Biscuits sucrés ou salés et barres,pomme de terre chips salées,R,2008,8,1,98.9
Biscuits sucrés ou salés et barres,pomme de terre chips salées,R,2008,8,2,98.9
Biscuits sucrés ou salés et barres,pomme de terre chips salées,R,2008,9,1,98.9
Biscuits sucrés ou salés et barres,pomme de terre chips salées,R,2008,9,2,98.9
Biscuits sucrés ou salés et barres,pomme de terre chips salées,R,2008,34,2,98.9
Biscuits sucrés ou salés et barres,pomme de terre chips salées,R,2009,5,2,98.9
Biscuits sucrés ou salés et barres,pomme de terre chips salées,R,2009,6,2,98.9
Boissons alcoolisées,bière,N,2007,99,1,4.2
Boissons alcoolisées,bière,N,2008,99,2,4.2
Boissons alcoolisées,champagne,N,2007,99,1,2.7
Boissons alcoolisées,champagne,N,2008,99,2,2.7
Boissons alcoolisées,cidre,N,2007,99,1,5.1
Boissons alcoolisées,cidre,N,2008,99,2,5.1
Boissons alcoolisées,pastis prêt à boire (1+5),N,2007,99,1,0.2
Boissons alcoolisées,pastis prêt à boire (1+5),N,2008,99,2,0.2
Boissons alcoolisées,vin,N,2007,99,1,1.4
Boissons alcoolisées,vin,N,2008,99,2,1.4
Boissons fraîches sans alcool,boisson au soja ou tonyu,N,2007,99,1,9.5
Boissons fraîches sans alcool,boisson au soja ou tonyu,N,2008,99,2,9.6
Boissons fraîches sans alcool,boisson aux extraits de thé aromatisé,N,2007,99,1,NR
Boissons fraîches sans alcool,boisson aux extraits de thé aromatisé,N,2008,99,2,NR
Boissons fraîches sans alcool,boisson gazeuse à l'orange avec pulpe sucrée,N,2007,99,1,9.9
Boissons fraîches sans alcool,boisson gazeuse à l'orange avec pulpe sucrée,N,2008,99,2,9.9
Boissons fraîches sans alcool,boisson plate à l'orange,N,2007,99,1,9.8
Boissons fraîches sans alcool,boisson plate à l'orange,N,2008,99,2,9.8
Boissons fraîches sans alcool,jus d'ananas à base de concentré,N,2007,99,1,12.1
Boissons fraîches sans alcool,jus d'ananas à base de concentré,N,2008,99,2,12.1
Boissons fraîches sans alcool,jus de fruits multivitamines 100% pur jus,N,2007,99,1,11.6
Boissons fraîches sans alcool,jus de fruits multivitamines 100% pur jus,N,2008,99,2,11.6
Boissons fraîches sans alcool,jus de pomme à base de concentré pasteurisé,N,2007,99,1,10.2
Boissons fraîches sans alcool,jus de pomme à base de concentré pasteurisé,N,2008,99,2,10.2
Boissons fraîches sans alcool,jus d'orange à base de concentré pasteurisé,N,2007,99,1,10
Boissons fraîches sans alcool,jus d'orange à base de concentré pasteurisé,N,2008,99,2,10
Boissons fraîches sans alcool,jus d'orange frais non sucré,N,2007,99,1,11.2
Boissons fraîches sans alcool,jus d'orange frais non sucré,N,2008,99,2,11.2
Boissons fraîches sans alcool,limonade ou clear lime sucrée,N,2007,99,1,7.4
Boissons fraîches sans alcool,limonade ou clear lime sucrée,N,2008,99,2,7.4
Boissons fraîches sans alcool,pur jus de raisin pasteurisé,N,2007,99,1,15
Boissons fraîches sans alcool,pur jus de raisin pasteurisé,N,2008,99,2,15
Boissons fraîches sans alcool,sirop aux extraits de fruits,N,2007,99,1,61
Boissons fraîches sans alcool,sirop aux extraits de fruits,N,2008,99,2,NR
Boissons fraîches sans alcool,soda,N,2007,99,1,8.2
Boissons fraîches sans alcool,soda,N,2008,99,2,8.2
Café,café noir,R,2007,1,1,0
Café,café noir,R,2007,7,1,NR
Café,café noir,R,2008,1,2,0
Café,café noir,R,2008,2,1,NR
Café,café noir,R,2008,2,2,0
Café,café noir,R,2008,5,1,0
Café,café noir,R,2008,6,1,0
Café,café noir,R,2008,7,2,0
Café,café noir,R,2008,8,1,0
Café,café noir,R,2008,8,2,0
Café,café noir,R,2008,9,1,0
Café,café noir,R,2008,9,2,0
Café,café noir,R,2008,34,2,0
Café,café noir,R,2009,5,2,0
Café,café noir,R,2009,6,2,NR
Café,café soluble reconstitué prêt à boire,R,2007,1,1,0
Café,café soluble reconstitué prêt à boire,R,2007,7,1,NR
Café,café soluble reconstitué prêt à boire,R,2008,1,2,0
Café,café soluble reconstitué prêt à boire,R,2008,2,1,0
Café,café soluble reconstitué prêt à boire,R,2008,2,2,0
Café,café soluble reconstitué prêt à boire,R,2008,5,1,0
Café,café soluble reconstitué prêt à boire,R,2008,6,1,0
Café,café soluble reconstitué prêt à boire,R,2008,7,2,0
Café,café soluble reconstitué prêt à boire,R,2008,8,1,0
Café,café soluble reconstitué prêt à boire,R,2008,8,2,0
Café,café soluble reconstitué prêt à boire,R,2008,9,1,0
Café,café soluble reconstitué prêt à boire,R,2008,9,2,0
Café,café soluble reconstitué prêt à boire,R,2008,34,2,0
Café,café soluble reconstitué prêt à boire,R,2009,5,2,0
Café,café soluble reconstitué prêt à boire,R,2009,6,2,0
Céréales pour petit déjeuner,céréales au chocolat,N,2007,99,1,28.9
Céréales pour petit déjeuner,céréales au chocolat,N,2008,99,2,28.3
Céréales pour petit déjeuner,muesli,N,2007,99,1,33.1
Céréales pour petit déjeuner,muesli,N,2008,99,2,34.1
Céréales pour petit déjeuner,pétales de maïs,N,2007,99,1,28.8
Céréales pour petit déjeuner,pétales de maïs,N,2008,99,2,27.3
Charcuterie,chipolata,R,2008,8,1,44.6
Charcuterie,chipolata,R,2008,8,2,43.7
Charcuterie,foie gras,R,2007,34,1,NR
Charcuterie,foie gras,R,2008,34,2,59.8
Charcuterie,jambon cru,R,2007,7,1,NR
Charcuterie,jambon cru,R,2007,34,1,NR
Charcuterie,jambon cru,R,2008,5,1,49.4
Charcuterie,jambon cru,R,2008,6,1,49.4
Charcuterie,jambon cru,R,2008,7,2,49.4
Charcuterie,jambon cru,R,2008,8,1,49.4
Charcuterie,jambon cru,R,2008,8,2,49.4
Charcuterie,jambon cru,R,2008,9,1,49.4
Charcuterie,jambon cru,R,2008,9,2,49.4
Charcuterie,jambon cru,R,2008,34,2,49.4
Charcuterie,jambon cru,R,2009,5,2,49.4
Charcuterie,jambon cru,R,2009,6,2,49.4
Charcuterie,jambon cuit,R,2007,1,1,28.4
Charcuterie,jambon cuit,R,2007,7,1,NR
Charcuterie,jambon cuit,R,2007,34,1,NR
Charcuterie,jambon cuit,R,2008,1,2,28.4
Charcuterie,jambon cuit,R,2008,2,1,28.4
Charcuterie,jambon cuit,R,2008,2,2,28.4
Charcuterie,jambon cuit,R,2008,5,1,28.4
Charcuterie,jambon cuit,R,2008,6,1,28.4
Charcuterie,jambon cuit,R,2008,7,2,28.4
Charcuterie,jambon cuit,R,2008,8,1,28.4
Charcuterie,jambon cuit,R,2008,8,2,28.4
Charcuterie,jambon cuit,R,2008,9,1,28.4
Charcuterie,jambon cuit,R,2008,9,2,28.4
Charcuterie,jambon cuit,R,2008,34,2,28.4
Charcuterie,jambon cuit,R,2009,5,2,28.4
Charcuterie,jambon cuit,R,2009,6,2,28.4
Charcuterie,"lard, bacon",R,2007,1,1,51.9
Charcuterie,"lard, bacon",R,2008,1,2,53.2
Charcuterie,"lard, bacon",R,2008,5,1,54.5
Charcuterie,"lard, bacon",R,2009,5,2,56.8
Charcuterie,merguez,R,2007,7,1,NR
Charcuterie,merguez,R,2008,2,1,49.8
Charcuterie,merguez,R,2008,2,2,48.3
Charcuterie,merguez,R,2008,5,1,46.8
Charcuterie,merguez,R,2008,7,2,50.3
Charcuterie,merguez,R,2009,5,2,48.3
Charcuterie,pâté,R,2007,1,1,49.1
Charcuterie,pâté,R,2007,7,1,NR
Charcuterie,pâté,R,2008,1,2,46.3
Charcuterie,pâté,R,2008,2,1,48.5
Charcuterie,pâté,R,2008,5,1,45.9
Charcuterie,pâté,R,2008,6,1,45.9
Charcuterie,pâté,R,2008,7,2,44.8
Charcuterie,pâté,R,2008,8,1,46.5
Charcuterie,pâté,R,2008,8,2,46.3
Charcuterie,pâté,R,2008,9,1,45.1
Charcuterie,pâté,R,2008,9,2,46.3
Charcuterie,pâté,R,2009,5,2,46.3
Charcuterie,pâté,R,2009,6,2,46.3
Charcuterie,saucisse de strasbourg,R,2007,34,1,NR
Charcuterie,saucisse de strasbourg,R,2008,2,1,41.9
Charcuterie,saucisse de strasbourg,R,2008,2,2,41.7
Charcuterie,saucisse de strasbourg,R,2008,5,1,41.7
Charcuterie,saucisse de strasbourg,R,2008,8,1,41.7
Charcuterie,saucisse de strasbourg,R,2008,8,2,41.7
Charcuterie,saucisse de strasbourg,R,2008,34,2,41.7
Charcuterie,saucisse de strasbourg,R,2009,5,2,41.7
Charcuterie,saucisson sec,R,2007,1,1,69.4
Charcuterie,saucisson sec,R,2007,7,1,NR
Charcuterie,saucisson sec,R,2007,34,1,NR
Charcuterie,saucisson sec,R,2008,1,2,69.4
Charcuterie,saucisson sec,R,2008,2,1,69.4
Charcuterie,saucisson sec,R,2008,2,2,69.4
Charcuterie,saucisson sec,R,2008,5,1,69.4
Charcuterie,saucisson sec,R,2008,6,1,69.4
Charcuterie,saucisson sec,R,2008,7,2,69.4
Charcuterie,saucisson sec,R,2008,8,1,69.4
Charcuterie,saucisson sec,R,2008,8,2,69.4
Charcuterie,saucisson sec,R,2008,9,1,69.4
Charcuterie,saucisson sec,R,2008,9,2,69.4
Charcuterie,saucisson sec,R,2008,34,2,69.4
Charcuterie,saucisson sec,R,2009,5,2,69.4
Charcuterie,saucisson sec,R,2009,6,2,69.4
Chocolat,barre chocolatée biscuitée,N,2007,99,1,97.1
Chocolat,barre chocolatée biscuitée,N,2008,99,2,95
Chocolat,chocolat au lait,N,2007,99,1,98
Chocolat,chocolat au lait,N,2008,99,2,99.2
Chocolat,chocolat au lait aux fruits secs,N,2007,99,1,98.5
Chocolat,chocolat au lait aux fruits secs,N,2008,99,2,98.7
Chocolat,chocolat noir,N,2007,99,1,98.2
Chocolat,chocolat noir,N,2008,99,2,99.3
Chocolat,pâte à tartiner chocolatée,N,2007,99,1,99.4
Chocolat,pâte à tartiner chocolatée,N,2008,99,2,99.4
Compotes et fruits cuits,compote de fruits allégée,N,2007,99,1,15.2
Compotes et fruits cuits,compote de fruits allégée,N,2008,99,2,15.8
Compotes et fruits cuits,compote de fruits autres que pomme,N,2007,99,1,27.7
Compotes et fruits cuits,compote de fruits autres que pomme,N,2008,99,2,23.5
Compotes et fruits cuits,compote de pomme,N,2007,99,1,21.8
Compotes et fruits cuits,compote de pomme,N,2008,99,2,23.2
Compotes et fruits cuits,fruits au sirop,N,2007,99,1,16.9
Compotes et fruits cuits,fruits au sirop,N,2008,99,2,16.2
Condiments et sauces,ketchup,N,2007,99,1,29.8
Condiments et sauces,ketchup,N,2008,99,2,34.6
Condiments et sauces,mayonnaise,N,2007,99,1,79.8
Condiments et sauces,mayonnaise,N,2008,99,2,14.9
Condiments et sauces,sauce de soja,N,2007,99,1,NR
Condiments et sauces,sauce de soja,N,2008,99,2,29.8
Condiments et sauces,sauce tomate à la viande,N,2007,99,1,21.9
Condiments et sauces,sauce tomate à la viande,N,2008,99,2,21.2
Condiments et sauces,sauce tomate sans viande,N,2007,99,1,NR
Condiments et sauces,sauce tomate sans viande,N,2008,99,2,81.3
Condiments et sauces,vinaigrette,N,2007,99,1,44.9
Condiments et sauces,vinaigrette,N,2008,99,2,48.9
Crustacés et mollusques,coquille st jacques,R,2007,34,1,NR
Crustacés et mollusques,coquille st jacques,R,2008,2,1,27
Crustacés et mollusques,coquille st jacques,R,2008,2,2,27
Crustacés et mollusques,coquille st jacques,R,2008,34,2,27
Crustacés et mollusques,coquille st jacques,R,2009,5,2,26.1
Crustacés et mollusques,crevette,R,2007,1,1,26.2
Crustacés et mollusques,crevette,R,2007,7,1,NR
Crustacés et mollusques,crevette,R,2007,34,1,NR
Crustacés et mollusques,crevette,R,2008,1,2,25.8
Crustacés et mollusques,crevette,R,2008,2,1,25.4
Crustacés et mollusques,crevette,R,2008,2,2,26.1
Crustacés et mollusques,crevette,R,2008,5,1,25.9
Crustacés et mollusques,crevette,R,2008,6,1,25.9
Crustacés et mollusques,crevette,R,2008,7,2,25.9
Crustacés et mollusques,crevette,R,2008,8,1,26.5
Crustacés et mollusques,crevette,R,2008,8,2,26
Crustacés et mollusques,crevette,R,2008,9,1,25.9
Crustacés et mollusques,crevette,R,2008,9,2,26
Crustacés et mollusques,crevette,R,2008,34,2,25.9
Crustacés et mollusques,crevette,R,2009,5,2,26
Crustacés et mollusques,crevette,R,2009,6,2,26
Crustacés et mollusques,huître,R,2008,2,1,10.3
Crustacés et mollusques,huître,R,2008,8,1,7.4
Crustacés et mollusques,huître,R,2008,8,2,9.2
Crustacés et mollusques,huître,R,2008,9,2,8.9
Crustacés et mollusques,huître,R,2009,5,2,11.2
Crustacés et mollusques,huître,R,2009,6,2,9
Crustacés et mollusques,moule,R,2007,1,1,27.8
Crustacés et mollusques,moule,R,2007,7,1,NR
Crustacés et mollusques,moule,R,2007,34,1,NR
Crustacés et mollusques,moule,R,2008,1,2,27.8
Crustacés et mollusques,moule,R,2008,5,1,27.8
Crustacés et mollusques,moule,R,2008,7,2,25
Crustacés et mollusques,moule,R,2008,9,1,27.8
Crustacés et mollusques,moule,R,2008,9,2,26.3
Crustacés et mollusques,moule,R,2008,34,2,23.5
Crustacés et mollusques,moule,R,2009,5,2,26.3
Eaux,eau de source,R,2007,1,1,0
Eaux,eau de source,R,2007,7,1,NR
Eaux,eau de source,R,2007,34,1,NR
Eaux,eau de source,R,2008,1,2,0
Eaux,eau de source,R,2008,2,1,0
Eaux,eau de source,R,2008,2,2,0
Eaux,eau de source,R,2008,5,1,0
Eaux,eau de source,R,2008,6,1,0
Eaux,eau de source,R,2008,7,2,0
Eaux,eau de source,R,2008,8,1,0
Eaux,eau de source,R,2008,8,2,0
Eaux,eau de source,R,2008,9,1,0
Eaux,eau de source,R,2008,9,2,0
Eaux,eau de source,R,2008,34,2,0
Eaux,eau de source,R,2009,5,2,0
Eaux,eau de source,R,2009,6,2,0
Eaux,eau du robinet,R,2007,1,1,0
Eaux,eau du robinet,R,2007,7,1,NR
Eaux,eau du robinet,R,2007,34,1,NR
Eaux,eau du robinet,R,2008,1,2,0
Eaux,eau du robinet,R,2008,2,1,0
Eaux,eau du robinet,R,2008,2,2,0
Eaux,eau du robinet,R,2008,5,1,0
Eaux,eau du robinet,R,2008,6,1,0
Eaux,eau du robinet,R,2008,7,2,0
Eaux,eau du robinet,R,2008,8,1,0
Eaux,eau du robinet,R,2008,8,2,0
Eaux,eau du robinet,R,2008,9,1,0
Eaux,eau du robinet,R,2008,9,2,0
Eaux,eau du robinet,R,2008,34,2,0
Eaux,eau du robinet,R,2009,5,2,0
Eaux,eau du robinet,R,2009,6,2,0
Eaux,eau minérale naturelle gazeuse (marque nationale 1),N,2007,99,1,10.2
Eaux,eau minérale naturelle gazeuse (marque nationale 1),N,2008,99,2,0
Eaux,eau minérale naturelle gazeuse (marque nationale 2),N,2007,99,1,NR
Eaux,eau minérale naturelle gazeuse (marque nationale 2),N,2008,99,2,0
Eaux,eau minérale naturelle plate (marque nationale 1),N,2007,99,1,NR
Eaux,eau minérale naturelle plate (marque nationale 1),N,2008,99,2,0
Eaux,eau minérale naturelle plate (marque nationale 2),N,2007,99,1,NR
Eaux,eau minérale naturelle plate (marque nationale 2),N,2008,99,2,0
Eaux,eau minérale naturelle plate (marque nationale 3),N,2007,99,1,NR
Eaux,eau minérale naturelle plate (marque nationale 3),N,2008,99,2,0
Eaux,eau minérale naturelle plate (marque nationale 4),N,2007,99,1,NR
Eaux,eau minérale naturelle plate (marque nationale 4),N,2008,99,2,0
Eaux,eau minérale naturelle plate (marque nationale 5),N,2007,99,1,NR
Eaux,eau minérale naturelle plate (marque nationale 5),N,2008,99,2,0
"Entremets, crèmes desserts et laits gélifiés",chocolat viennois ou liégeois,N,2007,99,1,30.8
"Entremets, crèmes desserts et laits gélifiés",chocolat viennois ou liégeois,N,2008,99,2,31.3
"Entremets, crèmes desserts et laits gélifiés",clafoutis aux fruits,R,2008,6,1,40.1
"Entremets, crèmes desserts et laits gélifiés",clafoutis aux fruits,R,2009,6,2,35.8
"Entremets, crèmes desserts et laits gélifiés",crème caramel,N,2007,99,1,29.8
"Entremets, crèmes desserts et laits gélifiés",crème caramel,N,2008,99,2,30.5
"Entremets, crèmes desserts et laits gélifiés",crème dessert,N,2007,99,1,29
"Entremets, crèmes desserts et laits gélifiés",crème dessert,N,2008,99,2,29.8
"Entremets, crèmes desserts et laits gélifiés",dessert au soja aromatisé au chocolat,N,2007,99,1,25.9
"Entremets, crèmes desserts et laits gélifiés",dessert au soja aromatisé au chocolat,N,2008,99,2,26.5
"Entremets, crèmes desserts et laits gélifiés",dessert au soja aux fruits,N,2007,99,1,19.3
"Entremets, crèmes desserts et laits gélifiés",dessert au soja aux fruits,N,2008,99,2,19.3
"Entremets, crèmes desserts et laits gélifiés",dessert au soja nature,N,2007,99,1,10.4
"Entremets, crèmes desserts et laits gélifiés",dessert au soja nature,N,2008,99,2,10.3
"Entremets, crèmes desserts et laits gélifiés",flan aux oeufs,R,2007,1,1,30.1
"Entremets, crèmes desserts et laits gélifiés",flan aux oeufs,R,2008,1,2,29
"Entremets, crèmes desserts et laits gélifiés",flan aux oeufs,R,2008,2,1,27.2
"Entremets, crèmes desserts et laits gélifiés",flan aux oeufs,R,2008,2,2,33.1
"Entremets, crèmes desserts et laits gélifiés",flan aux oeufs,R,2008,5,1,29
"Entremets, crèmes desserts et laits gélifiés",flan aux oeufs,R,2008,6,1,29
"Entremets, crèmes desserts et laits gélifiés",flan aux oeufs,R,2008,8,1,29
"Entremets, crèmes desserts et laits gélifiés",flan aux oeufs,R,2008,8,2,28.7
"Entremets, crèmes desserts et laits gélifiés",flan aux oeufs,R,2008,9,1,29
"Entremets, crèmes desserts et laits gélifiés",flan aux oeufs,R,2008,9,2,30.1
"Entremets, crèmes desserts et laits gélifiés",flan aux oeufs,R,2009,5,2,30.1
"Entremets, crèmes desserts et laits gélifiés",flan aux oeufs,R,2009,6,2,30.1
"Entremets, crèmes desserts et laits gélifiés",mousse au chocolat rayon frais,N,2007,99,1,38
"Entremets, crèmes desserts et laits gélifiés",mousse au chocolat rayon frais,N,2008,99,2,38.4
Fromages,camembert et apparenté,N,2007,99,1,44.8
Fromages,camembert et apparenté,N,2008,99,2,44.8
Fromages,"cantal, morbier et apparenté",N,2007,99,1,53.5
Fromages,"cantal, morbier et apparenté",N,2008,99,2,54.1
Fromages,chèvre,N,2007,99,1,47.1
Fromages,chèvre,N,2008,99,2,45
Fromages,edam et apparenté,N,2007,99,1,56
Fromages,edam et apparenté,N,2008,99,2,60.1
Fromages,fromage à pâte ferme enrobé de cire,N,2007,99,1,51.5
Fromages,fromage à pâte ferme enrobé de cire,N,2008,99,2,50.2
Fromages,fromage blanc non allégé,R,2007,1,1,21.7
Fromages,fromage blanc non allégé,R,2007,7,1,NR
Fromages,fromage blanc non allégé,R,2007,34,1,NR
Fromages,fromage blanc non allégé,R,2008,1,2,21.7
Fromages,fromage blanc non allégé,R,2008,2,1,21.7
Fromages,fromage blanc non allégé,R,2008,2,2,21.7
Fromages,fromage blanc non allégé,R,2008,5,1,21.7
Fromages,fromage blanc non allégé,R,2008,6,1,NR
Fromages,fromage blanc non allégé,R,2008,7,2,21.7
Fromages,fromage blanc non allégé,R,2008,8,1,21.7
Fromages,fromage blanc non allégé,R,2008,8,2,21.7
Fromages,fromage blanc non allégé,R,2008,9,1,21.7
Fromages,fromage blanc non allégé,R,2008,9,2,20.5
Fromages,fromage blanc non allégé,R,2008,34,2,21.7
Fromages,fromage blanc non allégé,R,2009,5,2,21.3
Fromages,fromage blanc non allégé,R,2009,6,2,21.7
Fromages,fromage fondu,N,2007,99,1,42
Fromages,fromage fondu,N,2008,99,2,43
Fromages,gruyère,N,2007,99,1,60.7
Fromages,gruyère,N,2008,99,2,60.8
Fromages,roquefort,N,2007,99,1,56.4
Fromages,roquefort,N,2008,99,2,56.7
Fruits,abricot,R,2007,7,1,NR
Fruits,banane,N,2007,99,1,23.9
Fruits,banane,N,2008,99,2,23.8
Fruits,cerise,R,2007,7,1,NR
Fruits,cerise,R,2008,9,1,14.2
Fruits,clémentine ou mandarine,N,2007,99,1,12.1
Fruits,fraise,R,2007,7,1,NR
Fruits,fraise,R,2007,34,1,NR
Fruits,fraise,R,2008,6,1,7.7
Fruits,fraise,R,2008,7,2,8.4
Fruits,fraise,R,2008,9,1,8.2
Fruits,fraise,R,2008,34,2,8.4
Fruits,kiwi,N,2007,99,1,15.1
Fruits,kiwi,N,2008,99,2,14.4
Fruits,melon,R,2007,7,1,NR
Fruits,melon,R,2007,34,1,NR
Fruits,melon,R,2008,5,1,10.7
Fruits,melon,R,2008,6,1,10.7
Fruits,melon,R,2008,9,1,10.8
Fruits,orange,N,2007,99,1,11.6
Fruits,orange,N,2008,99,2,11.9
Fruits,pamplemousse,N,2007,99,1,11.5
Fruits,pamplemousse,N,2008,99,2,11.9
Fruits,pêche,R,2007,7,1,NR
Fruits,pêche,R,2007,34,1,NR
Fruits,pêche,R,2008,5,1,10.85
Fruits,pêche,R,2008,6,1,10.5
Fruits,pêche,R,2008,9,1,9.8
Fruits,poire,R,2007,1,1,13.7
Fruits,poire,R,2007,7,1,NR
Fruits,poire,R,2007,34,1,NR
Fruits,poire,R,2008,1,2,14.9
Fruits,poire,R,2008,2,1,13
Fruits,poire,R,2008,2,2,13.5
Fruits,poire,R,2008,5,1,13
Fruits,poire,R,2008,6,1,13
Fruits,poire,R,2008,7,2,13.7
Fruits,poire,R,2008,8,1,13
Fruits,poire,R,2008,8,2,13.8
Fruits,poire,R,2008,9,1,13
Fruits,poire,R,2008,9,2,13.9
Fruits,poire,R,2008,34,2,13
Fruits,poire,R,2009,5,2,14
Fruits,poire,R,2009,6,2,14
Fruits,pomme,R,2007,1,1,14.2
Fruits,pomme,R,2007,7,1,NR
Fruits,pomme,R,2007,34,1,NR
Fruits,pomme,R,2008,1,2,14.3
Fruits,pomme,R,2008,2,1,14.5
Fruits,pomme,R,2008,2,2,14.3
Fruits,pomme,R,2008,5,1,14.3
Fruits,pomme,R,2008,6,1,14.3
Fruits,pomme,R,2008,7,2,14.3
Fruits,pomme,R,2008,8,1,14.3
Fruits,pomme,R,2008,8,2,14.3
Fruits,pomme,R,2008,9,1,14.3
Fruits,pomme,R,2008,9,2,14.3
Fruits,pomme,R,2008,34,2,14.3
Fruits,pomme,R,2009,5,2,14.3
Fruits,pomme,R,2009,6,2,14.3
Fruits,raisin blanc,R,2007,1,1,18.7
Fruits,raisin blanc,R,2007,7,1,NR
Fruits,raisin blanc,R,2007,34,1,NR
Fruits,raisin blanc,R,2008,1,2,18.3
Fruits,raisin blanc,R,2008,2,1,18.7
Fruits,raisin blanc,R,2008,2,2,19.6
Fruits,raisin blanc,R,2008,5,1,18.7
Fruits,raisin blanc,R,2008,6,1,18.7
Fruits,raisin blanc,R,2008,8,1,18.7
Fruits,raisin blanc,R,2008,8,2,18.5
Fruits,raisin blanc,R,2008,9,1,15.5
Fruits,raisin blanc,R,2008,9,2,18.5
Fruits,raisin blanc,R,2008,34,2,18.7
Fruits,raisin blanc,R,2009,5,2,18.8
Fruits,raisin blanc,R,2009,6,2,18.8
Fruits secs et graines oléagineuses,fruit séché,N,2007,99,1,67.5
Fruits secs et graines oléagineuses,fruit séché,N,2008,99,2,68.6
Fruits secs et graines oléagineuses,graine oléagineuse,N,2007,99,1,95.8
Fruits secs et graines oléagineuses,graine oléagineuse,N,2008,99,2,94.2
Glaces et desserts glacés,glace,N,2007,99,1,50.6
Glaces et desserts glacés,glace,N,2008,99,2,49.4
Huile,huile de colza,N,2007,99,1,NR
Huile,huile de colza,N,2008,99,2,NR
Huile,huile de soja,N,2007,99,1,NR
Huile,huile de soja,N,2008,99,2,NR
Huile,huile de tournesol,N,2007,99,1,NR
Huile,huile de tournesol,N,2008,99,2,NR
Huile,huile d'olive vierge 1ère pression,N,2007,99,1,NR
Huile,huile d'olive vierge 1ère pression,N,2008,99,2,NR
Huile,huile mélangée,N,2007,99,1,NR
Huile,huile mélangée,N,2008,99,2,NR
Lait,lait demi-écrémé,R,2007,1,1,10.5
Lait,lait demi-écrémé,R,2007,7,1,NR
Lait,lait demi-écrémé,R,2007,34,1,NR
Lait,lait demi-écrémé,R,2008,1,2,10.5
Lait,lait demi-écrémé,R,2008,2,1,10.5
Lait,lait demi-écrémé,R,2008,2,2,10.5
Lait,lait demi-écrémé,R,2008,5,1,10.5
Lait,lait demi-écrémé,R,2008,6,1,10.5
Lait,lait demi-écrémé,R,2008,7,2,10.5
Lait,lait demi-écrémé,R,2008,8,1,10.5
Lait,lait demi-écrémé,R,2008,8,2,10.5
Lait,lait demi-écrémé,R,2008,9,1,10.5
Lait,lait demi-écrémé,R,2008,9,2,10.5
Lait,lait demi-écrémé,R,2008,34,2,10.5
Lait,lait demi-écrémé,R,2009,5,2,10.5
Lait,lait demi-écrémé,R,2009,6,2,10.5
Lait,lait écrémé,R,2007,1,1,9.2
Lait,lait écrémé,R,2007,7,1,NR
Lait,lait écrémé,R,2008,1,2,9.2
Lait,lait écrémé,R,2008,2,1,9.2
Lait,lait écrémé,R,2008,2,2,9.2
Lait,lait écrémé,R,2008,5,1,9.2
Lait,lait écrémé,R,2008,6,1,9.2
Lait,lait écrémé,R,2008,7,2,9.2
Lait,lait écrémé,R,2009,5,2,9.2
Lait,lait écrémé,R,2009,6,2,9.2
Lait,lait entier,R,2007,1,1,12.3
Lait,lait entier,R,2007,7,1,NR
Lait,lait entier,R,2007,34,1,NR
Lait,lait entier,R,2008,1,2,12.3
Lait,lait entier,R,2008,2,1,12.3
Lait,lait entier,R,2008,2,2,12.3
Lait,lait entier,R,2008,7,2,12.3
Lait,lait entier,R,2008,8,1,12.3
Lait,lait entier,R,2008,8,2,12.3
Lait,lait entier,R,2008,9,1,12.3
Lait,lait entier,R,2008,9,2,12.3
Lait,lait entier,R,2008,34,2,12.3
Légumes (hors pomme de terre),artichaut,R,2007,1,1,17.1
Légumes (hors pomme de terre),artichaut,R,2007,7,1,NR
Légumes (hors pomme de terre),artichaut,R,2007,34,1,NR
Légumes (hors pomme de terre),artichaut,R,2008,1,2,17.1
Légumes (hors pomme de terre),artichaut,R,2008,2,1,17.1
Légumes (hors pomme de terre),artichaut,R,2008,2,2,11.6
Légumes (hors pomme de terre),artichaut,R,2008,5,1,17.1
Légumes (hors pomme de terre),artichaut,R,2008,6,1,17.1
Légumes (hors pomme de terre),artichaut,R,2008,7,2,17.1
Légumes (hors pomme de terre),artichaut,R,2008,8,1,17.1
Légumes (hors pomme de terre),artichaut,R,2008,8,2,17.1
Légumes (hors pomme de terre),artichaut,R,2008,9,1,17.1
Légumes (hors pomme de terre),artichaut,R,2008,9,2,15.2
Légumes (hors pomme de terre),artichaut,R,2008,34,2,17.1
Légumes (hors pomme de terre),artichaut,R,2009,5,2,15.2
Légumes (hors pomme de terre),artichaut,R,2009,6,2,15.2
Légumes (hors pomme de terre),carotte,R,2007,1,1,10.5
Légumes (hors pomme de terre),carotte,R,2007,7,1,NR
Légumes (hors pomme de terre),carotte,R,2007,34,1,NR
Légumes (hors pomme de terre),carotte,R,2008,1,2,27
Légumes (hors pomme de terre),carotte,R,2008,2,1,9.7
Légumes (hors pomme de terre),carotte,R,2008,2,2,10.8
Légumes (hors pomme de terre),carotte,R,2008,5,1,10.5
Légumes (hors pomme de terre),carotte,R,2008,6,1,10.5
Légumes (hors pomme de terre),carotte,R,2008,7,2,10.8
Légumes (hors pomme de terre),carotte,R,2008,8,1,10.5
Légumes (hors pomme de terre),carotte,R,2008,8,2,10.7
Légumes (hors pomme de terre),carotte,R,2008,9,1,10.8
Légumes (hors pomme de terre),carotte,R,2008,9,2,10.7
Légumes (hors pomme de terre),carotte,R,2008,34,2,10.8
Légumes (hors pomme de terre),carotte,R,2009,5,2,10.7
Légumes (hors pomme de terre),carotte,R,2009,6,2,10.7
Légumes (hors pomme de terre),céleri,R,2007,1,1,21.9
Légumes (hors pomme de terre),céleri,R,2007,34,1,NR
Légumes (hors pomme de terre),céleri,R,2008,1,2,21.5
Légumes (hors pomme de terre),céleri,R,2008,5,1,21.5
Légumes (hors pomme de terre),céleri,R,2008,6,1,21.5
Légumes (hors pomme de terre),céleri,R,2008,9,1,21.5
Légumes (hors pomme de terre),céleri,R,2008,9,2,21.5
Légumes (hors pomme de terre),céleri,R,2008,34,2,21.6
Légumes (hors pomme de terre),céleri,R,2009,5,2,21.5
Légumes (hors pomme de terre),céleri,R,2009,6,2,21.5
Légumes (hors pomme de terre),céleri rave,R,2008,2,1,21.5
Légumes (hors pomme de terre),céleri rave,R,2008,2,2,21.5
Légumes (hors pomme de terre),chou-fleur,R,2007,1,1,6.7
Légumes (hors pomme de terre),chou-fleur,R,2007,7,1,NR
Légumes (hors pomme de terre),chou-fleur,R,2007,34,1,NR
Légumes (hors pomme de terre),chou-fleur,R,2008,1,2,6.7
Légumes (hors pomme de terre),chou-fleur,R,2008,2,1,6.7
Légumes (hors pomme de terre),chou-fleur,R,2008,2,2,6.9
Légumes (hors pomme de terre),chou-fleur,R,2008,5,1,6.7
Légumes (hors pomme de terre),chou-fleur,R,2008,6,1,6.7
Légumes (hors pomme de terre),chou-fleur,R,2008,7,2,7.2
Légumes (hors pomme de terre),chou-fleur,R,2008,8,1,6.7
Légumes (hors pomme de terre),chou-fleur,R,2008,8,2,6.9
Légumes (hors pomme de terre),chou-fleur,R,2008,9,1,6.7
Légumes (hors pomme de terre),chou-fleur,R,2008,9,2,6.9
Légumes (hors pomme de terre),chou-fleur,R,2008,34,2,7.4
Légumes (hors pomme de terre),chou-fleur,R,2009,5,2,6.9
Légumes (hors pomme de terre),chou-fleur,R,2009,6,2,6.9
Légumes (hors pomme de terre),concombre,R,2007,1,1,3.6
Légumes (hors pomme de terre),concombre,R,2008,1,2,NR
Légumes (hors pomme de terre),concombre,R,2008,2,1,3.6
Légumes (hors pomme de terre),concombre,R,2008,2,2,3.6
Légumes (hors pomme de terre),concombre,R,2008,5,1,3.6
Légumes (hors pomme de terre),concombre,R,2008,6,1,3.7
Légumes (hors pomme de terre),concombre,R,2008,8,1,3.6
Légumes (hors pomme de terre),concombre,R,2008,8,2,3.6
Légumes (hors pomme de terre),concombre,R,2008,9,1,3.6
Légumes (hors pomme de terre),concombre,R,2008,9,2,3.6
Légumes (hors pomme de terre),concombre,R,2009,6,2,3.6
Légumes (hors pomme de terre),courgette,R,2007,1,1,6.3
Légumes (hors pomme de terre),courgette,R,2007,7,1,NR
Légumes (hors pomme de terre),courgette,R,2007,34,1,NR
Légumes (hors pomme de terre),courgette,R,2008,1,2,6.1
Légumes (hors pomme de terre),courgette,R,2008,2,1,5.7
Légumes (hors pomme de terre),courgette,R,2008,2,2,5.7
Légumes (hors pomme de terre),courgette,R,2008,5,1,6.1
Légumes (hors pomme de terre),courgette,R,2008,6,1,4.6
Légumes (hors pomme de terre),courgette,R,2008,7,2,6.1
Légumes (hors pomme de terre),courgette,R,2008,8,1,6.1
Légumes (hors pomme de terre),courgette,R,2008,8,2,5.7
Légumes (hors pomme de terre),courgette,R,2008,9,1,5.4
Légumes (hors pomme de terre),courgette,R,2008,9,2,5.7
Légumes (hors pomme de terre),courgette,R,2008,34,2,6.1
Légumes (hors pomme de terre),courgette,R,2009,5,2,5.7
Légumes (hors pomme de terre),courgette,R,2009,6,2,5.7
Légumes (hors pomme de terre),endive,R,2007,1,1,4.5
Légumes (hors pomme de terre),endive,R,2007,7,1,NR
Légumes (hors pomme de terre),endive,R,2007,34,1,NR
Légumes (hors pomme de terre),endive,R,2008,1,2,NR
Légumes (hors pomme de terre),endive,R,2008,2,1,4.5
Légumes (hors pomme de terre),endive,R,2008,2,2,4.5
Légumes (hors pomme de terre),endive,R,2008,5,1,4.4
Légumes (hors pomme de terre),endive,R,2008,6,1,4.4
Légumes (hors pomme de terre),endive,R,2008,7,2,4.5
Légumes (hors pomme de terre),endive,R,2008,8,1,4.5
Légumes (hors pomme de terre),endive,R,2008,8,2,4.5
Légumes (hors pomme de terre),endive,R,2008,9,1,4.5
Légumes (hors pomme de terre),endive,R,2008,9,2,4.5
Légumes (hors pomme de terre),endive,R,2008,34,2,4.5
Légumes (hors pomme de terre),endive,R,2009,5,2,4.5
Légumes (hors pomme de terre),endive,R,2009,6,2,4.5
Légumes (hors pomme de terre),épinard,R,2007,1,1,12.1
Légumes (hors pomme de terre),épinard,R,2007,7,1,NR
Légumes (hors pomme de terre),épinard,R,2007,34,1,NR
Légumes (hors pomme de terre),épinard,R,2008,1,2,12.1
Légumes (hors pomme de terre),épinard,R,2008,2,1,12.1
Légumes (hors pomme de terre),épinard,R,2008,2,2,8.5
Légumes (hors pomme de terre),épinard,R,2008,5,1,NR
Légumes (hors pomme de terre),épinard,R,2008,6,1,12.1
Légumes (hors pomme de terre),épinard,R,2008,7,2,12.1
Légumes (hors pomme de terre),épinard,R,2008,8,1,12.1
Légumes (hors pomme de terre),épinard,R,2008,8,2,8.8
Légumes (hors pomme de terre),épinard,R,2008,9,1,9.5
Légumes (hors pomme de terre),épinard,R,2008,9,2,10.9
Légumes (hors pomme de terre),épinard,R,2008,34,2,12.1
Légumes (hors pomme de terre),épinard,R,2009,5,2,10.4
Légumes (hors pomme de terre),épinard,R,2009,6,2,10.9
Légumes (hors pomme de terre),haricot,R,2007,1,1,9.3
Légumes (hors pomme de terre),haricot,R,2007,7,1,NR
Légumes (hors pomme de terre),haricot,R,2007,34,1,NR
Légumes (hors pomme de terre),haricot,R,2008,1,2,9.3
Légumes (hors pomme de terre),haricot,R,2008,2,1,9.3
Légumes (hors pomme de terre),haricot,R,2008,2,2,8.2
Légumes (hors pomme de terre),haricot,R,2008,5,1,9.3
Légumes (hors pomme de terre),haricot,R,2008,6,1,9.3
Légumes (hors pomme de terre),haricot,R,2008,7,2,8.3
Légumes (hors pomme de terre),haricot,R,2008,8,1,9.3
Légumes (hors pomme de terre),haricot,R,2008,8,2,8.7
Légumes (hors pomme de terre),haricot,R,2008,9,1,9.3
Légumes (hors pomme de terre),haricot,R,2008,9,2,8.9
Légumes (hors pomme de terre),haricot,R,2008,34,2,9.3
Légumes (hors pomme de terre),haricot,R,2009,5,2,8.9
Légumes (hors pomme de terre),haricot,R,2009,6,2,8.9
Légumes (hors pomme de terre),"haricot mungo, ""germe de soja""",N,2007,99,1,6.2
Légumes (hors pomme de terre),"haricot mungo, ""germe de soja""",N,2008,99,2,8.7
Légumes (hors pomme de terre),maïs,R,2007,1,1,24.4
Légumes (hors pomme de terre),maïs,R,2007,7,1,NR
Légumes (hors pomme de terre),maïs,R,2007,34,1,NR
Légumes (hors pomme de terre),maïs,R,2008,1,2,24.4
Légumes (hors pomme de terre),maïs,R,2008,2,1,24.4
Légumes (hors pomme de terre),maïs,R,2008,2,2,24.4
Légumes (hors pomme de terre),maïs,R,2008,5,1,24.4
Légumes (hors pomme de terre),maïs,R,2008,6,1,24.4
Légumes (hors pomme de terre),maïs,R,2008,7,2,24.4
Légumes (hors pomme de terre),maïs,R,2008,8,1,24.4
Légumes (hors pomme de terre),maïs,R,2008,8,2,24.4
Légumes (hors pomme de terre),maïs,R,2008,9,1,24.4
Légumes (hors pomme de terre),maïs,R,2008,9,2,24.4
Légumes (hors pomme de terre),maïs,R,2008,34,2,24.4
Légumes (hors pomme de terre),maïs,R,2009,5,2,24.4
Légumes (hors pomme de terre),maïs,R,2009,6,2,24.4
Légumes (hors pomme de terre),navet,R,2007,1,1,NR
Légumes (hors pomme de terre),navet,R,2007,7,1,NR
Légumes (hors pomme de terre),navet,R,2007,34,1,NR
Légumes (hors pomme de terre),navet,R,2008,2,1,7
Légumes (hors pomme de terre),navet,R,2008,7,2,7
Légumes (hors pomme de terre),navet,R,2008,8,1,7
Légumes (hors pomme de terre),navet,R,2008,8,2,7
Légumes (hors pomme de terre),navet,R,2008,9,2,7
Légumes (hors pomme de terre),navet,R,2008,34,2,7
Légumes (hors pomme de terre),navet,R,2009,5,2,7
Légumes (hors pomme de terre),navet,R,2009,6,2,7
Légumes (hors pomme de terre),oignon,R,2007,1,1,18.6
Légumes (hors pomme de terre),oignon,R,2007,7,1,NR
Légumes (hors pomme de terre),oignon,R,2007,34,1,NR
Légumes (hors pomme de terre),oignon,R,2008,1,2,18.6
Légumes (hors pomme de terre),oignon,R,2008,2,1,18.6
Légumes (hors pomme de terre),oignon,R,2008,2,2,15.8
Légumes (hors pomme de terre),oignon,R,2008,5,1,18.6
Légumes (hors pomme de terre),oignon,R,2008,6,1,18.6
Légumes (hors pomme de terre),oignon,R,2008,7,2,18.6
Légumes (hors pomme de terre),oignon,R,2008,8,1,18.6
Légumes (hors pomme de terre),oignon,R,2008,8,2,18.6
Légumes (hors pomme de terre),oignon,R,2008,9,1,18.6
Légumes (hors pomme de terre),oignon,R,2008,9,2,18.6
Légumes (hors pomme de terre),oignon,R,2008,34,2,18.6
Légumes (hors pomme de terre),oignon,R,2009,5,2,18.6
Légumes (hors pomme de terre),oignon,R,2009,6,2,18.6
Légumes (hors pomme de terre),petit pois,R,2007,1,1,25.9
Légumes (hors pomme de terre),petit pois,R,2007,7,1,NR
Légumes (hors pomme de terre),petit pois,R,2007,34,1,NR
Légumes (hors pomme de terre),petit pois,R,2008,1,2,23.5
Légumes (hors pomme de terre),petit pois,R,2008,2,1,NR
Légumes (hors pomme de terre),petit pois,R,2008,2,2,25.9
Légumes (hors pomme de terre),petit pois,R,2008,5,1,25.9
Légumes (hors pomme de terre),petit pois,R,2008,6,1,25.9
Légumes (hors pomme de terre),petit pois,R,2008,7,2,25.9
Légumes (hors pomme de terre),petit pois,R,2008,8,1,25.9
Légumes (hors pomme de terre),petit pois,R,2008,8,2,25.1
Légumes (hors pomme de terre),petit pois,R,2008,9,1,25.9
Légumes (hors pomme de terre),petit pois,R,2008,9,2,25.1
Légumes (hors pomme de terre),petit pois,R,2008,34,2,25.9
Légumes (hors pomme de terre),petit pois,R,2009,5,2,25.1
Légumes (hors pomme de terre),petit pois,R,2009,6,2,25.1
Légumes (hors pomme de terre),poireau,R,2007,1,1,7.3
Légumes (hors pomme de terre),poireau,R,2007,7,1,NR
Légumes (hors pomme de terre),poireau,R,2007,34,1,NR
Légumes (hors pomme de terre),poireau,R,2008,1,2,7.3
Légumes (hors pomme de terre),poireau,R,2008,2,1,7.3
Légumes (hors pomme de terre),poireau,R,2008,7,2,7.3
Légumes (hors pomme de terre),poireau,R,2008,8,1,7.3
Légumes (hors pomme de terre),poireau,R,2008,8,2,7.3
Légumes (hors pomme de terre),poireau,R,2008,9,2,7.3
Légumes (hors pomme de terre),poireau,R,2008,34,2,7.3
Légumes (hors pomme de terre),poireau,R,2009,5,2,7.3
Légumes (hors pomme de terre),poireau,R,2009,6,2,7.3
Légumes (hors pomme de terre),poivron,R,2007,1,1,12.4
Légumes (hors pomme de terre),poivron,R,2008,1,2,10.16
Légumes (hors pomme de terre),poivron,R,2008,2,1,8.9
Légumes (hors pomme de terre),poivron,R,2008,2,2,10.2
Légumes (hors pomme de terre),poivron,R,2008,5,1,10.7
Légumes (hors pomme de terre),poivron,R,2008,6,1,10.7
Légumes (hors pomme de terre),poivron,R,2008,9,1,9.2
Légumes (hors pomme de terre),poivron,R,2008,9,2,10.2
Légumes (hors pomme de terre),poivron,R,2009,6,2,10.2
Légumes (hors pomme de terre),radis,R,2007,1,1,4.3
Légumes (hors pomme de terre),radis,R,2008,1,2,4.3
Légumes (hors pomme de terre),radis,R,2008,2,1,4.3
Légumes (hors pomme de terre),radis,R,2008,2,2,4.1
Légumes (hors pomme de terre),radis,R,2008,5,1,4.3
Légumes (hors pomme de terre),radis,R,2008,6,1,3.8
Légumes (hors pomme de terre),radis,R,2008,8,1,4.3
Légumes (hors pomme de terre),radis,R,2008,8,2,4.1
Légumes (hors pomme de terre),radis,R,2008,9,1,4.3
Légumes (hors pomme de terre),radis,R,2008,9,2,4.3
Légumes (hors pomme de terre),radis,R,2009,5,2,4.1
Légumes (hors pomme de terre),radis,R,2009,6,2,4.1
Légumes (hors pomme de terre),ratatouille,R,2007,7,1,NR
Légumes (hors pomme de terre),ratatouille,R,2007,34,1,NR
Légumes (hors pomme de terre),ratatouille,R,2008,7,2,12.4
Légumes (hors pomme de terre),ratatouille,R,2008,8,1,14.4
Légumes (hors pomme de terre),ratatouille,R,2008,8,2,11.1
Légumes (hors pomme de terre),ratatouille,R,2008,9,1,11.4
Légumes (hors pomme de terre),ratatouille,R,2008,9,2,11.1
Légumes (hors pomme de terre),ratatouille,R,2008,34,2,10.8
Légumes (hors pomme de terre),salade,R,2007,1,1,4.1
Légumes (hors pomme de terre),salade,R,2007,7,1,NR
Légumes (hors pomme de terre),salade,R,2007,34,1,NR
Légumes (hors pomme de terre),salade,R,2008,1,2,4.1
Légumes (hors pomme de terre),salade,R,2008,2,1,3.9
Légumes (hors pomme de terre),salade,R,2008,2,2,4.1
Légumes (hors pomme de terre),salade,R,2008,5,1,4.1
Légumes (hors pomme de terre),salade,R,2008,6,1,4.1
Légumes (hors pomme de terre),salade,R,2008,7,2,4.1
Légumes (hors pomme de terre),salade,R,2008,8,1,4.1
Légumes (hors pomme de terre),salade,R,2008,8,2,4.1
Légumes (hors pomme de terre),salade,R,2008,9,1,4.1
Légumes (hors pomme de terre),salade,R,2008,9,2,4.1
Légumes (hors pomme de terre),salade,R,2008,34,2,4.1
Légumes (hors pomme de terre),salade,R,2009,5,2,4.1
Légumes (hors pomme de terre),salade,R,2009,6,2,4.1
Légumes (hors pomme de terre),tomate,R,2007,1,1,5.2
Légumes (hors pomme de terre),tomate,R,2007,7,1,NR
Légumes (hors pomme de terre),tomate,R,2007,34,1,NR
Légumes (hors pomme de terre),tomate,R,2008,1,2,NR
Légumes (hors pomme de terre),tomate,R,2008,2,1,5.2
Légumes (hors pomme de terre),tomate,R,2008,2,2,5.2
Légumes (hors pomme de terre),tomate,R,2008,5,1,5.2
Légumes (hors pomme de terre),tomate,R,2008,6,1,5.2
Légumes (hors pomme de terre),tomate,R,2008,7,2,5.2
Légumes (hors pomme de terre),tomate,R,2008,8,1,5.2
Légumes (hors pomme de terre),tomate,R,2008,8,2,5.2
Légumes (hors pomme de terre),tomate,R,2008,9,1,5.2
Légumes (hors pomme de terre),tomate,R,2008,9,2,5.2
Légumes (hors pomme de terre),tomate,R,2008,34,2,5.2
Légumes (hors pomme de terre),tomate,R,2009,5,2,5.2
Légumes (hors pomme de terre),tomate,R,2009,6,2,5.2
Légumes secs,haricot blanc,R,2008,6,1,29.5
Légumes secs,haricot blanc,R,2009,6,2,30.5
Légumes secs,lentille,R,2007,1,1,29.7
Légumes secs,lentille,R,2007,7,1,NR
Légumes secs,lentille,R,2007,34,1,NR
Légumes secs,lentille,R,2008,1,2,29.7
Légumes secs,lentille,R,2008,2,1,29.7
Légumes secs,lentille,R,2008,2,2,28.1
Légumes secs,lentille,R,2008,5,1,29.7
Légumes secs,lentille,R,2008,6,1,29.7
Légumes secs,lentille,R,2008,7,2,29.7
Légumes secs,lentille,R,2008,8,1,29.7
Légumes secs,lentille,R,2008,8,2,29.7
Légumes secs,lentille,R,2008,9,1,29.7
Légumes secs,lentille,R,2008,9,2,29.2
Légumes secs,lentille,R,2008,34,2,29.7
Légumes secs,lentille,R,2009,5,2,29.2
Légumes secs,lentille,R,2009,6,2,29.2
Margarine,margarine allégée,N,2007,99,1,50.8
Margarine,margarine allégée,N,2008,99,2,60.1
Margarine,margarine au tournesol,N,2007,99,1,63.7
Margarine,margarine au tournesol,N,2008,99,2,64.1
Oeufs et dérivés,"œuf brouillé, omelette",R,2007,1,1,29.2
Oeufs et dérivés,"œuf brouillé, omelette",R,2007,7,1,NR
Oeufs et dérivés,"œuf brouillé, omelette",R,2007,34,1,NR
Oeufs et dérivés,"œuf brouillé, omelette",R,2008,1,2,29.2
Oeufs et dérivés,"œuf brouillé, omelette",R,2008,2,1,29.2
Oeufs et dérivés,"œuf brouillé, omelette",R,2008,2,2,29.2
Oeufs et dérivés,"œuf brouillé, omelette",R,2008,5,1,29.2
Oeufs et dérivés,"œuf brouillé, omelette",R,2008,6,1,29.2
Oeufs et dérivés,"œuf brouillé, omelette",R,2008,7,2,29.2
Oeufs et dérivés,"œuf brouillé, omelette",R,2008,8,1,29.2
Oeufs et dérivés,"œuf brouillé, omelette",R,2008,8,2,29.2
Oeufs et dérivés,"œuf brouillé, omelette",R,2008,9,1,29.2
Oeufs et dérivés,"œuf brouillé, omelette",R,2008,9,2,29.2
Oeufs et dérivés,"œuf brouillé, omelette",R,2008,34,2,29.2
Oeufs et dérivés,"œuf brouillé, omelette",R,2009,5,2,29.2
Oeufs et dérivés,"œuf brouillé, omelette",R,2009,6,2,29.2
Oeufs et dérivés,oeuf dur,R,2007,1,1,24.2
Oeufs et dérivés,oeuf dur,R,2007,7,1,NR
Oeufs et dérivés,oeuf dur,R,2007,34,1,NR
Oeufs et dérivés,oeuf dur,R,2008,1,2,24.2
Oeufs et dérivés,oeuf dur,R,2008,2,1,24.2
Oeufs et dérivés,oeuf dur,R,2008,2,2,24.2
Oeufs et dérivés,oeuf dur,R,2008,6,1,24.2
Oeufs et dérivés,oeuf dur,R,2008,7,2,24.2
Oeufs et dérivés,oeuf dur,R,2008,8,1,24.2
Oeufs et dérivés,oeuf dur,R,2008,8,2,24.2
Oeufs et dérivés,oeuf dur,R,2008,9,1,24.2
Oeufs et dérivés,oeuf dur,R,2008,9,2,24.2
Oeufs et dérivés,oeuf dur,R,2008,34,2,24.2
Oeufs et dérivés,oeuf dur,R,2009,6,2,24.2
Pain et panification sèche,baguette,N,2007,99,1,75.2
Pain et panification sèche,baguette,N,2008,99,2,77.3
Pain et panification sèche,biscotte,N,2007,99,1,97.4
Pain et panification sèche,biscotte,N,2008,99,2,98
Pain et panification sèche,pain aux céréales,N,2007,99,1,67.2
Pain et panification sèche,pain aux céréales,N,2008,99,2,69.7
Pain et panification sèche,pain complet ou intégral,N,2007,99,1,64.3
Pain et panification sèche,pain complet ou intégral,N,2008,99,2,66.9
Pain et panification sèche,pain de campagne,N,2007,99,1,69
Pain et panification sèche,pain de campagne,N,2008,99,2,70.6
Pain et panification sèche,pain de mie,N,2007,99,1,67
Pain et panification sèche,pain de mie,N,2008,99,2,67
Pain et panification sèche,pain grillé,N,2007,99,1,85.8
Pain et panification sèche,pain grillé,N,2008,99,2,88.7
Pâtes,pâtes alimentaires aux oeufs cuites,N,2007,99,1,26.9
Pâtes,pâtes alimentaires aux oeufs cuites,N,2008,99,2,36.4
Pâtes,pâtes alimentaires cuites,N,2007,99,1,37.9
Pâtes,pâtes alimentaires cuites,N,2008,99,2,28.9
Pâtisseries et gâteaux,cake aux fruits confits,N,2007,99,1,79
Pâtisseries et gâteaux,cake aux fruits confits,N,2008,99,2,78.7
Pâtisseries et gâteaux,"chou, chouquette",N,2007,99,1,53.7
Pâtisseries et gâteaux,"chou, chouquette",N,2008,99,2,55.2
Pâtisseries et gâteaux,crêpe ou gaufre,N,2007,99,1,65.6
Pâtisseries et gâteaux,crêpe ou gaufre,N,2008,99,2,63.8
Pâtisseries et gâteaux,crêpe sucrée,N,2007,99,1,70.2
Pâtisseries et gâteaux,crêpe sucrée,N,2008,99,2,69.8
Pâtisseries et gâteaux,gâteau,N,2007,99,1,75.1
Pâtisseries et gâteaux,gâteau,N,2008,99,2,71.7
Pâtisseries et gâteaux,gâteau au chocolat,N,2007,99,1,65.1
Pâtisseries et gâteaux,gâteau au chocolat,N,2008,99,2,79.3
Pâtisseries et gâteaux,gateau moelleux fourré ou non,N,2007,99,1,83.9
Pâtisseries et gâteaux,gateau moelleux fourré ou non,N,2008,99,2,84.2
Pâtisseries et gâteaux,moelleux au chocolat,N,2007,99,1,83.5
Pâtisseries et gâteaux,moelleux au chocolat,N,2008,99,2,83.4
Pâtisseries et gâteaux,tarte ou tartelette,N,2007,99,1,54.3
Pâtisseries et gâteaux,tarte ou tartelette,N,2008,99,2,54.3
"Pizzas, quiches et pâtisseries salées",pizza,N,2007,99,1,49.8
"Pizzas, quiches et pâtisseries salées",pizza,N,2008,99,2,50.5
"Pizzas, quiches et pâtisseries salées",quiche lorraine,N,2007,99,1,53.9
"Pizzas, quiches et pâtisseries salées",quiche lorraine,N,2008,99,2,55.6
Plats composés,cassoulet,R,2008,2,1,26.7
Plats composés,cassoulet,R,2008,2,2,28
Plats composés,cassoulet,R,2008,5,1,30.8
Plats composés,cassoulet,R,2009,5,2,29.2
Plats composés,choucroute,R,2008,5,1,28.1
Plats composés,choucroute,R,2008,9,2,27.1
Plats composés,choucroute,R,2009,5,2,25.6
Plats composés,choucroute,R,2009,6,2,26.7
Plats composés,cordon bleu de volaille,R,2007,34,1,NR
Plats composés,cordon bleu de volaille,R,2008,34,2,46.3
Plats composés,couscous,R,2007,7,1,NR
Plats composés,couscous,R,2007,34,1,NR
Plats composés,couscous,R,2008,5,1,33.8
Plats composés,couscous,R,2008,6,1,33.8
Plats composés,couscous,R,2008,7,2,33.8
Plats composés,couscous,R,2008,9,1,33.8
Plats composés,couscous,R,2008,9,2,33.8
Plats composés,couscous,R,2008,34,2,33.8
Plats composés,couscous,R,2009,5,2,33.8
Plats composés,couscous,R,2009,6,2,33.8
Plats composés,crêpe salée,R,2007,1,1,39.4
Plats composés,crêpe salée,R,2007,7,1,NR
Plats composés,crêpe salée,R,2008,1,2,41.2
Plats composés,crêpe salée,R,2008,2,1,38.75
Plats composés,crêpe salée,R,2008,2,2,39.3
Plats composés,crêpe salée,R,2008,7,2,38.8
Plats composés,crêpe salée,R,2008,8,1,38.6
Plats composés,crêpe salée,R,2008,8,2,39.3
Plats composés,escalopes végétales à base de soja,N,2007,99,1,37.5
Plats composés,escalopes végétales à base de soja,N,2008,99,2,42.8
Plats composés,hachis parmentier,R,2007,1,1,31.6
Plats composés,hachis parmentier,R,2007,34,1,NR
Plats composés,hachis parmentier,R,2008,1,2,28.4
Plats composés,hachis parmentier,R,2008,2,1,31.3
Plats composés,hachis parmentier,R,2008,2,2,27.7
Plats composés,hachis parmentier,R,2008,5,1,28.4
Plats composés,hachis parmentier,R,2008,9,1,28.4
Plats composés,hachis parmentier,R,2008,9,2,29.8
Plats composés,hachis parmentier,R,2008,34,2,31.5
Plats composés,hachis parmentier,R,2009,5,2,29.8
Plats composés,paella,R,2008,8,1,30.7
Plats composés,paella,R,2008,8,2,31.1
Plats composés,pâtes fourrées type ravioli,R,2007,1,1,32.1
Plats composés,pâtes fourrées type ravioli,R,2007,7,1,NR
Plats composés,pâtes fourrées type ravioli,R,2007,34,1,NR
Plats composés,pâtes fourrées type ravioli,R,2008,1,2,30.6
Plats composés,pâtes fourrées type ravioli,R,2008,2,1,32.1
Plats composés,pâtes fourrées type ravioli,R,2008,2,2,30.6
Plats composés,pâtes fourrées type ravioli,R,2008,5,1,27.1
Plats composés,pâtes fourrées type ravioli,R,2008,6,1,33.4
Plats composés,pâtes fourrées type ravioli,R,2008,7,2,32.1
Plats composés,pâtes fourrées type ravioli,R,2008,8,1,28.4
Plats composés,pâtes fourrées type ravioli,R,2008,8,2,30.6
Plats composés,pâtes fourrées type ravioli,R,2008,9,1,30.9
Plats composés,pâtes fourrées type ravioli,R,2008,9,2,30.6
Plats composés,pâtes fourrées type ravioli,R,2008,34,2,32.1
Plats composés,pâtes fourrées type ravioli,R,2009,5,2,30.6
Plats composés,pâtes fourrées type ravioli,R,2009,6,2,30.6
Plats composés,pot-au-feu,R,2008,7,2,17.8
Plats composés,pot-au-feu,R,2008,8,2,32.5
Plats composés,pot-au-feu,R,2008,9,2,26.2
Plats composés,pot-au-feu,R,2009,5,2,20.5
Plats composés,taboulé,R,2007,34,1,NR
Plats composés,taboulé,R,2008,6,1,37
Plats composés,taboulé,R,2008,8,1,37
Plats composés,taboulé,R,2008,8,2,36.6
Plats composés,taboulé,R,2008,34,2,36.2
Plats composés,taboulé,R,2009,6,2,36.6
Plats composés,veau,R,2007,1,1,37.3
Plats composés,veau,R,2007,7,1,NR
Plats composés,veau,R,2007,34,1,NR
Plats composés,veau,R,2008,1,2,38.6
Plats composés,veau,R,2008,2,1,37.3
Plats composés,veau,R,2008,2,2,37.3
Plats composés,veau,R,2008,5,1,37.5
Plats composés,veau,R,2008,6,1,37.3
Plats composés,veau,R,2008,7,2,37.3
Plats composés,veau,R,2008,8,1,37.3
Plats composés,veau,R,2008,8,2,37.3
Plats composés,veau,R,2008,9,1,37.3
Plats composés,veau,R,2008,9,2,37.7
Plats composés,veau,R,2008,34,2,37.3
Plats composés,veau,R,2009,5,2,37.7
Plats composés,veau,R,2009,6,2,37.7
Poissons,lieu ou colin,R,2007,1,1,23.9
Poissons,lieu ou colin,R,2007,7,1,NR
Poissons,lieu ou colin,R,2008,1,2,22.7
Poissons,lieu ou colin,R,2008,2,1,23.9
Poissons,lieu ou colin,R,2008,2,2,23.8
Poissons,lieu ou colin,R,2008,7,2,23.8
Poissons,poisson pané,R,2007,1,1,41.9
Poissons,poisson pané,R,2007,7,1,NR
Poissons,poisson pané,R,2007,34,1,NR
Poissons,poisson pané,R,2008,1,2,39.9
Poissons,poisson pané,R,2008,2,1,41.9
Poissons,poisson pané,R,2008,2,2,40.8
Poissons,poisson pané,R,2008,5,1,41.9
Poissons,poisson pané,R,2008,6,1,41.9
Poissons,poisson pané,R,2008,7,2,41.9
Poissons,poisson pané,R,2008,8,1,39.6
Poissons,poisson pané,R,2008,8,2,40.8
Poissons,poisson pané,R,2008,9,1,41.9
Poissons,poisson pané,R,2008,9,2,40.8
Poissons,poisson pané,R,2008,34,2,41.9
Poissons,poisson pané,R,2009,5,2,40.8
Poissons,poisson pané,R,2009,6,2,40.8
Poissons,saumon,R,2007,1,1,37.2
Poissons,saumon,R,2007,7,1,NR
Poissons,saumon,R,2007,34,1,NR
Poissons,saumon,R,2008,1,2,38.3
Poissons,saumon,R,2008,2,1,37.2
Poissons,saumon,R,2008,2,2,40.2
Poissons,saumon,R,2008,5,1,37.2
Poissons,saumon,R,2008,6,1,37.2
Poissons,saumon,R,2008,7,2,40
Poissons,saumon,R,2008,8,1,40.6
Poissons,saumon,R,2008,8,2,38.6
Poissons,saumon,R,2008,9,1,37.2
Poissons,saumon,R,2008,9,2,38.9
Poissons,saumon,R,2008,34,2,37.2
Poissons,saumon,R,2009,5,2,38.9
Poissons,saumon,R,2009,6,2,38.9
Poissons,saumon fumé,R,2007,34,1,NR
Poissons,saumon fumé,R,2008,34,2,35.7
Poissons,thon,R,2008,8,1,34.1
Poissons,thon,R,2008,8,2,32.4
Poissons,thon en conserve,R,2007,7,1,NR
Poissons,thon en conserve,R,2007,34,1,NR
Poissons,thon en conserve,R,2008,7,2,34.6
Poissons,thon en conserve,R,2008,34,2,34.6
Pommes de terre et apparentés,pomme de terre cuite à l'eau,R,2007,1,1,18.6
Pommes de terre et apparentés,pomme de terre cuite à l'eau,R,2007,7,1,NR
Pommes de terre et apparentés,pomme de terre cuite à l'eau,R,2007,34,1,NR
Pommes de terre et apparentés,pomme de terre cuite à l'eau,R,2008,1,2,18.6
Pommes de terre et apparentés,pomme de terre cuite à l'eau,R,2008,2,1,18.6
Pommes de terre et apparentés,pomme de terre cuite à l'eau,R,2008,2,2,18.7
Pommes de terre et apparentés,pomme de terre cuite à l'eau,R,2008,5,1,18.6
Pommes de terre et apparentés,pomme de terre cuite à l'eau,R,2008,6,1,18.6
Pommes de terre et apparentés,pomme de terre cuite à l'eau,R,2008,7,2,18.6
Pommes de terre et apparentés,pomme de terre cuite à l'eau,R,2008,8,1,18.6
Pommes de terre et apparentés,pomme de terre cuite à l'eau,R,2008,8,2,18.6
Pommes de terre et apparentés,pomme de terre cuite à l'eau,R,2008,9,1,18.7
Pommes de terre et apparentés,pomme de terre cuite à l'eau,R,2008,9,2,18.6
Pommes de terre et apparentés,pomme de terre cuite à l'eau,R,2008,34,2,18.6
Pommes de terre et apparentés,pomme de terre cuite à l'eau,R,2009,5,2,18.6
Pommes de terre et apparentés,pomme de terre cuite à l'eau,R,2009,6,2,18.6
Pommes de terre et apparentés,pomme de terre sautée ou frite,R,2007,1,1,47.6
Pommes de terre et apparentés,pomme de terre sautée ou frite,R,2007,7,1,NR
Pommes de terre et apparentés,pomme de terre sautée ou frite,R,2007,34,1,NR
Pommes de terre et apparentés,pomme de terre sautée ou frite,R,2008,1,2,50.4
Pommes de terre et apparentés,pomme de terre sautée ou frite,R,2008,2,1,54
Pommes de terre et apparentés,pomme de terre sautée ou frite,R,2008,2,2,46.3
Pommes de terre et apparentés,pomme de terre sautée ou frite,R,2008,5,1,50.4
Pommes de terre et apparentés,pomme de terre sautée ou frite,R,2008,6,1,50.4
Pommes de terre et apparentés,pomme de terre sautée ou frite,R,2008,7,2,44.6
Pommes de terre et apparentés,pomme de terre sautée ou frite,R,2008,8,1,50.4
Pommes de terre et apparentés,pomme de terre sautée ou frite,R,2008,8,2,50.4
Pommes de terre et apparentés,pomme de terre sautée ou frite,R,2008,9,1,50.4
Pommes de terre et apparentés,pomme de terre sautée ou frite,R,2008,9,2,50.4
Pommes de terre et apparentés,pomme de terre sautée ou frite,R,2008,34,2,50.4
Pommes de terre et apparentés,pomme de terre sautée ou frite,R,2009,5,2,49
Pommes de terre et apparentés,pomme de terre sautée ou frite,R,2009,6,2,49
Pommes de terre et apparentés,purée de pommes de terre,R,2007,1,1,19.2
Pommes de terre et apparentés,purée de pommes de terre,R,2007,7,1,NR
Pommes de terre et apparentés,purée de pommes de terre,R,2007,34,1,NR
Pommes de terre et apparentés,purée de pommes de terre,R,2008,1,2,19.5
Pommes de terre et apparentés,purée de pommes de terre,R,2008,2,1,20.2
Pommes de terre et apparentés,purée de pommes de terre,R,2008,2,2,19.5
Pommes de terre et apparentés,purée de pommes de terre,R,2008,5,1,19.5
Pommes de terre et apparentés,purée de pommes de terre,R,2008,6,1,19.5
Pommes de terre et apparentés,purée de pommes de terre,R,2008,7,2,19.5
Pommes de terre et apparentés,purée de pommes de terre,R,2008,8,1,19.5
Pommes de terre et apparentés,purée de pommes de terre,R,2008,8,2,19.5
Pommes de terre et apparentés,purée de pommes de terre,R,2008,9,1,19.5
Pommes de terre et apparentés,purée de pommes de terre,R,2008,9,2,19.5
Pommes de terre et apparentés,purée de pommes de terre,R,2008,34,2,19.5
Pommes de terre et apparentés,purée de pommes de terre,R,2009,5,2,19.5
Pommes de terre et apparentés,purée de pommes de terre,R,2009,6,2,19.5
Riz et blé dur ou concassé,blé dur précuit,N,2008,99,2,26.8
Riz et blé dur ou concassé,"couscous (graine seule), semoule cuite",N,2007,99,1,41.3
Riz et blé dur ou concassé,"couscous (graine seule), semoule cuite",N,2008,99,2,45.1
Riz et blé dur ou concassé,riz,N,2007,99,1,35.7
Riz et blé dur ou concassé,riz,N,2008,99,2,37.7
"Sandwiches, casse-croûte",hamburger,R,2007,1,1,47.7
"Sandwiches, casse-croûte",hamburger,R,2007,34,1,NR
"Sandwiches, casse-croûte",hamburger,R,2008,1,2,51.1
"Sandwiches, casse-croûte",hamburger,R,2008,2,1,54.5
"Sandwiches, casse-croûte",hamburger,R,2008,2,2,49.2
"Sandwiches, casse-croûte",hamburger,R,2008,5,1,51.1
"Sandwiches, casse-croûte",hamburger,R,2008,6,1,51.1
"Sandwiches, casse-croûte",hamburger,R,2008,8,1,51.6
"Sandwiches, casse-croûte",hamburger,R,2008,8,2,51.3
"Sandwiches, casse-croûte",hamburger,R,2008,9,1,50.7
"Sandwiches, casse-croûte",hamburger,R,2008,9,2,51.3
"Sandwiches, casse-croûte",hamburger,R,2008,34,2,51.1
"Sandwiches, casse-croûte",hamburger,R,2009,5,2,50.8
"Sandwiches, casse-croûte",hamburger,R,2009,6,2,50.8
"Sandwiches, casse-croûte",sandwich,R,2007,1,1,55.6
"Sandwiches, casse-croûte",sandwich,R,2007,7,1,NR
"Sandwiches, casse-croûte",sandwich,R,2007,34,1,NR
"Sandwiches, casse-croûte",sandwich,R,2008,1,2,58.7
"Sandwiches, casse-croûte",sandwich,R,2008,2,1,53.4
"Sandwiches, casse-croûte",sandwich,R,2008,2,2,55.4
"Sandwiches, casse-croûte",sandwich,R,2008,5,1,54.6
"Sandwiches, casse-croûte",sandwich,R,2008,6,1,58
"Sandwiches, casse-croûte",sandwich,R,2008,7,2,54.9
"Sandwiches, casse-croûte",sandwich,R,2008,8,1,NR
"Sandwiches, casse-croûte",sandwich,R,2008,8,2,55.4
"Sandwiches, casse-croûte",sandwich,R,2008,9,1,52.9
"Sandwiches, casse-croûte",sandwich,R,2008,9,2,55.4
"Sandwiches, casse-croûte",sandwich,R,2008,34,2,54.9
"Sandwiches, casse-croûte",sandwich,R,2009,5,2,55.4
"Sandwiches, casse-croûte",sandwich,R,2009,6,2,55.4
Soupes et bouillons,soupe de légumes,N,2007,99,1,8.4
Soupes et bouillons,soupe de légumes,N,2008,99,2,8.1
Soupes et bouillons,soupe de légumes,R,2007,1,1,8.2
Soupes et bouillons,soupe de légumes,R,2007,7,1,NR
Soupes et bouillons,soupe de légumes,R,2007,34,1,NR
Soupes et bouillons,soupe de légumes,R,2008,1,2,7.3
Soupes et bouillons,soupe de légumes,R,2008,2,1,5.4
Soupes et bouillons,soupe de légumes,R,2008,2,2,4.5
Soupes et bouillons,soupe de légumes,R,2008,5,1,7.2
Soupes et bouillons,soupe de légumes,R,2008,6,1,7.2
Soupes et bouillons,soupe de légumes,R,2008,7,2,7.2
Soupes et bouillons,soupe de légumes,R,2008,8,1,7.2
Soupes et bouillons,soupe de légumes,R,2008,8,2,7.4
Soupes et bouillons,soupe de légumes,R,2008,9,1,5
Soupes et bouillons,soupe de légumes,R,2008,9,2,7.4
Soupes et bouillons,soupe de légumes,R,2008,34,2,7.8
Soupes et bouillons,soupe de légumes,R,2009,5,2,6.8
Soupes et bouillons,soupe de légumes,R,2009,6,2,6.8
Soupes et bouillons,soupe poulet vermicelle,R,2008,8,1,10
Soupes et bouillons,soupe poulet vermicelle,R,2008,8,2,10
Soupes et bouillons,velouté de tomate,N,2007,99,1,9.8
Soupes et bouillons,velouté de tomate,N,2008,99,2,10.3
Sucres et dérivés,bonbons tout type,N,2007,99,1,95.5
Sucres et dérivés,bonbons tout type,N,2008,99,2,96
Sucres et dérivés,confiture,N,2007,99,1,57.9
Sucres et dérivés,confiture,N,2008,99,2,59.2
Sucres et dérivés,miel,N,2007,99,1,82.4
Sucres et dérivés,miel,N,2008,99,2,83.2
Sucres et dérivés,sucre,N,2007,99,1,99.6
Sucres et dérivés,sucre,N,2008,99,2,100
Ultra-frais laitier,crème fraîche,R,2007,1,1,25.4
Ultra-frais laitier,crème fraîche,R,2007,7,1,NR
Ultra-frais laitier,crème fraîche,R,2007,34,1,NR
Ultra-frais laitier,crème fraîche,R,2008,1,2,25.4
Ultra-frais laitier,crème fraîche,R,2008,5,1,25.4
Ultra-frais laitier,crème fraîche,R,2008,6,1,25.4
Ultra-frais laitier,crème fraîche,R,2008,7,2,25.4
Ultra-frais laitier,crème fraîche,R,2008,9,1,25.4
Ultra-frais laitier,crème fraîche,R,2008,9,2,25.4
Ultra-frais laitier,crème fraîche,R,2008,34,2,25.4
Ultra-frais laitier,crème fraîche,R,2009,5,2,25.4
Ultra-frais laitier,crème fraîche,R,2009,6,2,25.4
Ultra-frais laitier,lait fermenté et yaourt à boire,R,2007,1,1,17.3
Ultra-frais laitier,lait fermenté et yaourt à boire,R,2007,7,1,NR
Ultra-frais laitier,lait fermenté et yaourt à boire,R,2007,34,1,NR
Ultra-frais laitier,lait fermenté et yaourt à boire,R,2008,1,2,17.3
Ultra-frais laitier,lait fermenté et yaourt à boire,R,2008,2,1,17.3
Ultra-frais laitier,lait fermenté et yaourt à boire,R,2008,2,2,17.3
Ultra-frais laitier,lait fermenté et yaourt à boire,R,2008,5,1,17.3
Ultra-frais laitier,lait fermenté et yaourt à boire,R,2008,6,1,17.3
Ultra-frais laitier,lait fermenté et yaourt à boire,R,2008,7,2,17.3
Ultra-frais laitier,lait fermenté et yaourt à boire,R,2008,8,1,17.3
Ultra-frais laitier,lait fermenté et yaourt à boire,R,2008,8,2,17.3
Ultra-frais laitier,lait fermenté et yaourt à boire,R,2008,9,1,17.3
Ultra-frais laitier,lait fermenté et yaourt à boire,R,2008,9,2,17.3
Ultra-frais laitier,lait fermenté et yaourt à boire,R,2008,34,2,17.3
Ultra-frais laitier,lait fermenté et yaourt à boire,R,2009,5,2,17.3
Ultra-frais laitier,lait fermenté et yaourt à boire,R,2009,6,2,17.3
Ultra-frais laitier,yaourt 0%,R,2007,1,1,12.3
Ultra-frais laitier,yaourt 0%,R,2007,7,1,NR
Ultra-frais laitier,yaourt 0%,R,2007,34,1,NR
Ultra-frais laitier,yaourt 0%,R,2008,1,2,12.3
Ultra-frais laitier,yaourt 0%,R,2008,2,1,12.3
Ultra-frais laitier,yaourt 0%,R,2008,2,2,12.3
Ultra-frais laitier,yaourt 0%,R,2008,5,1,12.3
Ultra-frais laitier,yaourt 0%,R,2008,6,1,12.3
Ultra-frais laitier,yaourt 0%,R,2008,7,2,12.3
Ultra-frais laitier,yaourt 0%,R,2008,8,1,12.3
Ultra-frais laitier,yaourt 0%,R,2008,8,2,NR
Ultra-frais laitier,yaourt 0%,R,2008,9,1,12.3
Ultra-frais laitier,yaourt 0%,R,2008,9,2,12.3
Ultra-frais laitier,yaourt 0%,R,2008,34,2,12.3
Ultra-frais laitier,yaourt 0%,R,2009,5,2,12.3
Ultra-frais laitier,yaourt 0%,R,2009,6,2,12.3
Ultra-frais laitier,yaourt au lait entier,R,2007,1,1,18.4
Ultra-frais laitier,yaourt au lait entier,R,2007,7,1,NR
Ultra-frais laitier,yaourt au lait entier,R,2007,34,1,NR
Ultra-frais laitier,yaourt au lait entier,R,2008,1,2,18.5
Ultra-frais laitier,yaourt au lait entier,R,2008,2,1,18.4
Ultra-frais laitier,yaourt au lait entier,R,2008,2,2,18.5
Ultra-frais laitier,yaourt au lait entier,R,2008,5,1,18.5
Ultra-frais laitier,yaourt au lait entier,R,2008,6,1,18.5
Ultra-frais laitier,yaourt au lait entier,R,2008,7,2,18.5
Ultra-frais laitier,yaourt au lait entier,R,2008,8,1,18.5
Ultra-frais laitier,yaourt au lait entier,R,2008,8,2,17.2
Ultra-frais laitier,yaourt au lait entier,R,2008,9,1,18.5
Ultra-frais laitier,yaourt au lait entier,R,2008,9,2,18
Ultra-frais laitier,yaourt au lait entier,R,2008,34,2,18.5
Ultra-frais laitier,yaourt au lait entier,R,2009,5,2,18
Ultra-frais laitier,yaourt au lait entier,R,2009,6,2,18
Ultra-frais laitier,yaourt au lait partiellement écrémé,R,2007,1,1,17.2
Ultra-frais laitier,yaourt au lait partiellement écrémé,R,2007,7,1,NR
Ultra-frais laitier,yaourt au lait partiellement écrémé,R,2007,34,1,NR
Ultra-frais laitier,yaourt au lait partiellement écrémé,R,2008,1,2,17.2
Ultra-frais laitier,yaourt au lait partiellement écrémé,R,2008,2,1,17.2
Ultra-frais laitier,yaourt au lait partiellement écrémé,R,2008,2,2,17.2
Ultra-frais laitier,yaourt au lait partiellement écrémé,R,2008,5,1,17.2
Ultra-frais laitier,yaourt au lait partiellement écrémé,R,2008,7,2,17.2
Ultra-frais laitier,yaourt au lait partiellement écrémé,R,2008,8,1,17.2
Ultra-frais laitier,yaourt au lait partiellement écrémé,R,2008,8,2,16
Ultra-frais laitier,yaourt au lait partiellement écrémé,R,2008,9,1,17.2
Ultra-frais laitier,yaourt au lait partiellement écrémé,R,2008,9,2,16.8
Ultra-frais laitier,yaourt au lait partiellement écrémé,R,2008,34,2,17.2
Ultra-frais laitier,yaourt au lait partiellement écrémé,R,2009,5,2,16.8
Ultra-frais laitier,yaourt au lait partiellement écrémé,R,2009,6,2,16.8
Viande,bœuf steak,R,2007,1,1,35.8
Viande,bœuf steak,R,2007,7,1,NR
Viande,bœuf steak,R,2007,34,1,NR
Viande,bœuf steak,R,2008,1,2,36
Viande,bœuf steak,R,2008,2,1,35.8
Viande,bœuf steak,R,2008,2,2,36
Viande,bœuf steak,R,2008,5,1,36
Viande,bœuf steak,R,2008,6,1,36
Viande,bœuf steak,R,2008,7,2,37.1
Viande,bœuf steak,R,2008,8,1,36
Viande,bœuf steak,R,2008,8,2,36
Viande,bœuf steak,R,2008,9,1,36
Viande,bœuf steak,R,2008,9,2,NR
Viande,bœuf steak,R,2008,34,2,36
Viande,bœuf steak,R,2009,5,2,36
Viande,bœuf steak,R,2009,6,2,36
Viande,côte de porc,R,2007,1,1,42.6
Viande,côte de porc,R,2007,7,1,NR
Viande,côte de porc,R,2007,34,1,NR
Viande,côte de porc,R,2008,1,2,42.3
Viande,côte de porc,R,2008,2,1,42.6
Viande,côte de porc,R,2008,2,2,42.3
Viande,côte de porc,R,2008,5,1,41.8
Viande,côte de porc,R,2008,6,1,42.6
Viande,côte de porc,R,2008,7,2,NR
Viande,côte de porc,R,2008,8,1,42.6
Viande,côte de porc,R,2008,8,2,42.3
Viande,côte de porc,R,2008,9,1,46.2
Viande,côte de porc,R,2008,9,2,42.3
Viande,côte de porc,R,2008,34,2,42.6
Viande,côte de porc,R,2009,5,2,42.3
Viande,côte de porc,R,2009,6,2,42.3
Viande,mouton,R,2007,1,1,42.4
Viande,mouton,R,2007,7,1,NR
Viande,mouton,R,2007,34,1,NR
Viande,mouton,R,2008,1,2,43.1
Viande,mouton,R,2008,2,1,42.4
Viande,mouton,R,2008,2,2,42.4
Viande,mouton,R,2008,5,1,44.5
Viande,mouton,R,2008,6,1,NR
Viande,mouton,R,2008,7,2,42.4
Viande,mouton,R,2008,8,1,42.4
Viande,mouton,R,2008,8,2,46.7
Viande,mouton,R,2008,9,1,41.6
Viande,mouton,R,2008,9,2,43.1
Viande,mouton,R,2008,34,2,42.4
Viande,mouton,R,2009,5,2,44
Viande,mouton,R,2009,6,2,43.1
Viande,rôti de porc,R,2007,1,1,46
Viande,rôti de porc,R,2007,7,1,NR
Viande,rôti de porc,R,2007,34,1,NR
Viande,rôti de porc,R,2008,1,2,NR
Viande,rôti de porc,R,2008,2,1,46
Viande,rôti de porc,R,2008,2,2,43.6
Viande,rôti de porc,R,2008,5,1,40.1
Viande,rôti de porc,R,2008,6,1,36.4
Viande,rôti de porc,R,2008,7,2,46
Viande,rôti de porc,R,2008,8,1,46
Viande,rôti de porc,R,2008,8,2,42.1
Viande,rôti de porc,R,2008,9,1,46
Viande,rôti de porc,R,2008,9,2,42.4
Viande,rôti de porc,R,2008,34,2,46
Viande,rôti de porc,R,2009,5,2,42.4
Viande,rôti de porc,R,2009,6,2,42.4
Viennoiserie,brioche et pain brioché,N,2007,99,1,75.9
Viennoiserie,brioche et pain brioché,N,2008,99,2,77.6
Viennoiserie,croissant,N,2007,99,1,79.9
Viennoiserie,croissant,N,2008,99,2,79.8
Viennoiserie,pain au chocolat,N,2007,99,1,80.7
Viennoiserie,pain au chocolat,N,2008,99,2,80.7
Volaille et gibier,canard,R,2007,34,1,NR
Volaille et gibier,canard,R,2008,8,1,45.3
Volaille et gibier,canard,R,2008,8,2,45.6
Volaille et gibier,canard,R,2008,34,2,48.5
Volaille et gibier,dinde escalope,R,2007,1,1,32.2
Volaille et gibier,dinde escalope,R,2007,7,1,NR
Volaille et gibier,dinde escalope,R,2007,34,1,NR
Volaille et gibier,dinde escalope,R,2008,1,2,32.2
Volaille et gibier,dinde escalope,R,2008,2,1,32.2
Volaille et gibier,dinde escalope,R,2008,2,2,32.2
Volaille et gibier,dinde escalope,R,2008,5,1,32.2
Volaille et gibier,dinde escalope,R,2008,6,1,32.2
Volaille et gibier,dinde escalope,R,2008,7,2,32.2
Volaille et gibier,dinde escalope,R,2008,8,1,32.2
Volaille et gibier,dinde escalope,R,2008,8,2,32.2
Volaille et gibier,dinde escalope,R,2008,9,1,32.2
Volaille et gibier,dinde escalope,R,2008,9,2,32.2
Volaille et gibier,dinde escalope,R,2008,34,2,32.2
Volaille et gibier,dinde escalope,R,2009,5,2,32.2
Volaille et gibier,dinde escalope,R,2009,6,2,32.2
Volaille et gibier,dinde rôtie,R,2008,9,1,41.6
Volaille et gibier,dinde rôtie,R,2008,9,2,44.2
Volaille et gibier,poulet,R,2007,1,1,37.7
Volaille et gibier,poulet,R,2007,7,1,NR
Volaille et gibier,poulet,R,2007,34,1,NR
Volaille et gibier,poulet,R,2008,1,2,37.5
Volaille et gibier,poulet,R,2008,2,1,37.7
Volaille et gibier,poulet,R,2008,2,2,35.1
Volaille et gibier,poulet,R,2008,5,1,37.5
Volaille et gibier,poulet,R,2008,6,1,37.5
Volaille et gibier,poulet,R,2008,7,2,NR
Volaille et gibier,poulet,R,2008,8,1,37.5
Volaille et gibier,poulet,R,2008,8,2,37.5
Volaille et gibier,poulet,R,2008,9,1,37.5
Volaille et gibier,poulet,R,2008,9,2,36.9
Volaille et gibier,poulet,R,2008,34,2,37.5
Volaille et gibier,poulet,R,2009,5,2,36.9
Volaille et gibier,poulet,R,2009,6,2,36.9
